<svg width="706" height="340" viewBox="0 0 706 340" fill="none" xmlns="http://www.w3.org/2000/svg">
<g clip-path="url(#clip0)">
<path d="M146.997 58.8839C146.958 71.2013 146.127 83.5034 144.51 95.7136C144.453 96.1424 144.391 96.5712 144.334 97H29.3488C29.0088 96.5764 28.6741 96.1476 28.3497 95.7136C27.2682 94.2774 26.2538 92.7999 25.3217 91.2707C20.8412 83.9037 18.7606 75.2607 20.764 69.2783L20.8 69.1853C21.2323 67.8753 21.9183 66.6639 22.8187 65.6206C27.4329 60.3511 36.8263 61.1725 45.3698 65.3571C37.6813 57.0086 31.5374 46.454 31.0224 37.0051C30.5177 27.7886 35.2864 21.1759 40.4671 15.5499C40.6371 15.3639 40.8071 15.1831 40.9771 15.0023C41.0596 14.9093 41.1471 14.8215 41.2293 14.7285C45.272 10.4406 49.9893 6.20946 56.8541 6.67961C64.383 7.19622 72.762 13.4731 78.6534 20.8091C84.5448 28.1399 88.4791 36.4833 92.4652 44.6252C96.4563 52.762 100.772 61.1054 107.142 68.0435C98.506 57.2101 91.5227 44.868 88.9016 32.8412C86.2804 20.8143 88.4638 9.23687 96.0751 3.52307C98.3861 1.84149 101.065 0.739628 103.888 0.309698C104.217 0.25287 104.552 0.206375 104.892 0.165046C111.962 -0.682183 120.424 1.72523 127.644 7.55269C135.595 13.9691 141.136 23.5162 143.917 32.5932C146.698 41.6701 147.038 50.4217 146.997 58.8839Z" fill="#F7B34F" fill-opacity="0.26"/>
<path d="M72 97H69.8269C69.1345 96.5628 68.4388 96.1307 67.74 95.7039C67.3073 95.428 66.8696 95.1625 66.4317 94.8919C59.199 90.4309 51.9222 86.1539 44.6014 82.0608C37.2872 77.9642 29.9373 74.0585 22.5519 70.3436C22.3562 70.2578 22.1961 70.1046 22.0994 69.9106C22.0027 69.7166 21.9755 69.4941 22.0225 69.2817C22.0303 69.2539 22.0423 69.2275 22.0583 69.2036C22.16 69.0058 22.3891 68.9226 22.7251 69.0891C23.631 69.5472 24.5421 70.0053 25.448 70.4737C32.8539 74.2528 40.2292 78.2227 47.5738 82.3835C54.9134 86.5425 62.2123 90.8872 69.4705 95.4176C69.6231 95.5113 69.7759 95.6102 69.9285 95.7039C70.6206 96.1359 71.3078 96.568 72 97Z" fill="white"/>
<path d="M100 97H98.6604C98.356 96.5712 98.0567 96.1424 97.7522 95.7137C90.5984 85.6191 83.446 75.5246 76.2951 65.4301C64.5847 48.9038 52.8777 32.3775 41.1743 15.8512C41.105 15.7622 41.0532 15.6605 41.0219 15.5515C40.9206 15.1847 41.1845 14.9678 41.5244 15.0039C41.6677 15.0239 41.8052 15.0748 41.9277 15.1532C42.0501 15.2316 42.1548 15.3357 42.2346 15.4585C48.8001 24.7265 55.364 33.991 61.9261 43.2521C73.5756 59.6957 85.2234 76.1376 96.8695 92.5778C97.6103 93.6214 98.351 94.6701 99.0918 95.7137C99.3962 96.1424 99.7007 96.5712 100 97Z" fill="white"/>
<path d="M130.973 88.9155C130.916 91.2128 130.776 93.474 130.588 95.7145C130.552 96.143 130.515 96.5715 130.479 97H129.037C129.079 96.5715 129.12 96.143 129.157 95.7145C129.443 92.4777 129.641 89.2046 129.651 85.8439C129.637 76.5264 128.669 67.2345 126.763 58.1109C124.736 48.2872 121.85 38.6572 118.139 29.33C114.244 19.4926 109.56 9.98046 104.134 0.884697C104.032 0.736522 103.986 0.557354 104.004 0.378775C104.061 -0.0290624 104.607 -0.152962 105.019 0.234225C105.1 0.310189 105.17 0.397077 105.227 0.49235C105.898 1.62294 106.557 2.75696 107.205 3.89443C112.433 13.042 116.918 22.5884 120.616 32.443C124.139 41.8019 126.833 51.4475 128.668 61.2704C130.385 70.3832 131.158 79.6466 130.973 88.9155Z" fill="white"/>
<path d="M680.083 97.294H29.2498C27.7253 97.2954 26.2636 97.9018 25.1856 98.9802C24.1076 100.059 23.5013 101.521 23.5 103.046V334.356C23.5013 335.881 24.1076 337.343 25.1856 338.422C26.2636 339.5 27.7253 340.107 29.2498 340.108H680.083C680.915 340.108 681.736 339.928 682.491 339.579C683.246 339.231 683.916 338.722 684.456 338.09C684.501 338.04 684.543 337.987 684.581 337.931C684.924 337.512 685.202 337.042 685.405 336.539C685.694 335.848 685.842 335.106 685.84 334.356V103.046C685.839 101.52 685.231 100.057 684.152 98.9782C683.072 97.8997 681.609 97.2939 680.083 97.294ZM684.198 334.356C684.199 335.159 683.963 335.943 683.519 336.612C683.125 337.201 682.59 337.681 681.963 338.01C681.382 338.311 680.737 338.467 680.083 338.466H29.2498C28.1607 338.464 27.1166 338.031 26.3464 337.261C25.5763 336.49 25.1431 335.446 25.1417 334.356V103.046C25.143 101.956 25.5763 100.912 26.3464 100.141C27.1166 99.3711 28.1607 98.9377 29.2498 98.9364H680.083C681.174 98.9363 682.219 99.369 682.991 100.139C683.762 100.91 684.197 101.955 684.198 103.046V334.356Z" fill="black" fill-opacity="0.38"/>
<path d="M684.016 120.347H25.3193V121.991H684.016V120.347Z" fill="black" fill-opacity="0.38"/>
<path d="M38.2917 114.559C41.0152 114.559 43.223 112.35 43.223 109.626C43.223 106.902 41.0152 104.693 38.2917 104.693C35.5682 104.693 33.3604 106.902 33.3604 109.626C33.3604 112.35 35.5682 114.559 38.2917 114.559Z" fill="#3F3D56"/>
<path d="M52.4689 114.559C55.1924 114.559 57.4003 112.35 57.4003 109.626C57.4003 106.902 55.1924 104.693 52.4689 104.693C49.7454 104.693 47.5376 106.902 47.5376 109.626C47.5376 112.35 49.7454 114.559 52.4689 114.559Z" fill="#3F3D56"/>
<path d="M66.6467 114.559C69.3702 114.559 71.578 112.35 71.578 109.626C71.578 106.902 69.3702 104.693 66.6467 104.693C63.9232 104.693 61.7153 106.902 61.7153 109.626C61.7153 112.35 63.9232 114.559 66.6467 114.559Z" fill="#3F3D56"/>
<path d="M404.637 168.862H309.023C307.624 168.862 306.282 168.306 305.293 167.316C304.303 166.326 303.748 164.984 303.748 163.585C303.748 162.185 304.303 160.843 305.293 159.853C306.282 158.864 307.624 158.308 309.023 158.308H404.637C406.036 158.308 407.378 158.864 408.367 159.853C409.356 160.843 409.912 162.185 409.912 163.585C409.912 164.984 409.356 166.326 408.367 167.316C407.378 168.306 406.036 168.862 404.637 168.862Z" fill="#F7B34F"/>
<path d="M86.1157 267.104L82.1988 304.081L82.0604 305.401H71.4639C71.5891 304.972 71.7144 304.53 71.8464 304.081C74.8533 293.765 78.9482 278.706 78.5061 274.716C77.8139 268.489 82.6606 266.411 82.6606 266.411L82.9639 266.471L86.1157 267.104Z" fill="#F2FF88"/>
<path d="M103.205 255.69C112.15 255.69 119.401 248.437 119.401 239.489C119.401 230.542 112.15 223.289 103.205 223.289C94.2608 223.289 87.0098 230.542 87.0098 239.489C87.0098 248.437 94.2608 255.69 103.205 255.69Z" fill="#A0616A"/>
<path d="M124.17 297.551C123.354 299.057 122.684 300.639 122.172 302.274C121.981 302.855 121.797 303.461 121.625 304.081C121.5 304.51 121.388 304.952 121.276 305.401H78.5591C78.6186 304.965 78.6711 304.523 78.7307 304.081C80.9134 286.833 82.6804 269.327 82.964 266.471C82.9904 266.2 83.0036 266.062 83.0036 266.062C108.602 252.566 127.283 270.217 127.283 270.217C127.283 270.217 127.309 270.342 127.349 270.586C127.758 273.053 129.841 287.459 124.17 297.551Z" fill="#F2FF88"/>
<path d="M122.172 302.274L119.324 296.166L120.016 271.945L127.349 270.586L127.606 270.54C131.396 272.744 134.329 276.166 135.927 280.25C137.352 283.812 140.062 294.524 142.35 304.081C142.456 304.523 142.561 304.965 142.667 305.401H123.629L123.016 304.081L122.172 302.274Z" fill="#F2FF88"/>
<path d="M148.226 196.565H54.5767C52.568 196.568 50.6423 197.367 49.2219 198.788C47.8015 200.208 47.0024 202.135 47 204.144V297.822C47.0024 299.831 47.8015 301.757 49.2219 303.178C50.6423 304.599 52.568 305.398 54.5767 305.401H148.226C150.235 305.399 152.161 304.6 153.582 303.179C155.002 301.758 155.801 299.831 155.802 297.822V204.144C155.801 202.134 155.002 200.207 153.582 198.786C152.161 197.365 150.235 196.566 148.226 196.565ZM154.483 297.822C154.482 299.481 153.822 301.073 152.649 302.246C151.476 303.42 149.885 304.08 148.226 304.081H54.5767C52.9178 304.079 51.3276 303.419 50.1545 302.245C48.9815 301.072 48.3214 299.481 48.3188 297.822V204.144C48.3214 202.485 48.9815 200.894 50.1545 199.721C51.3276 198.547 52.9178 197.887 54.5767 197.884H148.226C149.885 197.886 151.476 198.546 152.649 199.719C153.822 200.893 154.482 202.484 154.483 204.144V297.822ZM82.199 304.081L82.0605 305.401H121.276C121.388 304.952 121.5 304.51 121.625 304.081H82.199Z" fill="black" fill-opacity="0.38"/>
<path d="M110.953 253.604C111.501 254.145 112.226 254.47 112.995 254.519C113.764 254.569 114.524 254.339 115.137 253.872C118.954 251.042 122.305 247.519 124.288 243.222C126.561 238.298 126.814 232.256 124.074 227.576C121.758 223.62 117.669 221.067 113.593 218.97C112.01 218.077 110.305 217.42 108.532 217.02C106.741 216.624 104.866 216.927 103.289 217.866C102.518 218.35 101.91 219.055 101.545 219.889C101.181 220.723 101.076 221.648 101.245 222.543C99.2866 220.308 96.779 218.625 93.97 217.658C92.2012 216.966 90.2644 216.826 88.4143 217.255C85.8277 217.989 83.9394 220.288 82.9066 222.771C82.0713 224.66 81.7829 226.745 82.0741 228.79C82.2274 229.807 82.5924 230.781 83.1457 231.649C83.6989 232.516 84.428 233.258 85.2858 233.826C87.4244 235.149 90.1526 235.054 92.6086 234.513C95.0646 233.972 97.4419 233.032 99.9454 232.794C102.449 232.556 105.237 233.181 106.76 235.182C107.833 236.591 108.109 238.433 108.35 240.188L109.602 249.316C109.705 250.637 110.042 251.928 110.598 253.131C110.694 253.304 110.814 253.463 110.953 253.604Z" fill="#2F2E41"/>
<path d="M203.966 260.132C199.034 256.92 196.581 249.457 197.79 242.631C198.998 235.806 203.549 229.927 209.004 227.391C211.658 226.195 214.568 225.676 217.471 225.883C220.375 226.089 223.182 227.014 225.64 228.574C230.643 231.634 237.718 233.31 240.094 239.433C241.92 244.138 239.604 253.692 237.147 258.262C235.023 262.212 230.987 264.019 227.196 264.804C223.001 265.659 218.671 265.604 214.5 264.641C210.328 263.678 206.412 261.831 203.016 259.223L203.966 260.132Z" fill="#F7B34F"/>
<path d="M201.394 296.384L197.45 303.185L196.93 304.082L196.171 305.401H184.546L185.331 304.082L187.362 300.658L192.096 292.664L197.457 294.808L201.394 296.384Z" fill="#FFB8B8"/>
<path d="M183.676 305.401L181.552 304.081L181.289 303.917L194.615 279.623C195.188 278.572 195.964 277.644 196.898 276.895C197.832 276.145 198.905 275.588 200.055 275.256C201.508 274.824 203.046 274.767 204.526 275.092C205.39 275.274 206.221 275.585 206.992 276.015C207.31 276.189 207.616 276.383 207.909 276.596C209.036 277.386 209.962 278.43 210.612 279.643C211.387 281.063 211.769 282.664 211.721 284.281C211.672 285.898 211.194 287.473 210.335 288.844L205.199 297.057L200.807 304.081L199.983 305.401H183.676Z" fill="#2F2E41"/>
<path d="M217.915 268.754C226.86 268.754 234.111 261.5 234.111 252.553C234.111 243.606 226.86 236.352 217.915 236.352C208.97 236.352 201.719 243.606 201.719 252.553C201.719 261.5 208.97 268.754 217.915 268.754Z" fill="#FFB8B8"/>
<path d="M234.173 305.401H197.767L197.932 304.932C197.839 304.649 197.754 304.365 197.674 304.081C197.589 303.785 197.516 303.481 197.45 303.184C196.859 300.423 196.861 297.568 197.457 294.807C199.468 284.926 207.493 276.899 207.493 276.899C207.632 276.793 207.77 276.694 207.908 276.596C209.102 275.721 210.398 274.995 211.766 274.432C217.727 271.958 223.978 272.954 228.178 274.234C229.641 274.677 231.071 275.221 232.458 275.863C232.946 276.094 233.21 276.239 233.21 276.239L233.625 288.91L234.126 304.081L234.173 305.401Z" fill="#D1D100"/>
<path d="M251.014 304.081L248.231 289.926L245.422 275.652C245.305 275.063 245.013 274.522 244.583 274.102C244.154 273.682 243.607 273.402 243.015 273.298L237.133 272.282L231.661 271.338C231.133 271.243 230.589 271.294 230.088 271.486C229.587 271.678 229.148 272.003 228.818 272.427C228.407 272.94 228.182 273.577 228.179 274.234C228.179 274.64 228.262 275.042 228.423 275.415C231.278 282.077 231.331 292.624 230.605 304.081C230.573 304.517 230.546 304.959 230.513 305.401H251.278L251.014 304.081Z" fill="#2F2E41"/>
<path d="M211.767 274.432C211.645 273.952 211.407 273.51 211.072 273.145C210.738 272.78 210.318 272.504 209.85 272.342C209.383 272.179 208.882 272.136 208.394 272.215C207.905 272.295 207.444 272.494 207.052 272.796L204.526 275.092L194.187 284.511C193.864 284.8 193.612 285.159 193.448 285.56C192.281 288.35 190.006 293.857 187.362 300.658C186.933 301.766 186.491 302.907 186.036 304.081C185.878 304.517 185.707 304.959 185.535 305.401H202.574C202.713 304.959 202.851 304.517 202.99 304.081C203.748 301.687 204.487 299.339 205.199 297.057C207.282 290.428 209.162 284.405 210.613 279.643C211.015 278.324 211.382 277.106 211.714 275.989C211.869 275.484 211.887 274.946 211.767 274.432Z" fill="#2F2E41"/>
<path d="M254.838 305.401H255.94L255.788 305.032L255.386 304.082L249.181 289.353L248.231 289.926L240.608 294.537L244.519 304.082L245.059 305.401H251.278H254.838Z" fill="#FFB8B8"/>
<path d="M248.548 277.671C247.708 275.473 246.052 273.684 243.924 272.68C241.797 271.675 239.364 271.533 237.134 272.282C236.849 272.376 236.569 272.486 236.296 272.612C234.734 273.309 233.403 274.437 232.459 275.863C232.073 276.433 231.757 277.046 231.515 277.691C231.088 278.809 230.885 280 230.92 281.197C230.955 282.394 231.227 283.572 231.72 284.663L233.626 288.91L240.444 304.082L241.037 305.401H254.839L255.788 305.031L258.255 304.082L258.597 303.95L248.548 277.671Z" fill="#2F2E41"/>
<path d="M230.634 233.946C231.199 234.116 231.803 234.094 232.354 233.885C232.905 233.676 233.372 233.291 233.682 232.789C233.976 232.278 234.148 231.707 234.187 231.119C234.226 230.531 234.129 229.942 233.905 229.397C233.445 228.309 232.721 227.353 231.798 226.617C230.75 225.668 229.474 225.007 228.094 224.698C227.405 224.55 226.691 224.552 226.003 224.703C225.314 224.855 224.666 225.152 224.103 225.576C223.549 226.014 223.139 226.607 222.925 227.28C222.71 227.952 222.701 228.673 222.899 229.351C223.318 230.567 224.454 231.382 225.588 231.989C227.839 233.191 230.321 233.897 232.867 234.059L230.634 233.946Z" fill="#F7B34F"/>
<path d="M233.785 252.069C231.181 252.428 231.516 251.103 230.473 248.689C229.43 246.276 228.034 243.411 225.417 243.166C223.272 242.966 221.505 244.681 219.768 245.955C216.671 248.224 212.498 249.336 208.908 247.974C205.318 246.612 202.824 242.332 204.186 238.742C204.61 237.75 205.233 236.857 206.016 236.116C206.799 235.375 207.727 234.803 208.74 234.435C210.773 233.712 212.932 233.412 215.085 233.553C219.874 233.707 224.57 234.909 228.843 237.076C231.792 238.575 234.663 240.719 235.781 243.833C236.9 246.947 237.636 251.323 234.438 252.165L233.785 252.069Z" fill="#F7B34F"/>
<path d="M229.303 225.382C228.016 223.141 229.079 220.066 231.185 218.569C233.29 217.071 236.115 216.924 238.628 217.525C241.113 218.151 243.39 219.42 245.23 221.204C247.071 222.988 248.41 225.225 249.113 227.69C250.179 231.609 249.545 235.818 250.448 239.778C250.93 241.889 251.838 243.879 253.117 245.625C254.396 247.372 256.019 248.838 257.886 249.933C259.753 251.028 261.825 251.73 263.973 251.994C266.121 252.258 268.3 252.08 270.377 251.47C273.082 250.675 275.831 248.744 276.097 245.936C276.377 249.16 275.642 252.391 273.995 255.176C272.348 257.962 269.872 260.162 266.913 261.469C263.428 262.924 259.54 263.019 255.766 262.922C253.306 262.858 250.789 262.71 248.52 261.758C246.95 261.042 245.538 260.019 244.368 258.75C243.198 257.481 242.293 255.991 241.706 254.368C240.551 251.105 240.239 247.603 240.799 244.187C241.171 241.53 241.909 238.925 242.116 236.251C242.323 233.576 241.931 230.719 240.282 228.603C238.633 226.487 235.484 225.406 233.14 226.71C232.198 227.234 231.439 228.09 230.415 228.429C229.391 228.767 227.941 228.172 228.034 227.098L229.303 225.382Z" fill="#F7B34F"/>
<path d="M274.027 196.565H180.378C178.37 196.568 176.444 197.367 175.024 198.788C173.603 200.208 172.804 202.135 172.802 204.144V297.822C172.804 299.831 173.603 301.757 175.024 303.178C176.444 304.599 178.37 305.398 180.378 305.401H274.027C276.036 305.399 277.963 304.6 279.383 303.179C280.804 301.758 281.602 299.831 281.604 297.822V204.144C281.602 202.134 280.804 200.207 279.383 198.786C277.963 197.365 276.036 196.566 274.027 196.565ZM280.285 297.822C280.284 299.481 279.624 301.073 278.451 302.246C277.277 303.42 275.687 304.08 274.027 304.081H180.378C178.72 304.079 177.129 303.419 175.956 302.245C174.783 301.072 174.123 299.481 174.121 297.822V204.144C174.123 202.485 174.783 200.894 175.956 199.721C177.129 198.547 178.72 197.887 180.378 197.884H274.027C275.687 197.886 277.277 198.546 278.451 199.719C279.624 200.893 280.284 202.484 280.285 204.144V297.822ZM197.675 304.081C197.754 304.365 197.84 304.649 197.932 304.932L197.767 305.401H230.513C230.546 304.959 230.573 304.517 230.605 304.081H197.675Z" fill="black" fill-opacity="0.38"/>
<path d="M339.929 305.401L340.054 304.081L343.773 265.376C344.992 264.421 346.302 263.588 347.684 262.889C355.339 259.03 362.725 260.877 366.72 262.473C367.779 262.888 368.803 263.389 369.78 263.971L371.956 304.081L372.029 305.401H339.929Z" fill="#FFFF8A"/>
<path d="M357.346 255.074C366.291 255.074 373.542 247.821 373.542 238.874C373.542 229.926 366.291 222.673 357.346 222.673C348.401 222.673 341.15 229.926 341.15 238.874C341.15 247.821 348.401 255.074 357.346 255.074Z" fill="#FFB8B8"/>
<path d="M370.486 248.752C371.69 247.483 372.489 245.884 372.782 244.159C373.075 242.434 372.849 240.661 372.132 239.066C371.414 237.47 370.239 236.124 368.755 235.198C367.27 234.273 365.545 233.81 363.797 233.868C361.557 233.943 359.447 234.86 357.309 235.533C354.07 236.635 350.614 236.946 347.23 236.441C343.826 235.912 340.754 234.098 338.647 231.371C336.644 228.616 336.019 224.795 337.434 221.697C339.069 218.119 342.886 216.148 346.477 214.547C347.925 213.821 349.472 213.313 351.068 213.038C351.868 212.905 352.686 212.939 353.472 213.137C354.258 213.335 354.994 213.693 355.635 214.189C356.645 215.058 357.236 216.363 358.334 217.115C359.57 217.962 361.176 217.94 362.667 218.089C366.025 218.425 369.202 219.776 371.774 221.962C374.345 224.148 376.191 227.066 377.065 230.327C377.939 233.588 377.799 237.038 376.666 240.217C375.532 243.397 373.457 246.156 370.717 248.128L370.486 248.752Z" fill="#2F2E41"/>
<path d="M350.097 269.59L347.684 262.889L347.533 262.471C347.462 262.273 347.346 262.094 347.195 261.947C347.044 261.8 346.862 261.69 346.662 261.624C346.462 261.558 346.25 261.538 346.041 261.567C345.833 261.595 345.633 261.671 345.458 261.787L342.718 263.614C342.718 263.614 325.145 263.614 323.734 274.162C323.714 274.327 323.688 274.511 323.668 274.709C323.667 274.718 323.665 274.727 323.661 274.735C323.483 275.428 320.167 288.251 317.318 304.081C317.239 304.517 317.16 304.959 317.081 305.401H355.267V305.401C356.509 289.498 355.814 274.712 350.097 269.59Z" fill="#2F2E41"/>
<path d="M395.649 304.081C393.565 287.842 390.585 274.709 390.585 274.709C390.558 274.511 390.532 274.326 390.512 274.162C389.107 263.614 371.534 263.614 371.534 263.614L368.796 261.788C368.621 261.671 368.421 261.596 368.212 261.568C368.004 261.539 367.791 261.559 367.591 261.625C367.391 261.691 367.209 261.802 367.058 261.949C366.907 262.096 366.792 262.275 366.72 262.473L364.156 269.59C358.438 274.712 357.743 289.498 358.986 305.4L358.986 305.401H395.813C395.761 304.959 395.701 304.517 395.649 304.081Z" fill="#2F2E41"/>
<path d="M399.83 196.565H306.181C304.172 196.566 302.245 197.365 300.825 198.786C299.404 200.207 298.605 202.134 298.604 204.144V297.822C298.605 299.831 299.404 301.758 300.825 303.179C302.245 304.601 304.172 305.399 306.181 305.401H399.83C401.838 305.398 403.764 304.599 405.184 303.178C406.605 301.757 407.404 299.831 407.406 297.822V204.144C407.404 202.135 406.605 200.208 405.184 198.788C403.764 197.367 401.838 196.568 399.83 196.565ZM406.087 297.822C406.085 299.481 405.425 301.072 404.252 302.245C403.079 303.419 401.488 304.079 399.83 304.081H306.181C304.521 304.08 302.931 303.42 301.757 302.247C300.584 301.073 299.924 299.482 299.923 297.822V204.144C299.924 202.484 300.584 200.893 301.757 199.719C302.931 198.546 304.521 197.886 306.181 197.884H399.83C401.488 197.887 403.079 198.547 404.252 199.721C405.425 200.894 406.085 202.485 406.087 204.144V297.822ZM355.366 304.081C355.333 304.517 355.3 304.959 355.267 305.401H383.681C383.733 304.965 383.793 304.523 383.845 304.081H355.366Z" fill="black" fill-opacity="0.38"/>
<path d="M494.092 267.104L498.009 304.081L498.147 305.401H508.744C508.618 304.972 508.493 304.53 508.361 304.081C505.354 293.765 501.259 278.706 501.701 274.716C502.394 268.489 497.547 266.411 497.547 266.411L497.244 266.471L494.092 267.104Z" fill="#F7B34F"/>
<path d="M477.003 255.69C468.058 255.69 460.807 248.437 460.807 239.489C460.807 230.542 468.058 223.289 477.003 223.289C485.947 223.289 493.198 230.542 493.198 239.489C493.198 248.437 485.947 255.69 477.003 255.69Z" fill="#FFB8B8"/>
<path d="M456.038 297.551C456.855 299.057 457.524 300.639 458.036 302.274C458.227 302.855 458.411 303.461 458.583 304.081C458.708 304.51 458.82 304.952 458.932 305.401H501.649C501.589 304.965 501.537 304.523 501.477 304.081C499.295 286.833 497.528 269.327 497.244 266.471C497.218 266.2 497.204 266.062 497.204 266.062C471.606 252.566 452.925 270.217 452.925 270.217C452.925 270.217 452.899 270.342 452.859 270.586C452.45 273.053 450.367 287.459 456.038 297.551Z" fill="#F7B34F"/>
<path d="M458.036 302.274L460.884 296.166L460.192 271.945L452.859 270.586L452.602 270.54C448.812 272.744 445.879 276.166 444.281 280.25C442.856 283.812 440.146 294.524 437.858 304.081C437.752 304.523 437.647 304.965 437.541 305.401H456.579L457.192 304.081L458.036 302.274Z" fill="#F7B34F"/>
<path d="M431.982 196.565H525.631C527.64 196.568 529.566 197.367 530.986 198.788C532.407 200.208 533.206 202.135 533.208 204.144V297.822C533.206 299.831 532.407 301.757 530.986 303.178C529.566 304.599 527.64 305.398 525.631 305.401H431.982C429.973 305.399 428.047 304.6 426.627 303.179C425.206 301.758 424.407 299.831 424.406 297.822V204.144C424.407 202.134 425.206 200.207 426.627 198.786C428.047 197.365 429.973 196.566 431.982 196.565ZM425.725 297.822C425.726 299.481 426.386 301.073 427.559 302.246C428.732 303.42 430.323 304.08 431.982 304.081H525.631C527.29 304.079 528.88 303.419 530.053 302.245C531.227 301.072 531.887 299.481 531.889 297.822V204.144C531.887 202.485 531.227 200.894 530.053 199.721C528.88 198.547 527.29 197.887 525.631 197.884H431.982C430.323 197.886 428.732 198.546 427.559 199.719C426.386 200.893 425.726 202.484 425.725 204.144V297.822ZM498.009 304.081L498.147 305.401H458.932C458.82 304.952 458.708 304.51 458.583 304.081H498.009Z" fill="black" fill-opacity="0.38"/>
<path d="M469.256 253.604C468.707 254.145 467.982 254.47 467.214 254.519C466.445 254.569 465.684 254.339 465.071 253.872C461.254 251.042 457.903 247.519 455.92 243.222C453.648 238.298 453.394 232.256 456.134 227.576C458.45 223.62 462.54 221.067 466.616 218.97C468.199 218.077 469.903 217.42 471.676 217.02C473.468 216.624 475.343 216.927 476.919 217.866C477.691 218.35 478.298 219.055 478.663 219.889C479.028 220.723 479.133 221.648 478.964 222.543C480.922 220.308 483.43 218.625 486.238 217.658C488.007 216.966 489.944 216.826 491.794 217.255C494.381 217.989 496.269 220.288 497.302 222.771C498.137 224.66 498.426 226.745 498.134 228.79C497.981 229.807 497.616 230.781 497.063 231.649C496.51 232.516 495.78 233.258 494.923 233.826C492.784 235.149 490.056 235.054 487.6 234.513C485.144 233.972 482.767 233.032 480.263 232.794C477.76 232.556 474.972 233.181 473.448 235.182C472.375 236.591 472.1 238.433 471.859 240.188L470.606 249.316C470.504 250.637 470.166 251.928 469.61 253.131C469.514 253.304 469.395 253.463 469.256 253.604Z" fill="#2F2E41"/>
<path d="M627.845 260.132C632.777 256.92 635.23 249.457 634.022 242.631C632.814 235.806 628.263 229.927 622.807 227.391C620.153 226.195 617.244 225.676 614.34 225.883C611.437 226.089 608.63 227.014 606.172 228.574C601.169 231.634 594.093 233.31 591.717 239.433C589.892 244.138 592.207 253.692 594.665 258.262C596.788 262.212 600.824 264.019 604.616 264.804C608.811 265.659 613.14 265.604 617.312 264.641C621.484 263.678 625.4 261.831 628.796 259.223L627.845 260.132Z" fill="#2F2E41"/>
<path d="M630.418 296.384L634.362 303.185L634.882 304.082L635.641 305.401H647.266L646.481 304.082L644.45 300.658L639.716 292.664L634.355 294.808L630.418 296.384Z" fill="#FFB8B8"/>
<path d="M648.136 305.401L650.259 304.081L650.523 303.917L637.196 279.623C636.623 278.572 635.847 277.644 634.914 276.895C633.98 276.145 632.907 275.588 631.756 275.256C630.304 274.824 628.766 274.767 627.285 275.092C626.422 275.274 625.59 275.585 624.819 276.015C624.502 276.189 624.196 276.383 623.903 276.596C622.776 277.386 621.85 278.43 621.199 279.643C620.425 281.063 620.042 282.664 620.091 284.281C620.14 285.898 620.618 287.473 621.476 288.844L626.613 297.057L631.005 304.081L631.829 305.401H648.136Z" fill="#2F2E41"/>
<path d="M613.897 268.754C604.952 268.754 597.701 261.5 597.701 252.553C597.701 243.606 604.952 236.352 613.897 236.352C622.841 236.352 630.092 243.606 630.092 252.553C630.092 261.5 622.841 268.754 613.897 268.754Z" fill="#FFB8B8"/>
<path d="M597.639 305.401H634.045L633.88 304.932C633.972 304.649 634.058 304.365 634.137 304.081C634.223 303.785 634.295 303.481 634.361 303.184C634.953 300.423 634.951 297.568 634.355 294.807C632.343 284.926 624.318 276.899 624.318 276.899C624.18 276.793 624.042 276.694 623.903 276.596C622.709 275.721 621.414 274.995 620.045 274.432C614.084 271.958 607.833 272.954 603.633 274.234C602.17 274.677 600.74 275.221 599.353 275.863C598.866 276.094 598.602 276.239 598.602 276.239L598.186 288.91L597.685 304.081L597.639 305.401Z" fill="#F2FF88"/>
<path d="M580.797 304.081L583.58 289.926L586.389 275.652C586.506 275.063 586.799 274.522 587.228 274.102C587.658 273.682 588.204 273.402 588.796 273.298L594.678 272.282L600.151 271.338C600.679 271.243 601.223 271.294 601.724 271.486C602.225 271.678 602.664 272.003 602.993 272.427C603.404 272.94 603.63 273.577 603.633 274.234C603.633 274.64 603.55 275.042 603.389 275.415C600.533 282.077 600.481 292.624 601.206 304.081C601.239 304.517 601.265 304.959 601.298 305.401H580.534L580.797 304.081Z" fill="#2F2E41"/>
<path d="M620.046 274.432C620.167 273.952 620.405 273.51 620.74 273.145C621.074 272.78 621.494 272.504 621.962 272.342C622.429 272.179 622.93 272.136 623.418 272.215C623.907 272.295 624.368 272.494 624.76 272.796L627.286 275.092L637.625 284.511C637.948 284.8 638.2 285.159 638.364 285.56C639.531 288.35 641.806 293.857 644.45 300.658C644.879 301.766 645.321 302.907 645.776 304.081C645.934 304.517 646.105 304.959 646.277 305.401H629.238C629.099 304.959 628.961 304.517 628.822 304.081C628.064 301.687 627.325 299.339 626.613 297.057C624.53 290.428 622.65 284.405 621.199 279.643C620.797 278.324 620.43 277.106 620.098 275.989C619.943 275.484 619.925 274.946 620.046 274.432Z" fill="#2F2E41"/>
<path d="M576.973 305.401H575.872L576.024 305.032L576.426 304.082L582.631 289.353L583.58 289.926L591.203 294.537L587.293 304.082L586.752 305.401H580.534H576.973Z" fill="#FFB8B8"/>
<path d="M583.264 277.671C584.103 275.473 585.76 273.684 587.887 272.68C590.015 271.675 592.448 271.533 594.678 272.282C594.963 272.376 595.242 272.486 595.515 272.612C597.078 273.309 598.409 274.437 599.353 275.863C599.738 276.433 600.055 277.046 600.296 277.691C600.724 278.809 600.926 280 600.891 281.197C600.856 282.394 600.584 283.572 600.092 284.663L598.186 288.91L591.368 304.082L590.774 305.401H576.973L576.023 305.031L573.557 304.082L573.214 303.95L583.264 277.671Z" fill="#2F2E41"/>
<path d="M601.177 233.946C600.612 234.116 600.008 234.094 599.457 233.885C598.906 233.676 598.439 233.291 598.129 232.789C597.835 232.278 597.663 231.707 597.624 231.119C597.585 230.531 597.682 229.942 597.906 229.397C598.366 228.309 599.09 227.353 600.013 226.617C601.061 225.668 602.337 225.007 603.717 224.698C604.406 224.55 605.12 224.552 605.808 224.703C606.497 224.855 607.145 225.152 607.708 225.576C608.262 226.014 608.672 226.607 608.886 227.28C609.101 227.952 609.11 228.673 608.912 229.351C608.493 230.567 607.357 231.382 606.223 231.989C603.972 233.191 601.49 233.897 598.944 234.059L601.177 233.946Z" fill="#EC634E"/>
<path d="M598.026 252.069C600.63 252.428 600.296 251.103 601.339 248.689C602.381 246.276 603.777 243.411 606.394 243.166C608.539 242.966 610.306 244.681 612.044 245.955C615.14 248.224 619.314 249.336 622.904 247.974C626.493 246.612 628.988 242.332 627.626 238.742C627.202 237.75 626.579 236.857 625.795 236.116C625.012 235.375 624.085 234.803 623.072 234.435C621.039 233.712 618.879 233.412 616.726 233.553C611.938 233.707 607.242 234.909 602.969 237.076C600.02 238.575 597.149 240.719 596.03 243.833C594.911 246.947 594.175 251.323 597.374 252.165L598.026 252.069Z" fill="#2F2E41"/>
<path d="M602.508 225.382C603.795 223.141 602.732 220.066 600.626 218.569C598.521 217.071 595.696 216.924 593.183 217.525C590.698 218.151 588.421 219.42 586.581 221.204C584.74 222.988 583.401 225.225 582.698 227.69C581.632 231.609 582.266 235.818 581.363 239.778C580.881 241.889 579.973 243.879 578.694 245.625C577.415 247.372 575.792 248.838 573.925 249.933C572.058 251.028 569.986 251.73 567.838 251.994C565.69 252.258 563.511 252.08 561.434 251.47C558.729 250.675 555.98 248.744 555.714 245.936C555.434 249.16 556.169 252.391 557.816 255.176C559.463 257.962 561.939 260.162 564.898 261.469C568.383 262.924 572.271 263.019 576.046 262.922C578.506 262.858 581.022 262.71 583.291 261.758C584.861 261.042 586.273 260.019 587.443 258.75C588.613 257.481 589.518 255.991 590.105 254.368C591.26 251.105 591.572 247.603 591.012 244.187C590.641 241.53 589.902 238.925 589.695 236.251C589.488 233.576 589.88 230.719 591.529 228.603C593.178 226.487 596.327 225.406 598.671 226.71C599.613 227.234 600.373 228.09 601.396 228.429C602.42 228.767 603.87 228.172 603.777 227.098L602.508 225.382Z" fill="#2F2E41"/>
<path d="M557.784 196.565H651.433C653.442 196.568 655.368 197.367 656.788 198.788C658.208 200.208 659.007 202.135 659.01 204.144V297.822C659.007 299.831 658.208 301.757 656.788 303.178C655.368 304.599 653.442 305.398 651.433 305.401H557.784C555.775 305.399 553.849 304.6 552.428 303.179C551.008 301.758 550.209 299.831 550.208 297.822V204.144C550.209 202.134 551.008 200.207 552.428 198.786C553.849 197.365 555.775 196.566 557.784 196.565ZM551.527 297.822C551.528 299.481 552.188 301.073 553.361 302.246C554.534 303.42 556.125 304.08 557.784 304.081H651.433C653.092 304.079 654.682 303.419 655.855 302.245C657.028 301.072 657.688 299.481 657.691 297.822V204.144C657.688 202.485 657.028 200.894 655.855 199.721C654.682 198.547 653.092 197.887 651.433 197.884H557.784C556.125 197.886 554.534 198.546 553.361 199.719C552.188 200.893 551.528 202.484 551.527 204.144V297.822ZM634.137 304.081C634.058 304.365 633.972 304.649 633.88 304.932L634.044 305.401H601.299C601.265 304.959 601.239 304.517 601.206 304.081H634.137Z" fill="black" fill-opacity="0.38"/>
</g>
<defs>
<clipPath id="clip0">
<rect width="705" height="340" fill="white" transform="translate(0.5)"/>
</clipPath>
</defs>
</svg>
