<svg width="316" height="259" viewBox="0 0 316 259" fill="none" xmlns="http://www.w3.org/2000/svg">
<g clip-path="url(#clip0)">
<path d="M177.993 25.0205H145.68V63.6462H177.993V25.0205Z" fill="#EBEBEB"/>
<path d="M164.282 62.7783H159.8V63.8089H164.282V62.7783Z" fill="#E0E0E0"/>
<path d="M162.871 38.3159L156.921 39.1431L154.702 44.4383L158.432 48.9063L164.382 48.0791L166.602 42.7839L162.871 38.3159Z" fill="#E0E0E0"/>
<path d="M165.657 41.7397L159.707 42.5669L157.48 47.8553L161.21 52.3301L167.167 51.503L169.387 46.2078L165.657 41.7397Z" fill="#FAFAFA"/>
<path d="M164.919 24.4985H160.437V25.3799H164.919V24.4985Z" fill="#E0E0E0"/>
<path d="M218.884 40.6616H196.932V85.152H218.884V40.6616Z" fill="#F5F5F5"/>
<path d="M246.765 88.2642H219.793V131.249H246.765V88.2642Z" fill="#F5F5F5"/>
<path d="M250.044 39.8957H275.656V0.429308H276.565V39.8957H300.272V-0.445312H250.044V39.8957Z" fill="#F5F5F5"/>
<path d="M218.884 88.2642H196.932V131.249H218.884V88.2642Z" fill="#F5F5F5"/>
<path d="M300.265 88.2642H276.565V131.249H300.265V88.2642Z" fill="#F5F5F5"/>
<path d="M246.765 40.6616H219.793V85.152H246.765V40.6616Z" fill="#F5F5F5"/>
<path d="M300.265 40.6616H276.565V85.152H300.265V40.6616Z" fill="#F5F5F5"/>
<path d="M218.884 132.022H196.932V170.757H218.884V132.022Z" fill="#F5F5F5"/>
<path d="M218.877 39.8957V0.429308H219.794V39.8957H246.765V-0.445312H196.932V39.8957H218.877Z" fill="#F5F5F5"/>
<path d="M246.765 132.022H219.793V170.757H246.765V132.022Z" fill="#F5F5F5"/>
<path d="M300.265 132.022H276.565V170.757H300.265V132.022Z" fill="#F5F5F5"/>
<path d="M275.656 40.6616H250.044V85.152H275.656V40.6616Z" fill="#F5F5F5"/>
<path d="M275.656 132.022H250.044V170.757H275.656V132.022Z" fill="#F5F5F5"/>
<path d="M275.656 88.2642H250.044V131.249H275.656V88.2642Z" fill="#F5F5F5"/>
<path d="M49.0776 40.6616H27.125V85.152H49.0776V40.6616Z" fill="#F5F5F5"/>
<path d="M76.9585 88.2642H49.9868V131.249H76.9585V88.2642Z" fill="#F5F5F5"/>
<path d="M80.2378 39.8957H105.849V0.429308H106.766V39.8957H130.465V-0.445312H80.2378V39.8957Z" fill="#F5F5F5"/>
<path d="M49.0776 88.2642H27.125V131.249H49.0776V88.2642Z" fill="#F5F5F5"/>
<path d="M130.465 88.2642H106.766V131.249H130.465V88.2642Z" fill="#F5F5F5"/>
<path d="M76.9585 40.6616H49.9868V85.152H76.9585V40.6616Z" fill="#F5F5F5"/>
<path d="M130.465 40.6616H106.766V85.152H130.465V40.6616Z" fill="#F5F5F5"/>
<path d="M49.0776 132.022H27.125V170.757H49.0776V132.022Z" fill="#F5F5F5"/>
<path d="M49.0776 39.8957V0.429308H49.9869V39.8957H76.9586V-0.445312H27.125V39.8957H49.0776Z" fill="#F5F5F5"/>
<path d="M76.9585 132.022H49.9868V170.757H76.9585V132.022Z" fill="#F5F5F5"/>
<path d="M130.465 132.022H106.766V170.757H130.465V132.022Z" fill="#F5F5F5"/>
<path d="M105.849 40.6616H80.2378V85.152H105.849V40.6616Z" fill="#F5F5F5"/>
<path d="M105.849 132.022H80.2378V170.757H105.849V132.022Z" fill="#F5F5F5"/>
<path d="M105.849 88.2642H80.2378V131.249H105.849V88.2642Z" fill="#F5F5F5"/>
<path d="M248.706 239.35V259.276H279.479H313.418V239.35H248.706Z" fill="#EBEBEB"/>
<path d="M245.992 233.776V239.349H315.68V233.776H279.479H245.992Z" fill="#E0E0E0"/>
<path d="M280.839 259.276H313.417V239.35H315.68V233.776H279.479V238.834L280.839 259.276Z" fill="#E0E0E0"/>
<path d="M270.887 242.563H257.763V245.56H270.887V242.563Z" fill="#E0E0E0"/>
<path d="M272.928 249.31H256.073V255.642H272.928V249.31Z" fill="#F5F5F5"/>
<path d="M264.694 211.775L264.601 204.29L292.317 206.534L293.183 213.945L264.694 211.775Z" fill="#EBEBEB"/>
<path d="M270.678 207.692L270.556 209.036L287.892 210.441L288.013 209.096L270.678 207.692Z" fill="#E0E0E0"/>
<path d="M261.393 204.663L261.379 197.171L289.074 199.7L289.776 206.399L261.393 204.663Z" fill="#E0E0E0"/>
<path d="M261.386 198.195L261.372 203.246L288.35 205.131L287.899 200.467L261.386 198.195Z" fill="white"/>
<path d="M286.303 202.412C285.976 202.441 285.648 202.441 285.322 202.412L282.672 202.216C280.431 202.033 277.345 201.761 273.93 201.436C270.515 201.11 267.436 200.792 265.202 200.548L262.56 200.236C262.235 200.215 261.913 200.16 261.601 200.073C261.924 200.045 262.25 200.045 262.574 200.073L265.224 200.27C267.465 200.453 270.558 200.731 273.966 201.056C277.374 201.382 280.467 201.694 282.701 201.944L285.343 202.249C285.668 202.271 285.99 202.326 286.303 202.412Z" fill="#F5F5F5"/>
<path d="M286.245 203.043C285.919 203.077 285.59 203.077 285.264 203.043L282.579 202.921C280.324 202.806 277.202 202.623 273.758 202.392C270.314 202.162 267.192 201.938 264.937 201.762L262.274 201.531C261.945 201.517 261.619 201.471 261.3 201.395C261.626 201.362 261.955 201.362 262.281 201.395L264.959 201.517C267.221 201.633 270.343 201.823 273.787 202.046C277.231 202.27 280.345 202.501 282.601 202.684L285.271 202.914C285.599 202.93 285.925 202.973 286.245 203.043Z" fill="#F5F5F5"/>
<path d="M265.016 218.684L264.909 211.192L292.632 213.416L293.42 220.101L265.016 218.684Z" fill="#E0E0E0"/>
<path d="M268.066 218.84C267.834 217.623 267.722 216.389 267.73 215.152C267.613 213.92 267.625 212.68 267.765 211.45C267.998 212.667 268.111 213.902 268.102 215.139C268.218 216.371 268.206 217.611 268.066 218.84Z" fill="#F5F5F5"/>
<path d="M269.112 211.538C269.323 212.755 269.414 213.987 269.384 215.22C269.47 216.449 269.436 217.684 269.284 218.908C269.064 217.692 268.973 216.459 269.011 215.226C268.921 213.997 268.955 212.762 269.112 211.538Z" fill="#F5F5F5"/>
<path d="M271.632 214.827C276.465 215.335 282.15 215.62 287.062 216.034L271.632 214.827Z" fill="white"/>
<path d="M287.062 216.033C286.305 216.076 285.546 216.058 284.792 215.979C283.36 215.911 281.463 215.796 279.329 215.647C277.195 215.498 275.269 215.328 273.88 215.165C273.121 215.121 272.368 215.007 271.632 214.826C272.39 214.805 273.149 214.836 273.902 214.921L279.357 215.294C281.505 215.443 283.417 215.593 284.813 215.735C285.57 215.775 286.322 215.874 287.062 216.033Z" fill="#F5F5F5"/>
<path d="M289.081 219.891C288.844 218.789 288.724 217.667 288.723 216.542C288.6 215.415 288.6 214.279 288.723 213.152C288.963 214.254 289.083 215.376 289.081 216.501C289.212 217.628 289.212 218.765 289.081 219.891Z" fill="#F5F5F5"/>
<path d="M290.792 219.972C290.306 217.763 290.066 215.511 290.076 213.253C290.379 214.346 290.559 215.467 290.613 216.596C290.795 217.713 290.855 218.844 290.792 219.972Z" fill="#F5F5F5"/>
<path d="M275.72 216.508C278.77 216.704 281.097 216.847 283.532 216.901L275.72 216.508Z" fill="white"/>
<path d="M283.596 216.901C280.985 217.005 278.369 216.874 275.785 216.508C277.087 216.388 278.399 216.388 279.701 216.508C281.01 216.523 282.314 216.655 283.596 216.901Z" fill="#F5F5F5"/>
<path d="M266.871 233.316L266.355 225.837L294.157 226.671L295.317 233.309L266.871 233.316Z" fill="#EBEBEB"/>
<path d="M267.973 232.373L295.031 232.007L294.279 227.356L267.465 226.881L267.973 232.373Z" fill="white"/>
<path d="M267.629 225.987L267.372 218.495L295.138 220.21L296.062 226.881L267.629 225.987Z" fill="#F5F5F5"/>
<path d="M273.504 221.765L273.412 223.111L290.774 224.18L290.866 222.834L273.504 221.765Z" fill="#E0E0E0"/>
<path d="M294.558 229.268C294.206 229.324 293.848 229.349 293.491 229.343L290.627 229.41C288.186 229.451 284.806 229.485 281.076 229.498C277.345 229.512 273.973 229.498 271.524 229.498L268.66 229.451C268.306 229.461 267.951 229.44 267.601 229.39C267.951 229.333 268.305 229.308 268.66 229.315L271.524 229.248C273.966 229.207 277.345 229.18 281.076 229.159C284.806 229.139 288.186 229.159 290.627 229.159L293.527 229.207C293.872 229.199 294.217 229.219 294.558 229.268Z" fill="#EBEBEB"/>
<path d="M294.873 230.719C294.521 230.773 294.163 230.791 293.806 230.773H290.885C288.429 230.773 285.028 230.773 281.269 230.699C277.51 230.624 274.109 230.583 271.653 230.522L268.739 230.427C268.382 230.434 268.024 230.407 267.672 230.346C268.025 230.297 268.383 230.278 268.739 230.292H271.653C274.116 230.292 277.517 230.292 281.276 230.366C285.035 230.441 288.436 230.482 290.892 230.543L293.806 230.638C294.164 230.64 294.52 230.667 294.873 230.719Z" fill="#EBEBEB"/>
<path d="M23.6882 175.095C19.9006 175.672 18.2036 180.079 18.533 183.699C18.8624 187.32 20.4376 190.859 20.0151 194.473C19.4853 199.056 15.8194 202.934 15.3969 207.531C14.8957 212.955 18.9769 217.762 20.1512 223.084C20.7383 225.674 20.6595 228.407 21.6762 230.874C22.5433 232.974 24.1523 234.723 26.229 235.825C28.3057 236.927 30.7216 237.313 33.0651 236.917C35.4086 236.521 37.5346 235.368 39.0809 233.654C40.6273 231.941 41.4981 229.772 41.5452 227.518C41.624 223.355 38.9175 219.43 39.2469 215.28C39.4903 212.209 41.3949 209.301 40.9796 206.25C40.4927 202.615 36.9414 200.039 35.6884 196.574C34.4354 193.11 35.6382 189.293 35.2015 185.652C34.4282 179.123 30.5833 174.567 23.6882 175.095Z" fill="#F7B34F"/>
<path d="M4.31328 206.71C3.64024 212.758 6.50424 219.877 9.78352 225.098C13.1158 230.358 18.1319 234.476 24.1035 236.854C24.7694 237.119 25.6 237.336 26.1656 236.909C26.3645 236.7 26.514 236.453 26.6041 236.186C26.6943 235.918 26.723 235.635 26.6883 235.356C26.7316 228.933 24.5763 222.67 20.5451 217.505C16.514 212.339 10.8241 208.55 4.3276 206.704" fill="#F7B34F"/>
<g opacity="0.1">
<path opacity="0.1" d="M4.31328 206.71C3.64024 212.758 6.50424 219.877 9.78352 225.098C13.1158 230.358 18.1319 234.476 24.1035 236.854C24.7694 237.119 25.6 237.336 26.1656 236.909C26.3645 236.7 26.514 236.453 26.6041 236.186C26.6943 235.918 26.723 235.635 26.6883 235.356C26.7316 228.933 24.5763 222.67 20.5451 217.505C16.514 212.339 10.8241 208.55 4.3276 206.704" fill="black"/>
</g>
<path d="M32.1511 249.506C32.0744 249.403 32.0118 249.292 31.965 249.174C31.8504 248.909 31.6929 248.584 31.5139 248.184C31.1273 247.316 30.5545 246.075 29.8241 244.543C28.3921 241.492 26.2012 237.336 23.4804 232.915C21.1454 229.15 18.6124 225.498 15.8908 221.972C14.8454 220.616 13.979 219.538 13.3776 218.799L12.6616 217.932C12.5041 217.735 12.4253 217.626 12.4396 217.62C12.5406 217.702 12.634 217.793 12.7189 217.891L13.4349 218.711C14.0793 219.43 14.9743 220.494 16.0483 221.83C18.8384 225.322 21.4085 228.967 23.7453 232.746C26.0753 236.526 28.1673 240.434 30.0103 244.448C30.7263 245.987 31.249 247.248 31.5927 248.13L31.9865 249.147C32.0534 249.261 32.1086 249.381 32.1511 249.506Z" fill="#263238"/>
<path d="M28.0345 191.829C28.0746 192.021 28.0985 192.216 28.1061 192.412C28.1348 192.823 28.1777 193.379 28.235 194.08C28.3353 195.558 28.4785 197.646 28.6503 200.182C28.994 205.361 29.4809 212.508 30.0823 220.406C30.6837 228.305 31.2494 235.444 31.6718 240.617C31.8795 243.18 32.0441 245.262 32.1659 246.719C32.216 247.397 32.2518 247.974 32.2876 248.381C32.3051 248.575 32.3051 248.77 32.2876 248.964C32.2402 248.774 32.2091 248.582 32.1945 248.387C32.1515 247.981 32.0871 247.425 32.0083 246.726C31.8651 245.248 31.6575 243.167 31.3997 240.624C30.9129 235.458 30.2899 228.312 29.7028 220.413C29.1157 212.514 28.7004 205.436 28.3925 200.222C28.2708 197.653 28.1634 195.564 28.0918 194.086C28.0918 193.408 28.0489 192.825 28.0345 192.418C28.0204 192.222 28.0204 192.025 28.0345 191.829Z" fill="#263238"/>
<path d="M22.1562 240.882H38.1588V252.008C38.1588 253.935 37.3502 255.784 35.9107 257.147C34.4713 258.51 32.519 259.276 30.4833 259.276C28.5169 259.277 26.625 258.564 25.1971 257.284C23.7692 256.004 22.9141 254.254 22.8078 252.394L22.1562 240.882Z" fill="#455A64"/>
<path d="M230.555 149.359C229.664 148.735 228.566 148.437 227.462 148.518C227.462 147.948 227.462 147.603 227.462 147.603H210.564C210.564 147.603 210.034 158.159 218.569 158.532C222.392 158.701 224.576 157.081 225.829 155.04C226.458 155.181 227.102 155.256 227.748 155.264C228.691 155.303 229.623 155.054 230.404 154.552C230.835 154.233 231.176 153.819 231.398 153.346C231.62 152.873 231.717 152.356 231.679 151.84C231.702 151.373 231.614 150.907 231.419 150.477C231.224 150.047 230.929 149.664 230.555 149.359ZM229.395 153.284C228.679 153.793 227.383 153.718 226.531 153.576C226.956 152.453 227.233 151.285 227.354 150.098C228.094 150.017 228.841 150.182 229.466 150.565C229.65 150.726 229.791 150.925 229.881 151.146C229.97 151.367 230.005 151.604 229.982 151.84C230.015 152.108 229.979 152.379 229.877 152.631C229.775 152.882 229.609 153.107 229.395 153.284Z" fill="#F7B34F"/>
<path d="M222.5 146.64C222.584 146.521 222.634 146.383 222.643 146.24C222.617 146.036 222.538 145.841 222.413 145.673C222.288 145.505 222.121 145.369 221.927 145.277C221.642 145.146 221.342 145.048 221.032 144.985C220.642 144.905 220.273 144.748 219.951 144.524C219.773 144.377 219.631 144.194 219.536 143.989C219.44 143.784 219.394 143.562 219.4 143.338C219.401 142.844 219.547 142.361 219.822 141.941C220.402 141.053 221.447 140.49 222.185 139.609C222.556 139.127 222.804 138.57 222.909 137.982C223.015 137.393 222.975 136.79 222.793 136.219C222.615 135.598 222.273 135.031 221.798 134.571C221.26 134.123 220.651 133.757 219.994 133.487C219.26 133.201 218.605 132.757 218.082 132.192C217.832 131.875 217.661 131.509 217.581 131.12C217.485 130.712 217.544 130.285 217.746 129.914C217.858 129.722 218.018 129.559 218.211 129.439L218.404 129.744C217.791 130.106 217.307 130.635 217.017 131.262C216.727 131.888 216.644 132.584 216.779 133.256C216.895 133.894 217.227 134.479 217.724 134.924C218.283 135.329 218.777 135.809 219.192 136.348C219.367 136.65 219.451 136.993 219.435 137.338C219.425 137.679 219.329 138.014 219.156 138.314C218.84 138.846 218.393 139.297 217.853 139.629C216.815 140.253 215.748 140.565 214.953 141.134C214.594 141.377 214.295 141.691 214.076 142.054C213.857 142.416 213.724 142.82 213.686 143.236C213.619 143.871 213.735 144.511 214.022 145.087C214.285 145.573 214.659 145.997 215.118 146.328L215.01 146.28C214.913 146.228 214.82 146.169 214.731 146.104C214.381 145.848 214.095 145.521 213.894 145.148C213.57 144.553 213.429 143.883 213.485 143.216C213.516 142.796 213.636 142.385 213.836 142.009C214.069 141.59 214.397 141.224 214.796 140.938C215.619 140.328 216.715 139.989 217.66 139.392C218.151 139.078 218.558 138.66 218.848 138.172C218.998 137.924 219.076 137.643 219.076 137.358C219.076 137.073 218.998 136.792 218.848 136.544C218.438 136.033 217.956 135.577 217.416 135.188C216.861 134.693 216.496 134.037 216.378 133.324C216.23 132.581 216.323 131.812 216.645 131.12C216.967 130.427 217.503 129.844 218.182 129.446L218.369 129.751C218.228 129.84 218.11 129.958 218.025 130.097C217.894 130.412 217.854 130.755 217.909 131.09C217.964 131.425 218.113 131.739 218.34 132.002C218.83 132.52 219.437 132.928 220.116 133.195C220.807 133.481 221.445 133.87 222.006 134.348C222.521 134.849 222.891 135.468 223.08 136.144C223.265 136.764 223.297 137.415 223.173 138.048C223.049 138.68 222.772 139.277 222.364 139.792C221.555 140.721 220.524 141.263 219.987 142.07C219.45 142.877 219.4 143.894 220.022 144.375C220.645 144.857 221.454 144.843 221.941 145.155C222.15 145.261 222.326 145.417 222.452 145.607C222.577 145.798 222.648 146.016 222.657 146.24C222.651 146.355 222.608 146.466 222.536 146.558C222.536 146.619 222.507 146.64 222.5 146.64Z" fill="#263238"/>
<path d="M117.169 62.9341H34.779C33.5017 62.9341 32.4663 63.9145 32.4663 65.124V83.8436C32.4663 85.0531 33.5017 86.0335 34.779 86.0335H117.169C118.446 86.0335 119.482 85.0531 119.482 83.8436V65.124C119.482 63.9145 118.446 62.9341 117.169 62.9341Z" fill="#455A64"/>
<path d="M50.8101 78.3385C50.1538 79.1117 49.2702 79.6834 48.2709 79.9812C47.2716 80.279 46.2015 80.2896 45.1958 80.0117C44.1902 79.7338 43.2941 79.1798 42.6208 78.4197C41.9476 77.6597 41.5274 76.7277 41.4133 75.7416C41.2993 74.7555 41.4965 73.7595 41.9801 72.8795C42.4637 71.9994 43.2119 71.2749 44.1302 70.7975C45.0485 70.3201 46.0957 70.1111 47.1394 70.1971C48.1831 70.2831 49.1764 70.6601 49.9939 71.2805C50.5373 71.6929 50.9895 72.2027 51.3246 72.7808C51.6598 73.3588 51.8713 73.9937 51.9472 74.6493C52.023 75.3048 51.9616 75.968 51.7665 76.601C51.5714 77.2341 51.2464 77.8245 50.8101 78.3385Z" fill="white"/>
<path d="M49.6576 73.4907C48.7936 74.5327 47.8353 75.5014 46.7936 76.3858C46.5502 76.6028 46.3139 76.8129 46.0776 77.0231L45.9487 77.1452L45.8199 77.0231C45.0255 76.3359 44.3059 75.575 43.6719 74.7518C44.5412 75.3522 45.3447 76.0336 46.0705 76.7858H45.8127L46.5287 76.1078C47.4886 75.1503 48.5356 74.2745 49.6576 73.4907Z" fill="#F7B34F"/>
<path d="M110.997 72.792C110.997 72.8869 99.9349 72.9683 86.2879 72.9683C72.641 72.9683 61.5859 72.8869 61.5859 72.792C61.5859 72.6971 72.641 72.6157 86.2879 72.6157C99.9349 72.6157 110.997 72.6903 110.997 72.792Z" fill="white"/>
<path d="M90.7274 77.3618C90.7274 77.4567 84.3335 77.5381 76.4504 77.5381C68.5672 77.5381 62.1304 77.4567 62.1304 77.3618C62.1304 77.2669 68.5243 77.1855 76.4504 77.1855C84.3765 77.1855 90.7274 77.294 90.7274 77.3618Z" fill="white"/>
<path d="M117.169 89.3555H34.779C33.5017 89.3555 32.4663 90.3359 32.4663 91.5454V110.265C32.4663 111.474 33.5017 112.455 34.779 112.455H117.169C118.446 112.455 119.482 111.474 119.482 110.265V91.5454C119.482 90.3359 118.446 89.3555 117.169 89.3555Z" fill="#455A64"/>
<path d="M50.8101 104.76C50.1538 105.533 49.2702 106.105 48.2709 106.403C47.2716 106.7 46.2015 106.711 45.1958 106.433C44.1902 106.155 43.2941 105.601 42.6208 104.841C41.9476 104.081 41.5274 103.149 41.4133 102.163C41.2993 101.177 41.4965 100.181 41.9801 99.3008C42.4637 98.4208 43.2119 97.6963 44.1302 97.2189C45.0485 96.7415 46.0957 96.5325 47.1394 96.6185C48.1831 96.7045 49.1764 97.0815 49.9939 97.7019C51.0897 98.5359 51.7912 99.7476 51.9442 101.071C52.0972 102.394 51.6893 103.721 50.8101 104.76Z" fill="white"/>
<path d="M49.6576 99.9189C48.7945 100.96 47.8361 101.926 46.7936 102.807L46.0776 103.485L45.9487 103.6L45.8199 103.478C45.0255 102.791 44.3059 102.03 43.6719 101.207C44.5397 101.809 45.343 102.491 46.0705 103.241H45.8127L46.5287 102.563C47.4851 101.594 48.5323 100.709 49.6576 99.9189Z" fill="#F7B34F"/>
<path d="M110.997 99.2139C110.997 99.3156 99.9349 99.3902 86.2879 99.3902C72.641 99.3902 61.5859 99.3156 61.5859 99.2139C61.5859 99.1122 72.641 99.0376 86.2879 99.0376C99.9349 99.0376 110.997 99.119 110.997 99.2139Z" fill="white"/>
<path d="M90.7274 103.784C90.7274 103.885 84.3335 103.96 76.4504 103.96C68.5672 103.96 62.1304 103.885 62.1304 103.784C62.1304 103.682 68.5243 103.607 76.4504 103.607C84.3765 103.607 90.7274 103.689 90.7274 103.784Z" fill="white"/>
<path d="M117.169 115.784H34.779C33.5017 115.784 32.4663 116.765 32.4663 117.974V136.694C32.4663 137.903 33.5017 138.884 34.779 138.884H117.169C118.446 138.884 119.482 137.903 119.482 136.694V117.974C119.482 116.765 118.446 115.784 117.169 115.784Z" fill="#455A64"/>
<path d="M50.8101 131.189C50.1538 131.962 49.2702 132.533 48.2709 132.831C47.2716 133.129 46.2015 133.14 45.1958 132.862C44.1902 132.584 43.2941 132.03 42.6208 131.27C41.9476 130.51 41.5274 129.578 41.4133 128.592C41.2993 127.606 41.4965 126.61 41.9801 125.73C42.4637 124.85 43.2119 124.125 44.1302 123.648C45.0485 123.17 46.0957 122.961 47.1394 123.047C48.1831 123.133 49.1764 123.51 49.9939 124.131C50.5373 124.543 50.9895 125.053 51.3246 125.631C51.6598 126.209 51.8713 126.844 51.9472 127.499C52.023 128.155 51.9616 128.818 51.7665 129.451C51.5714 130.084 51.2464 130.675 50.8101 131.189Z" fill="white"/>
<path d="M49.6576 126.341C48.7979 127.386 47.8393 128.355 46.7936 129.236L46.0776 129.873L45.9487 129.995L45.8199 129.873C45.0255 129.186 44.3059 128.425 43.6719 127.602C44.5412 128.202 45.3447 128.884 46.0705 129.636H45.8127L46.5287 128.958C47.4886 128 48.5356 127.125 49.6576 126.341Z" fill="#F7B34F"/>
<path d="M110.997 125.642C110.997 125.737 99.9349 125.818 86.2879 125.818C72.641 125.818 61.5859 125.737 61.5859 125.642C61.5859 125.547 72.641 125.466 86.2879 125.466C99.9349 125.466 110.997 125.547 110.997 125.642Z" fill="white"/>
<path d="M90.7274 130.212C90.7274 130.307 84.3335 130.388 76.4504 130.388C68.5672 130.388 62.1304 130.307 62.1304 130.212C62.1304 130.117 68.5243 130.036 76.4504 130.036C84.3765 130.036 90.7274 130.117 90.7274 130.212Z" fill="white"/>
<path d="M168.799 203.253L167.432 259.276H164.826L164.99 203.395L168.799 203.253Z" fill="#263238"/>
<path d="M178.229 202.629L190.917 259.276H193.824L183.263 202.629H178.229Z" fill="#263238"/>
<path d="M154.444 203.252L140.403 259.276H137.496L150.234 203.022L154.444 203.252Z" fill="#263238"/>
<path d="M194.705 141.663C194.705 141.663 210.786 140.795 209.182 158.416C207.578 176.038 206.655 193.91 200.676 200.012C194.697 206.114 134.496 206.324 129.441 201.32C124.386 196.317 139.093 196.534 141.849 196.534C144.606 196.534 161.611 198.052 167.124 184.33C172.637 170.607 171.263 140.795 194.705 141.663Z" fill="#263238"/>
<path d="M195.735 141.704C195.735 141.704 208.029 144.091 206.883 156.274C205.738 168.458 202.516 189.788 196.537 195.225C190.559 200.663 167.181 201.849 154.487 201.104C139.78 200.229 130.501 197.578 130.501 197.578C130.501 197.578 127.816 199.212 128.625 200.29C129.434 201.368 136.608 205.578 171.37 204.873C206.132 204.168 203.719 199.314 205.158 194.025C206.597 188.737 209.633 160.437 209.21 154.22C208.788 148.003 205.48 142.762 195.735 141.704Z" fill="#455A64"/>
<path d="M161.196 89.9929C163.13 89.3614 165.231 89.3512 167.172 89.964C169.114 90.5768 170.788 91.7784 171.936 93.3829C173.489 95.661 173.855 98.5221 175.437 100.78C176.561 102.373 178.222 103.546 179.597 104.956C180.972 106.367 182.096 108.231 181.745 110.123C181.415 111.892 179.833 113.465 180.148 115.242C180.449 116.903 182.296 117.988 182.69 119.642C183.112 121.588 181.136 123.405 179.06 123.71C176.983 124.015 174.921 123.256 172.967 122.523C171.012 121.791 168.936 121.059 166.866 121.411C164.468 121.825 162.628 123.608 160.53 124.801C158.318 125.998 155.786 126.559 153.243 126.416C150.7 126.273 148.256 125.431 146.21 123.995C144.635 122.849 143.253 121.072 143.639 119.249C143.997 117.526 145.787 116.333 146.26 114.645C147.019 112.136 144.828 109.574 145.15 106.977C145.594 103.492 150.162 101.899 151.795 98.7526C152.589 97.2407 152.661 95.4779 153.355 93.9253C154.05 92.3727 155.883 90.9895 157.515 91.654" fill="#263238"/>
<path d="M159.649 121.709C159.885 120.469 159.463 115.248 159.463 115.248C159.463 115.248 154.58 114.665 154.365 109.939C154.15 105.214 154.651 94.3453 154.651 94.3453L163.652 90.2773L171.528 98.7523L171.678 121.662L159.649 121.709Z" fill="#FFBE9D"/>
<path d="M155.289 102.678C155.29 102.794 155.327 102.907 155.396 103.003C155.465 103.098 155.562 103.173 155.675 103.217C155.788 103.261 155.912 103.272 156.032 103.25C156.152 103.227 156.262 103.172 156.349 103.091C156.436 103.009 156.496 102.905 156.521 102.792C156.546 102.679 156.535 102.561 156.49 102.453C156.445 102.346 156.368 102.253 156.267 102.187C156.167 102.121 156.048 102.084 155.926 102.082C155.758 102.082 155.597 102.144 155.478 102.256C155.358 102.368 155.29 102.519 155.289 102.678Z" fill="#263238"/>
<path d="M154.888 101.621C154.967 101.702 155.439 101.329 156.105 101.302C156.771 101.275 157.272 101.6 157.344 101.512C157.415 101.424 157.301 101.329 157.079 101.18C156.788 100.988 156.439 100.893 156.086 100.909C155.732 100.925 155.394 101.051 155.124 101.268C154.916 101.431 154.852 101.587 154.888 101.621Z" fill="#263238"/>
<path d="M162.592 102.678C162.583 102.761 162.592 102.844 162.619 102.923C162.645 103.002 162.689 103.074 162.748 103.136C162.806 103.197 162.878 103.247 162.958 103.28C163.037 103.314 163.124 103.331 163.211 103.331C163.299 103.331 163.385 103.314 163.465 103.28C163.545 103.247 163.616 103.197 163.675 103.136C163.733 103.074 163.777 103.002 163.804 102.923C163.831 102.844 163.84 102.761 163.831 102.678C163.84 102.596 163.831 102.513 163.804 102.434C163.777 102.355 163.733 102.283 163.675 102.221C163.616 102.16 163.545 102.11 163.465 102.077C163.385 102.043 163.299 102.025 163.211 102.025C163.124 102.025 163.037 102.043 162.958 102.077C162.878 102.11 162.806 102.16 162.748 102.221C162.689 102.283 162.645 102.355 162.619 102.434C162.592 102.513 162.583 102.596 162.592 102.678Z" fill="#263238"/>
<path d="M162.305 101.743C162.384 101.824 162.857 101.451 163.522 101.424C164.188 101.397 164.69 101.722 164.761 101.634C164.833 101.546 164.718 101.451 164.496 101.302C164.207 101.111 163.86 101.016 163.508 101.031C163.154 101.047 162.815 101.17 162.542 101.383C162.341 101.553 162.269 101.702 162.305 101.743Z" fill="#263238"/>
<path d="M159.792 107.194C159.439 107.094 159.073 107.042 158.704 107.038C158.532 107.038 158.368 106.997 158.339 106.882C158.323 106.702 158.36 106.521 158.446 106.36C158.597 105.939 158.761 105.492 158.926 105.004C159.375 103.864 159.736 102.695 160.007 101.505C159.466 102.601 159.013 103.734 158.654 104.895C158.497 105.37 158.339 105.817 158.189 106.251C158.089 106.464 158.064 106.702 158.117 106.929C158.14 106.989 158.178 107.043 158.228 107.085C158.278 107.128 158.338 107.158 158.403 107.173C158.498 107.186 158.595 107.186 158.69 107.173C159.054 107.23 159.426 107.237 159.792 107.194Z" fill="#263238"/>
<path d="M159.463 115.262C161.774 115.191 164.013 114.484 165.907 113.228C165.907 113.228 164.389 116.672 159.52 116.394L159.463 115.262Z" fill="#EB996E"/>
<path d="M160.036 108.862C160.076 108.662 160.168 108.475 160.303 108.317C160.438 108.158 160.611 108.034 160.809 107.953C160.945 107.895 161.093 107.864 161.242 107.864C161.391 107.864 161.539 107.895 161.675 107.953C161.806 108.015 161.914 108.113 161.984 108.234C162.055 108.355 162.084 108.494 162.069 108.631C162.029 108.789 161.939 108.932 161.811 109.041C161.683 109.15 161.523 109.22 161.353 109.241C161.02 109.283 160.681 109.26 160.358 109.174C160.267 109.16 160.179 109.13 160.1 109.086C160.061 109.062 160.03 109.029 160.011 108.989C159.992 108.949 159.985 108.905 159.993 108.862" fill="#EB996E"/>
<path d="M161.697 107.173C161.74 107.173 161.818 107.343 161.797 107.648C161.757 108.057 161.561 108.437 161.246 108.719C160.933 108.999 160.523 109.161 160.093 109.173C159.763 109.173 159.577 109.092 159.592 109.051C159.606 109.011 160.372 109.011 160.988 108.462C161.604 107.912 161.589 107.167 161.697 107.173Z" fill="#263238"/>
<path d="M154.243 93.8098C154.423 95.1785 155.123 96.4384 156.213 97.3532C157.303 98.2681 158.708 98.7752 160.164 98.7795L158.811 95.959C160.014 97.2812 161.26 98.671 162.914 99.4304C164.568 100.19 166.723 100.312 168.126 99.1728C168.585 100.332 168.577 101.614 169 102.78C169.422 103.946 170.432 108.773 171.692 108.583C172.952 108.394 173.718 103.559 174.019 102.481C174.38 100.949 174.357 99.3569 173.95 97.8342C173.544 96.3116 172.765 94.9007 171.678 93.7149C170.396 92.2995 168.785 91.1855 166.97 90.4607C165.156 89.7359 163.189 89.4202 161.224 89.5384C159.472 89.6115 157.783 90.1755 156.37 91.1588C155.163 92.0705 154.321 93.3457 153.985 94.7725" fill="#263238"/>
<path d="M147.556 115.099C147.438 115.092 147.322 115.067 147.212 115.025C146.894 114.933 146.587 114.811 146.296 114.659C145.202 114.106 144.297 113.268 143.689 112.245C143.218 111.489 142.933 110.643 142.853 109.769C142.774 108.894 142.903 108.014 143.231 107.194C143.619 106.224 144.245 105.354 145.057 104.658C145.928 103.908 146.996 103.395 148.15 103.173C148.685 103.102 149.185 102.877 149.582 102.529C149.916 102.146 150.11 101.67 150.133 101.173C150.219 100.177 149.804 99.207 149.689 98.2306C149.564 97.2909 149.768 96.3383 150.269 95.5186C150.71 94.8087 151.352 94.2306 152.124 93.8508C152.84 93.505 153.477 93.2812 154.028 93.0507C154.511 92.8728 154.972 92.6454 155.403 92.3727C155.756 92.1248 156.071 91.8329 156.341 91.5049C156.301 91.6091 156.246 91.7073 156.176 91.7964C155.981 92.0601 155.739 92.2895 155.46 92.4744C155.034 92.774 154.573 93.0265 154.086 93.227C153.534 93.4711 152.883 93.7152 152.224 94.0609C151.506 94.4313 150.913 94.9859 150.513 95.661C150.049 96.4289 149.868 97.3208 149.997 98.1967C150.112 99.1256 150.549 100.095 150.47 101.207C150.446 101.785 150.219 102.338 149.825 102.78C149.377 103.182 148.81 103.444 148.2 103.533C147.146 103.743 146.165 104.2 145.345 104.862C144.526 105.524 143.895 106.37 143.51 107.323C143.194 108.101 143.062 108.936 143.126 109.768C143.189 110.6 143.445 111.409 143.875 112.136C144.447 113.137 145.293 113.973 146.324 114.557C147.083 114.95 147.556 115.065 147.556 115.099Z" fill="#263238"/>
<path d="M179.969 121.31C179.969 121.31 180.391 121.039 181.129 120.537C182.197 119.867 183.045 118.928 183.578 117.825C183.903 117.059 183.954 116.213 183.721 115.418C183.592 114.987 183.345 114.597 183.005 114.286C182.618 113.965 182.19 113.691 181.73 113.472C181.202 113.203 180.756 112.809 180.437 112.327C180.118 111.846 179.937 111.294 179.912 110.726C179.862 109.499 180.663 108.482 180.95 107.39C181.194 106.293 181.003 105.149 180.413 104.177C179.868 103.251 179.138 102.433 178.265 101.77C176.625 100.468 174.914 99.5121 173.733 98.3798C172.759 97.5373 172.034 96.4696 171.628 95.2814C171.53 94.9566 171.472 94.6221 171.456 94.2847C171.437 94.1678 171.437 94.049 171.456 93.9321C171.515 94.3747 171.611 94.8122 171.742 95.2407C172.19 96.3805 172.928 97.3981 173.89 98.2035C175.064 99.268 176.754 100.183 178.458 101.505C179.363 102.191 180.119 103.036 180.685 103.994C181.326 105.04 181.533 106.275 181.265 107.458C180.936 108.645 180.169 109.621 180.227 110.699C180.244 111.226 180.411 111.739 180.71 112.183C181.008 112.628 181.427 112.989 181.924 113.228C182.406 113.463 182.856 113.755 183.263 114.096C183.632 114.451 183.898 114.89 184.036 115.371C184.271 116.226 184.206 117.13 183.85 117.947C183.548 118.606 183.107 119.199 182.554 119.689C182.138 120.059 181.687 120.393 181.208 120.686C180.821 120.923 180.492 121.093 180.298 121.195C180.194 121.246 180.084 121.285 179.969 121.31Z" fill="#263238"/>
<path d="M154.079 99.4647C154.771 98.9201 155.258 98.1779 155.468 97.3493C155.672 96.5245 155.78 95.681 155.79 94.8339C155.79 94.5898 155.79 94.2712 155.518 94.2102C155.246 94.1491 155.074 94.3797 154.959 94.5898C154.084 96.1595 153.775 97.9572 154.079 99.7087L154.236 99.5664" fill="#263238"/>
<path d="M141.585 255.92L141.449 249.818L153.506 249.506L153.8 258.422L153.084 258.489C149.761 258.747 136.172 259.588 133.931 259.005C131.403 258.361 141.585 255.92 141.585 255.92Z" fill="#F7B34F"/>
<g opacity="0.5">
<path opacity="0.5" d="M149.424 258.456C149.575 257.486 150.101 256.604 150.899 255.981C151.676 255.357 152.674 255.034 153.692 255.079L153.785 258.266L149.424 258.456Z" fill="white"/>
</g>
<g opacity="0.4">
<path opacity="0.4" d="M136.615 257.283C136.615 257.283 133.035 258.354 133.515 258.903C133.995 259.452 147.742 259.093 153.799 258.429V258.178L137.739 258.727C137.739 258.727 137.317 257.289 136.615 257.283Z" fill="white"/>
</g>
<path d="M154 258.164H153.792L153.198 258.212L151.007 258.361C149.16 258.469 146.604 258.591 143.776 258.673C140.947 258.754 138.391 258.761 136.537 258.747H134.346H133.752H133.544H133.752H134.346H136.537C138.391 258.747 140.947 258.7 143.776 258.625C146.604 258.551 149.153 258.442 151.007 258.361L153.198 258.252H153.792L154 258.164Z" fill="#263238"/>
<path d="M137.732 258.903C137.622 258.561 137.473 258.231 137.288 257.92C137.067 257.633 136.81 257.374 136.522 257.147C136.889 257.288 137.201 257.532 137.417 257.845C137.634 258.159 137.744 258.528 137.732 258.903Z" fill="#263238"/>
<path d="M141.241 257.1C141.205 257.1 141.026 256.93 140.847 256.673C140.668 256.415 140.539 256.191 140.575 256.164C140.611 256.137 140.782 256.34 140.969 256.598C141.095 256.745 141.188 256.916 141.241 257.1Z" fill="#263238"/>
<path d="M142.2 256.585C142.2 256.618 141.978 256.503 141.77 256.327C141.563 256.151 141.405 255.995 141.427 255.968C141.448 255.94 141.649 256.049 141.864 256.225C142.078 256.401 142.229 256.557 142.2 256.585Z" fill="#263238"/>
<path d="M142.788 255.493C142.588 255.57 142.372 255.603 142.157 255.588C141.946 255.611 141.732 255.595 141.527 255.54C141.937 255.429 142.369 255.413 142.788 255.493Z" fill="#263238"/>
<path d="M142.973 254.727C142.765 254.869 142.514 254.943 142.257 254.937C142.017 254.979 141.768 254.956 141.542 254.869C141.777 254.825 142.017 254.803 142.257 254.801C142.494 254.759 142.733 254.734 142.973 254.727Z" fill="#263238"/>
<path d="M140.797 256.116C140.541 256.157 140.279 256.157 140.023 256.116C139.742 256.09 139.464 256.04 139.193 255.967C139.029 255.926 138.871 255.87 138.72 255.798C138.627 255.748 138.556 255.669 138.52 255.574C138.506 255.52 138.508 255.463 138.527 255.41C138.546 255.357 138.581 255.31 138.627 255.276C138.917 255.131 139.252 255.085 139.574 255.145C139.895 255.206 140.186 255.369 140.396 255.608C140.518 255.749 140.609 255.913 140.661 256.089C140.677 256.156 140.677 256.226 140.661 256.293C140.574 256.068 140.448 255.86 140.288 255.676C140.109 255.485 139.875 255.348 139.615 255.282C139.308 255.194 138.976 255.223 138.692 255.364C138.577 255.459 138.627 255.594 138.763 255.669C138.905 255.737 139.054 255.792 139.207 255.832C139.469 255.91 139.737 255.969 140.009 256.008C140.503 256.103 140.797 256.089 140.797 256.116Z" fill="#263238"/>
<path d="M140.603 256.157C140.498 256.008 140.459 255.825 140.496 255.649C140.515 255.456 140.582 255.27 140.689 255.106C140.752 254.996 140.844 254.903 140.955 254.835C141.067 254.767 141.194 254.728 141.327 254.72C141.406 254.733 141.477 254.775 141.524 254.837C141.57 254.899 141.59 254.977 141.577 255.052C141.558 255.169 141.517 255.281 141.455 255.384C141.356 255.547 141.236 255.697 141.097 255.832C140.984 255.968 140.836 256.076 140.668 256.144C140.668 256.144 140.818 256.008 141.026 255.771C141.141 255.63 141.244 255.48 141.334 255.323C141.434 255.16 141.498 254.882 141.334 254.855C141.169 254.828 140.947 255.032 140.833 255.181C140.73 255.326 140.659 255.49 140.625 255.662C140.597 255.826 140.59 255.992 140.603 256.157Z" fill="#263238"/>
<path d="M153.627 255.045C153.627 255.045 153.284 255.045 152.74 255.099C152.03 255.19 151.361 255.47 150.814 255.907C150.266 256.344 149.861 256.92 149.647 257.567C149.482 258.062 149.468 258.388 149.446 258.388C149.425 258.388 149.446 258.306 149.446 258.157C149.459 257.948 149.497 257.741 149.561 257.54C149.756 256.864 150.163 256.259 150.728 255.805C151.297 255.356 151.995 255.077 152.732 255.004C152.954 254.98 153.177 254.98 153.398 255.004C153.476 255.007 153.554 255.021 153.627 255.045Z" fill="#263238"/>
<path d="M152.239 250.326C152.348 251.104 152.406 251.887 152.41 252.672C152.461 253.453 152.461 254.237 152.41 255.018C152.305 254.242 152.247 253.461 152.239 252.679C152.192 251.895 152.192 251.11 152.239 250.326Z" fill="#263238"/>
<path d="M147.878 257.378C147.307 257.526 146.716 257.596 146.124 257.588C145.533 257.633 144.939 257.605 144.355 257.506C144.355 257.466 145.15 257.506 146.117 257.452C147.083 257.398 147.871 257.337 147.878 257.378Z" fill="#263238"/>
<path d="M150.241 257.317C150.241 257.317 150.184 257.473 150.105 257.649C150.026 257.825 149.99 257.974 149.947 257.974C149.904 257.974 149.883 257.791 149.947 257.595C150.012 257.398 150.212 257.289 150.241 257.317Z" fill="#263238"/>
<path d="M151.136 256.245C151.136 256.245 151.093 256.388 150.971 256.51C150.85 256.632 150.728 256.713 150.699 256.686C150.671 256.659 150.742 256.543 150.864 256.415C150.986 256.286 151.071 256.218 151.136 256.245Z" fill="#263238"/>
<path d="M152.36 255.73C152.36 255.771 152.196 255.771 152.017 255.832C151.838 255.893 151.716 255.995 151.687 255.967C151.659 255.94 151.752 255.778 151.966 255.703C152.181 255.629 152.375 255.696 152.36 255.73Z" fill="#263238"/>
<path d="M153.284 255.479C153.284 255.513 153.234 255.574 153.133 255.615C153.033 255.655 152.94 255.655 152.926 255.615C152.911 255.574 152.976 255.52 153.076 255.479C153.176 255.439 153.284 255.445 153.284 255.479Z" fill="#263238"/>
<path d="M112.472 223.301L115.264 217.81L126.169 222.705L122.166 230.78L121.45 230.515C118.364 229.329 105.842 224.251 104.123 222.773C102.219 221.125 112.472 223.301 112.472 223.301Z" fill="#F7B34F"/>
<g opacity="0.5">
<path opacity="0.5" d="M118.25 228.922C118.848 228.125 119.735 227.565 120.742 227.349C121.733 227.129 122.776 227.269 123.663 227.742L122.231 230.631L118.25 228.922Z" fill="white"/>
</g>
<g opacity="0.4">
<path opacity="0.4" d="M107.381 222.386C107.381 222.386 103.693 221.817 103.844 222.501C103.994 223.186 116.438 228.766 122.159 230.773L122.259 230.536L107.682 224.142C107.682 224.142 108.004 222.698 107.381 222.386Z" fill="white"/>
</g>
<path d="M122.431 230.61C122.364 230.599 122.299 230.578 122.238 230.549L121.679 230.339L119.632 229.532C117.928 228.854 115.593 227.85 113.03 226.705C110.467 225.559 108.183 224.481 106.543 223.674L104.596 222.711L104.073 222.44L103.894 222.332L104.087 222.413L104.624 222.657L106.586 223.586C108.247 224.366 110.539 225.437 113.095 226.583C115.651 227.728 117.978 228.725 119.675 229.437L121.672 230.284L122.216 230.522L122.431 230.61Z" fill="#263238"/>
<path d="M107.603 224.311C107.671 223.963 107.698 223.608 107.682 223.254C107.614 222.903 107.509 222.56 107.367 222.23C107.642 222.504 107.804 222.863 107.825 223.24C107.895 223.611 107.816 223.993 107.603 224.311Z" fill="#263238"/>
<path d="M111.591 224.21C111.548 224.21 111.484 223.966 111.448 223.661C111.412 223.356 111.405 223.098 111.448 223.091C111.536 223.263 111.585 223.45 111.591 223.64C111.634 223.952 111.634 224.203 111.591 224.21Z" fill="#263238"/>
<path d="M112.694 224.162C112.658 224.162 112.544 223.993 112.429 223.749C112.314 223.505 112.264 223.295 112.307 223.281C112.35 223.267 112.458 223.45 112.565 223.695C112.672 223.939 112.73 224.149 112.694 224.162Z" fill="#263238"/>
<path d="M113.739 223.437C113.527 223.419 113.322 223.356 113.138 223.254C112.934 223.19 112.748 223.083 112.594 222.942C112.806 222.96 113.012 223.022 113.195 223.125C113.517 223.267 113.761 223.403 113.739 223.437Z" fill="#263238"/>
<path d="M114.276 222.84C114.03 222.848 113.784 222.809 113.554 222.725C113.324 222.641 113.115 222.514 112.938 222.352C113.383 222.516 113.829 222.679 114.276 222.84Z" fill="#263238"/>
<path d="M111.67 223.145C111.413 223.08 111.171 222.972 110.954 222.826C110.714 222.683 110.489 222.52 110.281 222.338C110.156 222.228 110.041 222.108 109.937 221.979C109.878 221.895 109.855 221.793 109.873 221.694C109.884 221.639 109.912 221.589 109.955 221.55C109.997 221.512 110.051 221.486 110.109 221.477C110.322 221.474 110.534 221.515 110.728 221.599C110.922 221.682 111.094 221.806 111.231 221.961C111.369 222.115 111.468 222.297 111.521 222.493C111.575 222.688 111.581 222.893 111.541 223.091C111.541 223.213 111.476 223.281 111.469 223.274C111.499 223.048 111.487 222.818 111.433 222.596C111.361 222.351 111.217 222.13 111.018 221.959C110.905 221.853 110.771 221.771 110.623 221.716C110.475 221.661 110.317 221.635 110.159 221.64C110.009 221.64 109.987 221.809 110.08 221.932C110.171 222.054 110.274 222.167 110.388 222.271C110.587 222.453 110.8 222.621 111.025 222.772C111.412 223.003 111.684 223.125 111.67 223.145Z" fill="#263238"/>
<path d="M111.476 223.098C111.456 222.92 111.507 222.741 111.62 222.596C111.732 222.434 111.881 222.297 112.056 222.196C112.165 222.125 112.291 222.08 112.422 222.067C112.554 222.054 112.686 222.073 112.808 222.122C112.872 222.169 112.914 222.237 112.926 222.313C112.938 222.389 112.919 222.466 112.873 222.528C112.803 222.624 112.713 222.705 112.608 222.766C112.441 222.873 112.261 222.959 112.071 223.023C111.904 223.091 111.722 223.121 111.541 223.112C111.541 223.112 111.734 223.057 112.035 222.928C112.209 222.857 112.374 222.768 112.529 222.664C112.694 222.569 112.887 222.345 112.722 222.237C112.622 222.207 112.517 222.198 112.413 222.211C112.309 222.224 112.209 222.258 112.121 222.312C111.961 222.399 111.821 222.514 111.706 222.651C111.611 222.791 111.534 222.941 111.476 223.098Z" fill="#263238"/>
<path d="M123.62 227.688C123.62 227.688 123.326 227.518 122.804 227.356C122.128 227.135 121.4 227.1 120.705 227.254C120.009 227.409 119.374 227.748 118.873 228.23C118.479 228.596 118.314 228.908 118.293 228.874C118.316 228.799 118.353 228.728 118.4 228.664C118.514 228.485 118.645 228.317 118.794 228.162C119.294 227.644 119.948 227.28 120.67 227.119C121.391 226.958 122.148 227.008 122.84 227.261C123.045 227.336 123.242 227.431 123.427 227.545C123.563 227.627 123.627 227.681 123.62 227.688Z" fill="#263238"/>
<path d="M124.644 222.888C124.366 223.626 124.044 224.348 123.677 225.051C123.355 225.771 122.989 226.472 122.582 227.152C122.859 226.414 123.181 225.692 123.548 224.99C123.866 224.268 124.232 223.566 124.644 222.888Z" fill="#263238"/>
<path d="M117.376 227.301C116.799 227.184 116.24 226.994 115.715 226.739C115.168 226.522 114.65 226.242 114.176 225.905C114.176 225.871 114.892 226.23 115.772 226.616C116.653 227.003 117.391 227.267 117.376 227.301Z" fill="#263238"/>
<path d="M119.517 228.257C119.517 228.298 119.388 228.373 119.238 228.495C119.088 228.617 118.98 228.739 118.944 228.718C118.909 228.698 118.944 228.529 119.145 228.393C119.345 228.257 119.51 228.223 119.517 228.257Z" fill="#263238"/>
<path d="M120.799 227.668C120.799 227.708 120.684 227.783 120.519 227.837C120.355 227.891 120.204 227.918 120.19 227.878C120.176 227.837 120.305 227.769 120.469 227.708C120.634 227.647 120.784 227.634 120.799 227.668Z" fill="#263238"/>
<path d="M122.167 227.756C122.167 227.756 121.995 227.715 121.809 227.701C121.622 227.688 121.465 227.701 121.451 227.701C121.436 227.701 121.594 227.566 121.83 227.593C122.066 227.62 122.195 227.729 122.167 227.756Z" fill="#263238"/>
<path d="M123.09 227.919C123.09 227.919 122.997 227.98 122.89 227.973C122.782 227.966 122.696 227.925 122.704 227.891C122.711 227.858 122.797 227.824 122.897 227.83C122.997 227.837 123.09 227.878 123.09 227.919Z" fill="#263238"/>
<path d="M191.948 143.507L189.384 131.303C187.523 121.364 172.773 120.686 172.773 120.686L161.16 120.503C161.16 120.503 152.568 119.411 147.276 125.066C141.799 130.917 135.062 137.839 135.062 137.839L140.202 150.091L152.374 140.599C151.357 142.289 150.796 144.192 150.742 146.138C150.742 149.385 154.322 150.884 154.322 150.884L155.432 160.735L151.852 176.689L189.664 175.251C189.025 169.9 187.113 164.756 184.072 160.206L184.788 143.507H191.948Z" fill="#F7B34F"/>
<path d="M175.745 129.859C175.846 130.11 175.914 130.372 175.946 130.639C176.067 131.215 176.21 131.927 176.389 132.775C176.776 134.66 177.277 137.114 177.821 139.826C178.366 142.538 178.853 145.087 179.153 146.904C179.311 147.813 179.418 148.552 179.483 149.06C179.534 149.324 179.551 149.593 179.533 149.86C179.438 149.608 179.373 149.347 179.339 149.081C179.218 148.504 179.067 147.792 178.895 146.945C178.509 145.06 178.008 142.606 177.463 139.894C176.919 137.182 176.432 134.639 176.132 132.815C175.974 131.907 175.867 131.175 175.802 130.659C175.756 130.395 175.737 130.127 175.745 129.859Z" fill="#263238"/>
<path d="M192.17 142.87C189.846 143.059 187.513 143.127 185.182 143.074C182.851 143.139 180.518 143.087 178.193 142.918C180.517 142.734 182.85 142.668 185.182 142.721C187.512 142.656 189.845 142.706 192.17 142.87Z" fill="#263238"/>
<path d="M193.609 153.908C192.893 148.064 191.869 143.06 191.869 143.06H178.48C178.48 143.06 180.141 150.518 179.776 152.213C179.447 153.711 153.506 154.701 146.747 154.803C146.339 154.518 145.759 155 145.236 154.566C144.775 154.178 144.385 153.719 144.083 153.21C143.685 152.591 143.374 151.926 143.16 151.23C143.134 151.1 143.069 150.979 142.973 150.884C142.876 150.788 142.752 150.721 142.615 150.692C142.479 150.662 142.337 150.671 142.206 150.717C142.075 150.764 141.961 150.845 141.878 150.952C141.606 151.501 141.914 153.325 143.196 155.088C144.477 156.851 141.112 155.935 139.88 155.623C138.649 155.312 134.783 154.518 134.389 154.81C133.802 155.237 134.167 155.922 135.405 156.206C136.644 156.491 140.303 157.562 140.102 158.24C139.902 158.918 133.658 157.176 133.658 157.176C133.658 157.176 132.384 156.613 132.126 157.325C131.668 158.613 138.448 159.915 139.1 160.037C139.551 160.119 139.358 160.803 138.878 160.715C138.398 160.627 132.678 158.905 132.198 160.213C131.825 161.217 137.768 161.339 138.749 162.329C139.73 163.319 134.253 161.793 133.938 162.763C133.823 163.129 136.086 163.292 139.379 163.732C142.746 164.037 146.129 164.15 149.511 164.071C157.107 164.465 183.972 164.993 189.707 164.607C196.38 164.126 193.867 155.942 193.609 153.908Z" fill="#FFBE9D"/>
<path d="M151.064 143.853C151.169 143.295 151.322 142.746 151.523 142.212C151.68 141.704 151.874 141.107 152.117 140.45C152.239 140.124 152.375 139.772 152.525 139.426C152.611 139.236 152.718 139.073 152.769 138.917C152.825 138.747 152.85 138.567 152.84 138.389C152.805 138.01 152.745 137.634 152.661 137.263C152.59 136.897 152.518 136.544 152.446 136.199C152.332 135.521 152.217 134.938 152.117 134.382C151.984 133.827 151.912 133.262 151.902 132.693C152.122 133.223 152.28 133.773 152.375 134.334C152.504 134.883 152.64 135.487 152.783 136.131L153.019 137.202C153.117 137.59 153.181 137.984 153.212 138.382C153.224 138.6 153.193 138.819 153.119 139.026C153.044 139.209 152.958 139.388 152.862 139.561C152.711 139.9 152.568 140.239 152.439 140.565C152.203 141.182 151.974 141.758 151.773 142.287C151.607 142.835 151.368 143.361 151.064 143.853Z" fill="#263238"/>
<path d="M166.673 97.6338C167.704 98.8949 168.821 100.346 168.599 101.926C168.42 103.282 167.253 104.536 167.446 105.919C167.676 107.512 169.594 108.556 169.723 110.163C169.802 111.519 168.592 112.523 167.74 113.553C167.115 114.315 166.654 115.187 166.385 116.117C166.116 117.048 166.044 118.02 166.172 118.977C166.313 119.929 166.681 120.839 167.248 121.636C167.815 122.434 168.566 123.099 169.444 123.581C170.334 124.047 171.337 124.288 172.355 124.278C173.373 124.269 174.37 124.01 175.251 123.527C176.803 122.501 177.934 120.999 178.451 119.276C179.253 117.092 179.468 114.53 178.1 112.604C177.542 111.831 176.733 111.167 176.554 110.245C176.325 109.078 177.198 107.98 177.334 106.8C177.52 105.221 176.368 103.776 175.093 102.732C173.819 101.688 172.315 100.861 171.363 99.5525" fill="#263238"/>
<g opacity="0.3">
<path opacity="0.3" d="M176.196 133.161C176.661 139.941 176.912 146.213 177.084 153.013C178.039 152.974 178.968 152.698 179.776 152.213C180.141 149.311 177.821 140.477 176.196 133.161Z" fill="black"/>
</g>
<path d="M158.74 130.035C158.635 129.518 158.693 128.983 158.904 128.496C159.148 127.669 159.527 127.066 159.62 127.106C159.589 127.617 159.468 128.119 159.262 128.591C159.17 129.096 158.993 129.583 158.74 130.035Z" fill="#FAFAFA"/>
<path d="M151.136 130.015C151.078 130.096 150.57 129.859 150.076 129.412C149.582 128.964 149.296 128.496 149.36 128.442C149.425 128.388 149.84 128.734 150.312 129.154C150.785 129.574 151.186 129.934 151.136 130.015Z" fill="#FAFAFA"/>
<path d="M143.868 135.643C143.868 135.643 143.804 135.582 143.761 135.459H143.925C144.037 136.013 144.037 136.581 143.925 137.134C143.883 137.767 143.632 138.371 143.209 138.863C143.294 138.259 143.421 137.661 143.589 137.073C143.718 136.395 143.746 135.758 143.789 135.466H143.954C143.911 135.602 143.897 135.636 143.868 135.643Z" fill="#FAFAFA"/>
<path d="M143.546 142.68C143 142.659 142.465 142.525 141.978 142.287C141.148 141.982 140.504 141.663 140.546 141.568C141.096 141.589 141.633 141.723 142.122 141.962C142.938 142.267 143.582 142.585 143.546 142.68Z" fill="#FAFAFA"/>
<path d="M149.704 138.782C149.604 138.782 149.618 138.172 149.854 137.473C150.09 136.775 150.42 136.273 150.513 136.314C150.606 136.355 150.427 136.904 150.205 137.575C149.983 138.246 149.775 138.795 149.704 138.782Z" fill="#FAFAFA"/>
<path d="M156.148 123.35C156.148 123.445 155.611 123.547 154.938 123.581C154.265 123.615 153.721 123.581 153.713 123.459C153.706 123.337 154.25 123.255 154.923 123.228C155.597 123.201 156.148 123.249 156.148 123.35Z" fill="#FAFAFA"/>
<path d="M157.458 136.592C157.394 136.66 156.814 136.253 156.427 135.507C156.138 135.082 156.035 134.566 156.141 134.07C156.248 134.07 156.398 134.673 156.756 135.351C157.114 136.029 157.537 136.517 157.458 136.592Z" fill="#FAFAFA"/>
<path d="M170.174 133.751C170.246 133.819 169.795 134.361 169.114 134.917C168.434 135.473 167.797 135.812 167.74 135.731C167.682 135.649 168.205 135.188 168.871 134.646C169.537 134.103 170.102 133.683 170.174 133.751Z" fill="#FAFAFA"/>
<path d="M163.888 131.88C163.945 131.961 163.551 132.334 163 132.721C162.449 133.107 161.948 133.365 161.89 133.283C161.833 133.202 162.227 132.829 162.778 132.443C163.329 132.056 163.824 131.805 163.888 131.88Z" fill="#FAFAFA"/>
<path d="M166.974 127.012C166.392 126.896 165.861 126.618 165.449 126.212C164.733 125.608 164.296 124.958 164.382 124.903C164.468 124.849 164.983 125.371 165.692 125.941C166.401 126.51 167.024 126.924 166.974 127.012Z" fill="#FAFAFA"/>
<path d="M174.213 125.113C174.27 125.188 173.869 125.581 173.303 125.981C172.738 126.381 172.229 126.659 172.165 126.578C172.1 126.496 172.509 126.11 173.074 125.703C173.64 125.296 174.148 125.032 174.213 125.113Z" fill="#FAFAFA"/>
<path d="M180.256 127.825C180.246 127.335 180.324 126.847 180.485 126.381C180.649 125.601 180.757 124.957 180.864 124.964C181.023 125.447 181.023 125.965 180.864 126.449C180.685 127.262 180.349 127.859 180.256 127.825Z" fill="#FAFAFA"/>
<path d="M181.323 134.355C181.251 134.422 180.606 133.968 179.89 133.331C179.174 132.693 178.623 132.124 178.695 132.056C178.766 131.988 179.411 132.436 180.127 133.073C180.843 133.71 181.394 134.28 181.323 134.355Z" fill="#FAFAFA"/>
<path d="M186.22 131.609C186.127 131.568 186.313 130.931 186.635 130.253C186.957 129.575 187.301 128.978 187.394 129.019C187.368 129.495 187.226 129.959 186.979 130.375C186.649 131.093 186.306 131.649 186.22 131.609Z" fill="#FAFAFA"/>
<path d="M186.471 139.453C186.593 138.886 186.837 138.348 187.187 137.873C187.428 137.346 187.776 136.87 188.211 136.47C188.089 137.035 187.845 137.571 187.495 138.043C187.255 138.572 186.907 139.051 186.471 139.453Z" fill="#FAFAFA"/>
<path d="M181.645 140.653C181.559 140.714 181.072 140.226 180.542 139.561C180.012 138.897 179.661 138.321 179.74 138.26C179.819 138.199 180.32 138.687 180.843 139.351C181.365 140.016 181.723 140.592 181.645 140.653Z" fill="#FAFAFA"/>
<path d="M172.537 144.009C172.71 143.298 173.044 142.632 173.518 142.057C173.892 141.421 174.411 140.872 175.036 140.45C174.701 141.088 174.298 141.693 173.833 142.253C173.465 142.879 173.031 143.467 172.537 144.009Z" fill="#FAFAFA"/>
<path d="M165.993 143.385C165.555 142.928 165.213 142.397 164.983 141.819C164.645 141.29 164.415 140.706 164.303 140.097C165.082 141.082 165.656 142.198 165.993 143.385Z" fill="#FAFAFA"/>
<path d="M157.752 141.568C157.341 142.135 156.833 142.632 156.248 143.04C155.745 143.535 155.157 143.945 154.508 144.253C154.437 144.179 155.11 143.521 156.005 142.775C156.509 142.28 157.1 141.872 157.752 141.568Z" fill="#FAFAFA"/>
<path d="M160.88 150.043C160.795 150.105 160.207 149.474 159.448 148.742C158.69 148.01 158.016 147.44 158.081 147.386C158.715 147.621 159.28 147.998 159.728 148.484C160.241 148.906 160.637 149.442 160.88 150.043Z" fill="#FAFAFA"/>
<path d="M166.652 150.301C166.693 149.68 166.913 149.082 167.289 148.572C167.826 147.69 168.478 147.121 168.549 147.216C168.292 147.759 167.975 148.275 167.604 148.755C167.344 149.3 167.025 149.818 166.652 150.301Z" fill="#FAFAFA"/>
<path d="M174.764 151.196C174.108 150.903 173.51 150.507 172.995 150.023C172.401 149.626 171.881 149.138 171.456 148.579C172.114 148.872 172.715 149.268 173.232 149.752C173.824 150.149 174.342 150.637 174.764 151.196Z" fill="#FAFAFA"/>
<path d="M174.048 131.005C173.486 130.92 172.962 130.685 172.537 130.327C171.778 129.805 171.313 129.229 171.384 129.161C171.456 129.093 172.029 129.541 172.759 130.043C173.489 130.544 174.048 130.917 174.048 131.005Z" fill="#FAFAFA"/>
<path d="M162.327 165.752C162.37 165.847 161.79 166.139 161.146 166.593C160.501 167.047 160.021 167.474 159.943 167.413C159.864 167.352 160.229 166.79 160.924 166.308C161.618 165.827 162.298 165.664 162.327 165.752Z" fill="#FAFAFA"/>
<path d="M170.991 169.102C170.366 168.186 169.963 167.151 169.809 166.071C170.43 166.988 170.833 168.023 170.991 169.102Z" fill="#FAFAFA"/>
<path d="M179.726 166.173C179.805 166.24 179.354 166.796 178.731 167.413C178.108 168.03 177.542 168.478 177.47 168.41C177.399 168.342 177.843 167.786 178.466 167.169C179.089 166.552 179.654 166.112 179.726 166.173Z" fill="#FAFAFA"/>
<path d="M186.22 170.634C186.141 170.709 185.561 170.275 184.702 170.119C183.843 169.963 183.134 170.119 183.098 170.031C183.338 169.867 183.615 169.758 183.907 169.713C184.199 169.668 184.498 169.689 184.781 169.773C185.726 169.956 186.27 170.58 186.22 170.634Z" fill="#FAFAFA"/>
<path d="M189.75 173.651C189.75 173.651 140.303 163.841 135.513 165.99C130.723 168.139 108.648 219.81 108.648 219.81L126.427 227.051L145.551 183.143C145.551 183.143 180.17 195.117 186.22 193.91C192.27 192.703 189.75 173.651 189.75 173.651Z" fill="#455A64"/>
<path d="M167.647 176.404C166.895 176.641 138.291 187.781 136.272 191.354C134.253 194.927 139.207 254.367 139.207 254.367H155.475L154.473 201.544L186.22 193.91L167.647 176.404Z" fill="#455A64"/>
<path d="M186.385 194.052C186.228 194.046 186.072 194.028 185.919 193.998L184.587 193.774C183.435 193.571 181.766 193.259 179.711 192.845C175.609 192.025 169.952 190.811 163.795 189.109C160.716 188.269 157.809 187.387 155.203 186.533C152.596 185.679 150.241 184.825 148.315 184.045C147.341 183.672 146.475 183.299 145.716 182.974C144.957 182.648 144.284 182.37 143.775 182.113L142.572 181.536C142.426 181.476 142.287 181.401 142.157 181.312C142.31 181.355 142.458 181.41 142.601 181.475L143.84 181.99C144.37 182.221 145.028 182.492 145.794 182.797C146.561 183.102 147.434 183.475 148.408 183.814C150.348 184.567 152.704 185.36 155.317 186.228C157.931 187.096 160.845 187.93 163.909 188.77C170.06 190.445 175.695 191.72 179.783 192.601L184.63 193.639L185.948 193.923C186.098 193.952 186.244 193.995 186.385 194.052Z" fill="#263238"/>
<path d="M136.279 205.009C136.199 204.718 136.148 204.42 136.128 204.12C136.057 203.476 135.964 202.656 135.856 201.68C135.749 200.703 135.634 199.408 135.506 198.066C135.287 196.579 135.287 195.071 135.506 193.584C135.823 192.081 136.656 190.72 137.875 189.713C138.846 188.894 139.945 188.224 141.133 187.726C141.921 187.387 142.726 187.086 143.546 186.825C143.842 186.712 144.149 186.628 144.463 186.574C144.463 186.635 143.203 187.062 141.248 187.93C140.102 188.44 139.045 189.112 138.112 189.923C136.963 190.896 136.177 192.195 135.871 193.625C135.67 195.081 135.67 196.556 135.871 198.012C135.978 199.368 136.071 200.581 136.15 201.632C136.229 202.683 136.264 203.436 136.3 204.08C136.329 204.389 136.322 204.701 136.279 205.009Z" fill="#263238"/>
<path d="M150.549 199.903C151.923 200.22 153.227 200.764 154.401 201.51C153.028 201.19 151.725 200.647 150.549 199.903Z" fill="#263238"/>
<path d="M151.988 198.276C152.451 198.833 152.884 199.413 153.284 200.012C154 200.941 154.766 201.585 154.716 201.666C154.015 201.344 153.423 200.844 153.005 200.222C152.478 199.678 152.125 199.003 151.988 198.276Z" fill="#263238"/>
<path d="M158.231 200.69C158.231 200.69 158.181 200.819 157.981 200.934C157.69 201.08 157.365 201.152 157.036 201.144C156.584 201.129 156.132 201.141 155.682 201.178C155.441 201.212 155.223 201.332 155.072 201.514C154.922 201.695 154.851 201.925 154.873 202.154C154.928 203.529 154.861 204.906 154.673 206.27C154.489 204.899 154.432 203.515 154.501 202.134C154.505 201.819 154.612 201.513 154.809 201.259C155.02 201.035 155.31 200.89 155.625 200.853C156.103 200.828 156.582 200.842 157.057 200.893C157.46 200.922 157.865 200.852 158.231 200.69Z" fill="#263238"/>
<path opacity="0.3" d="M154.329 165.685L188.031 168.248L186.592 164.675L154.658 164.241L154.329 165.685Z" fill="black"/>
<path d="M245.548 158.681H46.8647V163.698H57.4902L52.0128 259.12L55.0343 259.276L60.526 163.698H234.715L239.383 259.201H242.419L237.743 163.698H245.548V158.681Z" fill="#263238"/>
<path d="M104.811 129.012L115.83 159.495H165.721L165.348 157.929L145.179 157.332L135.885 128.992L104.811 129.012Z" fill="#263238"/>
<path d="M126.921 143.324C127.25 144.578 126.685 145.799 125.661 146.036C124.637 146.273 123.513 145.494 123.205 144.239C122.897 142.985 123.441 141.772 124.465 141.527C125.489 141.283 126.592 142.077 126.921 143.324Z" fill="white"/>
</g>
<defs>
<clipPath id="clip0">
<rect width="316" height="259" fill="white"/>
</clipPath>
</defs>
</svg>
