<svg width="56" height="57" viewBox="0 0 56 57" fill="none" xmlns="http://www.w3.org/2000/svg">
<path d="M14.3345 34.3652L15.1717 35.2024L11.6871 38.687L14.4476 41.4475L17.4005 38.4947L18.2038 39.2979L15.2509 42.2508L18.826 45.8259L17.7965 46.8555L9.8203 38.8793L14.3345 34.3652Z" fill="currentColor"/>
<path d="M27.868 36.7839L22.528 35.6073L21.4079 36.7273L24.6663 39.9857L23.6367 41.0152L15.6606 33.0391L18.2853 30.4143C19.1904 29.5092 20.088 29.0491 20.978 29.034C21.8605 29.0114 22.66 29.3583 23.3765 30.0749C24.0252 30.7235 24.3683 31.4288 24.4061 32.1905C24.4362 32.9448 24.1572 33.7141 23.5688 34.4985L29.0334 35.6186L27.868 36.7839ZM20.6612 35.9806L22.1659 34.4759C23.335 33.3068 23.4067 32.2094 22.3809 31.1836C21.3551 30.1578 20.2577 30.2295 19.0886 31.3986L17.5839 32.9033L20.6612 35.9806Z" fill="currentColor"/>
<path d="M24.2294 26.1447L26.956 28.8713L29.988 25.8392L30.78 26.6312L27.7479 29.6633L30.5311 32.4464L33.9026 29.0749L34.7398 29.9122L30.3388 34.3132L22.3626 26.337L26.7636 21.936L27.6008 22.7732L24.2294 26.1447Z" fill="currentColor"/>
<path d="M30.0586 20.3155L32.7852 23.0421L35.8173 20.01L36.6092 20.802L33.5771 23.834L36.3603 26.6172L39.7318 23.2457L40.569 24.0829L36.168 28.484L28.1918 20.5078L32.5928 16.1068L33.4301 16.944L30.0586 20.3155Z" fill="currentColor"/>
<path d="M42 14.5019C44.8333 19.5019 48 27.5019 45 35.0019C42.0288 42.4298 42 47.0019 44 50.0019C45 51.5019 49.5 53.1131 52 49.5019C55.6 44.3019 54 32.0019 50.5 27.0019M49.0378 4.58325L36.416 2.78013C34.858 2.55756 33.2862 3.08151 32.1734 4.19434L2.12132 34.2464C0.949744 35.418 0.949745 37.3174 2.12132 38.489L17.6777 54.0454C18.8492 55.2169 20.7487 55.2169 21.9203 54.0454L51.9723 23.9933C53.0852 22.8805 53.6091 21.3087 53.3866 19.7507L51.5834 7.12884C51.3949 5.8089 50.3578 4.77181 49.0378 4.58325ZM44.5478 11.619C46.1099 13.1811 46.1099 15.7137 44.5478 17.2758C42.9857 18.8379 40.453 18.8379 38.8909 17.2758C37.3288 15.7137 37.3288 13.1811 38.8909 11.619C40.453 10.0569 42.9857 10.0569 44.5478 11.619Z" stroke="currentColor" stroke-width="1.5"/>
</svg>
