<svg width="56" height="57" viewBox="0 0 56 57" fill="none" xmlns="http://www.w3.org/2000/svg">
<path d="M53.2323 30.3574C52.7201 44.4033 41.1713 55.6333 27 55.6333C12.8287 55.6333 1.27987 44.4033 0.76773 30.3574C0.763686 30.2465 0.856093 30.1333 0.999999 30.1333H27H53C53.1439 30.1333 53.2363 30.2465 53.2323 30.3574Z" stroke="currentColor" stroke-width="1.5"/>
<path d="M0.767685 30.0261C1.28003 15.9311 12.8499 4.1333 27 4.1333C41.1501 4.1333 52.72 15.9311 53.2323 30.0261C53.2363 30.1368 53.1442 30.25 53 30.25H27H1C0.855778 30.25 0.763664 30.1368 0.767685 30.0261Z" stroke="currentColor" stroke-width="1.5"/>
<path d="M38.2454 30.1333C38.1586 37.2089 36.8476 43.5632 34.7999 48.1706C33.7396 50.5563 32.4964 52.4406 31.1539 53.7182C29.8152 54.9922 28.4128 55.6333 27 55.6333C25.5872 55.6333 24.1848 54.9922 22.8461 53.7182C21.5036 52.4406 20.2604 50.5563 19.2001 48.1706C17.1524 43.5632 15.8414 37.2089 15.7546 30.1333H38.2454Z" stroke="currentColor" stroke-width="1.5"/>
<path d="M15.7546 30.25C15.8413 23.1639 17.1525 16.657 19.2035 11.8965C20.2657 9.43115 21.5115 7.46885 22.8572 6.13392C24.2005 4.80151 25.5997 4.1333 27 4.1333C28.4003 4.1333 29.7995 4.80151 31.1428 6.13392C32.4885 7.46885 33.7343 9.43115 34.7965 11.8965C36.8475 16.657 38.1587 23.1639 38.2454 30.25H15.7546Z" stroke="currentColor" stroke-width="1.5"/>
<path d="M10 49.3833C14.5306 45.6491 20.482 43.3833 27 43.3833C33.518 43.3833 39.4694 45.6491 44 49.3833" stroke="currentColor" stroke-width="1.5"/>
<path d="M44 10.3833C39.4694 14.1175 33.518 16.3833 27 16.3833C20.482 16.3833 14.5306 14.1175 10 10.3833" stroke="currentColor" stroke-width="1.5"/>
</svg>
