<svg width="56" height="57" viewBox="0 0 56 57" fill="none" xmlns="http://www.w3.org/2000/svg">
  <rect x="2.75" y="5.75195" width="50.5" height="37.5" rx="2.25" stroke="currentColor" stroke-width="1.5" />
  <path d="M23.75 43.252H32.25V49.752H23.75V43.252Z" stroke="currentColor" stroke-width="1.5" />
  <mask id="path-3-inside-1_632_79215" fill="white">
    <path d="M15 52.002C15 50.3451 16.3431 49.002 18 49.002H38C39.6569 49.002 41 50.3451 41 52.002V53.002C41 53.5542 40.5523 54.002 40 54.002H16C15.4477 54.002 15 53.5542 15 53.002V52.002Z" />
  </mask>
  <path d="M15 52.002C15 50.3451 16.3431 49.002 18 49.002H38C39.6569 49.002 41 50.3451 41 52.002V53.002C41 53.5542 40.5523 54.002 40 54.002H16C15.4477 54.002 15 53.5542 15 53.002V52.002Z" stroke="currentColor" stroke-width="3" mask="url(#path-3-inside-1_632_79215)" />
  <path d="M2.5 34.502H53" stroke="currentColor" stroke-width="1.5" />
  <circle cx="28" cy="39.002" r="2.25" stroke="currentColor" stroke-width="1.5" />
  <path d="M30.3738 26.1037L30.1017 25.4048L30.3738 26.1037ZM31.8733 26.1894L31.343 26.7198L31.8733 26.1894ZM33.914 26.8159L34.4443 27.3462L33.914 26.8159ZM32.4998 26.8159L31.9694 27.3462L32.4998 26.8159ZM34.8139 24.5017L34.2836 25.0321L34.8139 24.5017ZM34.8139 25.9159L35.3443 26.4463L34.8139 25.9159ZM33.9931 22.6376L33.3068 22.3353L33.9931 22.6376ZM34.1017 22.3758L34.8006 22.6479L34.1017 22.3758ZM34.1875 16.1286L33.6572 15.5983L34.1875 16.1286ZM33.9931 17.3663L34.6795 17.064L33.9931 17.3663ZM34.8139 14.088L35.3443 13.5576L34.8139 14.088ZM34.8139 15.5022L34.2836 14.9719L34.8139 15.5022ZM32.4998 13.188L31.9694 12.6577L32.4998 13.188ZM33.914 13.188L34.4443 12.6577L33.914 13.188ZM30.3738 13.9002L30.1017 14.5991L30.3738 13.9002ZM24.1267 13.8145L24.657 13.2841L24.1267 13.8145ZM21.1861 15.5022L20.6557 16.0325L21.1861 15.5022ZM21.8125 16.1286L21.2822 16.659L21.8125 16.1286ZM21.8125 23.8753L21.2822 23.3449L21.8125 23.8753ZM21.1861 25.9159L21.7164 25.3856L21.1861 25.9159ZM21.1861 24.5017L21.7164 25.0321L21.1861 24.5017ZM23.5002 26.8159L22.9699 26.2856L23.5002 26.8159ZM22.086 26.8159L22.6163 26.2856L22.086 26.8159ZM25.6262 26.1037L25.8983 25.4048L25.6262 26.1037ZM25.6136 27.1164V28.002H27.1136V27.1164H25.6136ZM25.062 26.6815C25.1583 26.7239 25.2557 26.7643 25.3541 26.8026L25.8983 25.4048C25.8202 25.3744 25.743 25.3424 25.6666 25.3087L25.062 26.6815ZM24.0306 27.3462L24.657 26.7198L23.5964 25.6591L22.9699 26.2856L24.0306 27.3462ZM20.6557 26.4463L21.5557 27.3462L22.6163 26.2856L21.7164 25.3856L20.6557 26.4463ZM21.2822 23.3449L20.6557 23.9714L21.7164 25.0321L22.3428 24.4056L21.2822 23.3449ZM21.1994 22.6479C21.2377 22.7463 21.2781 22.8436 21.3205 22.9399L22.6932 22.3353C22.6596 22.2589 22.6276 22.1817 22.5972 22.1037L21.1994 22.6479ZM20 22.3883H20.8855V20.8883H20V22.3883ZM18.25 19.3656V20.6383H19.75V19.3656H18.25ZM20.8855 17.6156H20V19.1156H20.8855V17.6156ZM21.3205 17.064C21.2781 17.1603 21.2377 17.2576 21.1994 17.356L22.5972 17.9002C22.6276 17.8222 22.6596 17.745 22.6932 17.6686L21.3205 17.064ZM20.6557 16.0325L21.2822 16.659L22.3428 15.5983L21.7164 14.9719L20.6557 16.0325ZM21.5557 12.6577L20.6557 13.5576L21.7164 14.6183L22.6163 13.7183L21.5557 12.6577ZM24.657 13.2841L24.0306 12.6577L22.9699 13.7183L23.5964 14.3448L24.657 13.2841ZM25.3541 13.2013C25.2557 13.2396 25.1583 13.28 25.062 13.3224L25.6666 14.6952C25.743 14.6616 25.8202 14.6295 25.8983 14.5991L25.3541 13.2013ZM25.6136 12.002V12.8875H27.1136V12.002H25.6136ZM28.6364 10.252H27.3636V11.752H28.6364V10.252ZM30.3864 12.8875V12.002H28.8864V12.8875H30.3864ZM30.938 13.3224C30.8417 13.28 30.7443 13.2396 30.6459 13.2013L30.1017 14.5991C30.1798 14.6295 30.257 14.6616 30.3334 14.6952L30.938 13.3224ZM31.9694 12.6577L31.343 13.2841L32.4036 14.3448L33.0301 13.7183L31.9694 12.6577ZM35.3443 13.5576L34.4443 12.6577L33.3837 13.7183L34.2836 14.6183L35.3443 13.5576ZM34.7178 16.659L35.3443 16.0325L34.2836 14.9719L33.6572 15.5983L34.7178 16.659ZM34.8006 17.356C34.7623 17.2576 34.7219 17.1603 34.6795 17.064L33.3068 17.6686C33.3404 17.745 33.3724 17.8222 33.4028 17.9002L34.8006 17.356ZM36 17.6156H35.1145V19.1156H36V17.6156ZM37.75 20.6383V19.3656H36.25V20.6383H37.75ZM35.1145 22.3883H36V20.8883H35.1145V22.3883ZM34.6795 22.9399C34.7219 22.8436 34.7623 22.7463 34.8006 22.6479L33.4028 22.1037C33.3724 22.1817 33.3404 22.2589 33.3068 22.3353L34.6795 22.9399ZM35.3443 23.9714L34.7178 23.3449L33.6572 24.4056L34.2836 25.0321L35.3443 23.9714ZM34.4443 27.3462L35.3443 26.4463L34.2836 25.3856L33.3837 26.2856L34.4443 27.3462ZM31.343 26.7198L31.9694 27.3462L33.0301 26.2856L32.4036 25.6591L31.343 26.7198ZM30.6459 26.8026C30.7443 26.7643 30.8417 26.7239 30.938 26.6815L30.3334 25.3087C30.257 25.3424 30.1798 25.3744 30.1017 25.4048L30.6459 26.8026ZM30.3864 28.002V27.1164H28.8864V28.002H30.3864ZM27.3636 29.752H28.6364V28.252H27.3636V29.752ZM31.341 20.002C31.341 21.8471 29.8452 23.3429 28.0001 23.3429V24.8429C30.6736 24.8429 32.841 22.6755 32.841 20.002H31.341ZM28.0001 16.661C29.8452 16.661 31.341 18.1568 31.341 20.002H32.841C32.841 17.3284 30.6736 15.161 28.0001 15.161V16.661ZM24.6592 20.002C24.6592 18.1568 26.1549 16.661 28.0001 16.661V15.161C25.3265 15.161 23.1592 17.3284 23.1592 20.002H24.6592ZM28.0001 23.3429C26.1549 23.3429 24.6592 21.8471 24.6592 20.002H23.1592C23.1592 22.6755 25.3265 24.8429 28.0001 24.8429V23.3429ZM28.8864 28.002C28.8864 28.14 28.7744 28.252 28.6364 28.252V29.752C29.6029 29.752 30.3864 28.9685 30.3864 28.002H28.8864ZM30.1017 25.4048C29.4377 25.6633 28.8864 26.3012 28.8864 27.1164H30.3864C30.3864 27.019 30.4596 26.8751 30.6459 26.8026L30.1017 25.4048ZM32.4036 25.6591C31.8271 25.0826 30.9859 25.0213 30.3334 25.3087L30.938 26.6815C31.1207 26.601 31.2741 26.6509 31.343 26.7198L32.4036 25.6591ZM33.3837 26.2856C33.286 26.3832 33.1277 26.3832 33.0301 26.2856L31.9694 27.3462C32.6529 28.0296 33.7609 28.0296 34.4443 27.3462L33.3837 26.2856ZM34.2836 25.0321C34.3812 25.1297 34.3812 25.288 34.2836 25.3856L35.3443 26.4463C36.0277 25.7628 36.0277 24.6548 35.3443 23.9714L34.2836 25.0321ZM33.3068 22.3353C33.0194 22.9879 33.0806 23.8291 33.6572 24.4056L34.7178 23.3449C34.6489 23.2761 34.5991 23.1226 34.6795 22.9399L33.3068 22.3353ZM35.1145 20.8883C34.2993 20.8883 33.6614 21.4396 33.4028 22.1037L34.8006 22.6479C34.8732 22.4615 35.0171 22.3883 35.1145 22.3883V20.8883ZM36.25 20.6383C36.25 20.7764 36.1381 20.8883 36 20.8883V22.3883C36.9665 22.3883 37.75 21.6048 37.75 20.6383H36.25ZM36 19.1156C36.1381 19.1156 36.25 19.2275 36.25 19.3656H37.75C37.75 18.3991 36.9665 17.6156 36 17.6156V19.1156ZM33.4028 17.9002C33.6614 18.5643 34.2993 19.1156 35.1145 19.1156V17.6156C35.0171 17.6156 34.8732 17.5424 34.8006 17.356L33.4028 17.9002ZM33.6572 15.5983C33.0806 16.1748 33.0194 17.016 33.3068 17.6686L34.6795 17.064C34.5991 16.8813 34.6489 16.7278 34.7178 16.659L33.6572 15.5983ZM34.2836 14.6183C34.3812 14.7159 34.3812 14.8742 34.2836 14.9719L35.3443 16.0325C36.0277 15.3491 36.0277 14.2411 35.3443 13.5576L34.2836 14.6183ZM33.0301 13.7183C33.1277 13.6207 33.286 13.6207 33.3837 13.7183L34.4443 12.6577C33.7609 11.9743 32.6529 11.9743 31.9694 12.6577L33.0301 13.7183ZM30.3334 14.6952C30.986 14.9826 31.8271 14.9213 32.4036 14.3448L31.343 13.2841C31.2741 13.353 31.1207 13.4029 30.938 13.3224L30.3334 14.6952ZM28.8864 12.8875C28.8864 13.7027 29.4377 14.3406 30.1017 14.5991L30.6459 13.2013C30.4596 13.1288 30.3864 12.9849 30.3864 12.8875H28.8864ZM28.6364 11.752C28.7744 11.752 28.8864 11.8639 28.8864 12.002H30.3864C30.3864 11.0355 29.6029 10.252 28.6364 10.252V11.752ZM27.1136 12.002C27.1136 11.8639 27.2256 11.752 27.3636 11.752V10.252C26.3971 10.252 25.6136 11.0355 25.6136 12.002H27.1136ZM25.8983 14.5991C26.5623 14.3406 27.1136 13.7027 27.1136 12.8875H25.6136C25.6136 12.9849 25.5404 13.1288 25.3541 13.2013L25.8983 14.5991ZM23.5964 14.3448C24.1729 14.9213 25.014 14.9826 25.6666 14.6952L25.062 13.3224C24.8793 13.4029 24.7259 13.353 24.657 13.2841L23.5964 14.3448ZM22.6163 13.7183C22.714 13.6207 22.8723 13.6207 22.9699 13.7183L24.0306 12.6577C23.3471 11.9743 22.2391 11.9743 21.5557 12.6577L22.6163 13.7183ZM21.7164 14.9719C21.6188 14.8742 21.6188 14.7159 21.7164 14.6183L20.6557 13.5576C19.9723 14.2411 19.9723 15.3491 20.6557 16.0325L21.7164 14.9719ZM22.6932 17.6686C22.9806 17.016 22.9194 16.1748 22.3428 15.5983L21.2822 16.659C21.3511 16.7278 21.4009 16.8813 21.3205 17.064L22.6932 17.6686ZM20.8855 19.1156C21.7007 19.1156 22.3386 18.5643 22.5972 17.9002L21.1994 17.356C21.1268 17.5424 20.9829 17.6156 20.8855 17.6156V19.1156ZM19.75 19.3656C19.75 19.2275 19.8619 19.1156 20 19.1156V17.6156C19.0335 17.6156 18.25 18.3991 18.25 19.3656H19.75ZM20 20.8883C19.8619 20.8883 19.75 20.7764 19.75 20.6383H18.25C18.25 21.6048 19.0335 22.3883 20 22.3883V20.8883ZM22.5972 22.1037C22.3386 21.4396 21.7007 20.8883 20.8855 20.8883V22.3883C20.9829 22.3883 21.1268 22.4615 21.1994 22.6479L22.5972 22.1037ZM22.3428 24.4056C22.9194 23.8291 22.9806 22.9879 22.6932 22.3353L21.3205 22.9399C21.4009 23.1226 21.3511 23.2761 21.2822 23.3449L22.3428 24.4056ZM21.7164 25.3856C21.6188 25.288 21.6188 25.1297 21.7164 25.0321L20.6557 23.9714C19.9723 24.6548 19.9723 25.7628 20.6557 26.4463L21.7164 25.3856ZM22.9699 26.2856C22.8723 26.3832 22.714 26.3832 22.6163 26.2856L21.5557 27.3462C22.2391 28.0296 23.3471 28.0296 24.0306 27.3462L22.9699 26.2856ZM25.6666 25.3087C25.014 25.0213 24.1729 25.0826 23.5964 25.6591L24.657 26.7198C24.7259 26.6509 24.8793 26.601 25.062 26.6815L25.6666 25.3087ZM25.6136 28.002C25.6136 28.9684 26.3971 29.752 27.3636 29.752V28.252C27.2256 28.252 27.1136 28.14 27.1136 28.002H25.6136ZM27.1136 27.1164C27.1136 26.3012 26.5623 25.6633 25.8983 25.4048L25.3541 26.8026C25.5404 26.8751 25.6136 27.019 25.6136 27.1164H27.1136Z" fill="currentColor" />
</svg>
