<svg width="104" height="24" viewBox="0 0 104 24" fill="none" xmlns="http://www.w3.org/2000/svg">
<g clip-path="url(#clip0_629_101869)">
<path d="M69.0893 7.9531C69.0893 11.6465 65.9519 14.6803 62.147 14.6803H43.3227C39.5178 14.6803 36.3804 11.6465 36.3804 7.9531V6.76594C36.3804 3.07255 39.451 0.0386963 43.3227 0.0386963H62.147C65.9519 0.0386963 69.0893 3.07255 69.0893 6.76594V7.9531ZM63.5488 7.16166C63.5488 5.9745 62.414 4.9852 61.079 4.9852H44.5242C43.1892 4.9852 42.0544 5.9745 42.0544 7.16166V7.55738C42.0544 8.74454 43.1892 9.73384 44.5242 9.73384H61.079C62.414 9.73384 63.5488 8.81049 63.5488 7.55738V7.16166Z" fill="white"/>
<path d="M97.526 7.16166C97.526 5.9745 96.5915 4.9852 95.5234 4.9852H80.9713C79.8365 4.9852 78.9687 5.9745 78.9687 7.16166V14.5484H73.3615V6.76594C73.3615 3.07255 76.4988 0.0386963 80.3038 0.0386963H96.191C100.063 0.0386963 103.133 3.07255 103.133 6.76594V14.5484H97.526V7.16166Z" fill="white"/>
<path d="M103.067 19.0331H16.3544V23.7158H103.067V19.0331Z" fill="white"/>
<path d="M27.1017 7.1619C27.1017 5.97474 26.0337 4.98544 24.6318 4.98544H8.07711C6.74205 4.98544 5.60725 5.97474 5.60725 7.1619V7.55762C5.60725 8.74478 6.74205 9.73408 8.07711 9.73408H24.6986C26.0337 9.73408 27.1685 8.81073 27.1685 7.55762V7.1619H27.1017ZM32.7089 6.76618V7.95334C32.7089 11.6467 29.5716 14.6806 25.7666 14.6806H6.94231C6.47504 14.6806 6.00777 14.6146 5.60725 14.5487V23.7162H0V6.76618C0 3.07279 3.13739 0.104889 6.94231 0.104889H25.7666C29.6383 0.104889 32.7089 3.07279 32.7089 6.76618Z" fill="white"/>
</g>
<defs>
<clipPath id="clip0_629_101869">
<rect width="103.667" height="23.9231" fill="white" transform="translate(0 0.0384521)"/>
</clipPath>
</defs>
</svg>
