<svg width="73" height="73" viewBox="0 0 73 73" fill="none" xmlns="http://www.w3.org/2000/svg">
<g clip-path="url(#clip0)">
<path d="M29.9156 43.3239H4.34841C3.5047 43.3229 2.69584 42.9873 2.09924 42.3907C1.50265 41.7941 1.16703 40.9852 1.16602 40.1415V36.0668C1.1683 34.0395 1.97462 32.0959 3.40809 30.6623C4.84156 29.2288 6.78512 28.4223 8.81241 28.4199H11.6099C11.7214 28.4202 11.8294 28.459 11.9156 28.5298C13.3878 29.7108 15.2318 30.33 17.1183 30.277C19.0145 30.3346 20.8692 29.7152 22.3503 28.5298C22.4364 28.4588 22.5445 28.4199 22.6561 28.4199H25.453C27.4801 28.4227 29.4234 29.2293 30.8566 30.6628C32.2898 32.0963 33.0961 34.0397 33.0985 36.0668V40.142C33.0973 40.9857 32.7616 41.7945 32.1649 42.391C31.5682 42.9876 30.7593 43.323 29.9156 43.3239ZM8.81241 29.3794C7.03953 29.3815 5.33985 30.0867 4.08632 31.3404C2.83279 32.5941 2.12779 34.2939 2.12602 36.0668V40.142C2.12665 40.7312 2.361 41.2961 2.77764 41.7128C3.19429 42.1294 3.75919 42.3638 4.34841 42.3644H29.9156C30.5049 42.3638 31.0698 42.1294 31.4865 41.7128C31.9033 41.2962 32.1377 40.7313 32.1385 40.142V36.0668C32.1366 34.2939 31.4315 32.5941 30.1779 31.3404C28.9243 30.0867 27.2245 29.3815 25.4516 29.3794H22.8241C21.2012 30.6321 19.1966 31.2879 17.1471 31.2366C15.0885 31.2922 13.0737 30.6363 11.4423 29.3794H8.81241Z" fill="#282824"/>
<path d="M17.135 28.7829C11.5876 28.7829 7.24219 22.7377 7.24219 15.0198C7.24219 10.432 11.4729 5.30078 17.135 5.30078C22.7971 5.30078 27.0278 10.432 27.0278 15.0198C27.0278 22.7377 22.6823 28.7829 17.135 28.7829ZM17.135 6.26078C12.022 6.26078 8.20219 10.8851 8.20219 15.0198C8.20219 22.1992 12.1257 27.8229 17.135 27.8229C22.1443 27.8229 26.0678 22.1992 26.0678 15.0198C26.0678 10.8851 22.2475 6.26078 17.135 6.26078Z" fill="#282824"/>
<path d="M24.381 15.7058C20.9998 15.7058 17.7426 14.2932 16.0894 12.0041C14.0888 13.4854 10.7499 15.714 7.63328 13.9764C7.52586 13.9126 7.44755 13.8094 7.41501 13.6888C7.38246 13.5681 7.39824 13.4395 7.45899 13.3304C7.51974 13.2212 7.62067 13.14 7.74034 13.104C7.86001 13.0681 7.98898 13.0802 8.09984 13.1378C10.9002 14.6974 14.1661 12.2479 15.921 10.9298C15.9747 10.8896 16.0362 10.8611 16.1016 10.8461C16.167 10.8311 16.2348 10.83 16.3007 10.8429C16.3665 10.8557 16.4289 10.8822 16.4839 10.9207C16.5389 10.9591 16.5852 11.0087 16.6198 11.0662C18.2811 13.8185 22.5104 15.3132 26.4546 14.5466C26.5775 14.527 26.7032 14.5559 26.8052 14.6272C26.9073 14.6986 26.9776 14.8067 27.0014 14.9289C27.0252 15.0511 27.0005 15.1777 26.9327 15.2821C26.8649 15.3865 26.7592 15.4605 26.6379 15.4884C25.8943 15.6332 25.1385 15.706 24.381 15.7058Z" fill="#282824"/>
<path d="M7.01516 43.3256C6.88785 43.3256 6.76576 43.2751 6.67575 43.185C6.58573 43.095 6.53516 42.9729 6.53516 42.8456V35.7925C6.53516 35.6652 6.58573 35.5431 6.67575 35.4531C6.76576 35.3631 6.88785 35.3125 7.01516 35.3125C7.14246 35.3125 7.26455 35.3631 7.35457 35.4531C7.44458 35.5431 7.49516 35.6652 7.49516 35.7925V42.8456C7.49516 42.9729 7.44458 43.095 7.35457 43.185C7.26455 43.2751 7.14246 43.3256 7.01516 43.3256Z" fill="#282824"/>
<path d="M27.232 43.3256C27.1047 43.3256 26.9826 43.2751 26.8925 43.185C26.8025 43.095 26.752 42.9729 26.752 42.8456V35.7925C26.752 35.6652 26.8025 35.5431 26.8925 35.4531C26.9826 35.3631 27.1047 35.3125 27.232 35.3125C27.3593 35.3125 27.4814 35.3631 27.5714 35.4531C27.6614 35.5431 27.712 35.6652 27.712 35.7925V42.8456C27.712 42.9729 27.6614 43.095 27.5714 43.185C27.4814 43.2751 27.3593 43.3256 27.232 43.3256Z" fill="#282824"/>
<path d="M36.2385 61.5793C31.3448 61.5807 26.5575 60.1504 22.4666 57.4645C18.3758 54.7786 15.1601 50.9546 13.2158 46.4637C13.1649 46.3468 13.1625 46.2145 13.2091 46.0959C13.2557 45.9772 13.3476 45.882 13.4644 45.831C13.5813 45.7801 13.7136 45.7777 13.8322 45.8243C13.9509 45.871 14.0462 45.9628 14.0971 46.0797C15.9666 50.3992 19.059 54.0774 22.9933 56.6609C26.9276 59.2445 31.5318 60.6205 36.2385 60.6193C37.0623 60.6194 37.8856 60.5779 38.7052 60.495C38.7682 60.4873 38.8322 60.4924 38.8932 60.5099C38.9542 60.5275 39.011 60.5571 39.0603 60.5971C39.1096 60.6372 39.1503 60.6867 39.18 60.7428C39.2097 60.7989 39.2278 60.8604 39.2332 60.9237C39.2399 60.9865 39.2341 61.05 39.2161 61.1106C39.1981 61.1712 39.1684 61.2276 39.1286 61.2767C39.0887 61.3257 39.0396 61.3664 38.984 61.3965C38.9284 61.4265 38.8675 61.4453 38.8046 61.4517C37.9519 61.5374 37.0955 61.58 36.2385 61.5793Z" fill="#282824"/>
<path d="M13.3556 51.3139H13.323C13.2601 51.3097 13.1986 51.2931 13.1421 51.2652C13.0856 51.2372 13.0351 51.1984 12.9936 51.1509C12.9521 51.1034 12.9204 51.0482 12.9002 50.9885C12.88 50.9288 12.8718 50.8656 12.8761 50.8027L13.1833 46.2427C13.1879 46.1741 13.2072 46.1072 13.2399 46.0467C13.2726 45.9862 13.318 45.9334 13.3729 45.8919C13.4278 45.8504 13.491 45.8213 13.5581 45.8063C13.6253 45.7914 13.6949 45.7911 13.7622 45.8054L18.2343 46.7554C18.2968 46.7676 18.3562 46.7922 18.4091 46.8276C18.462 46.8631 18.5073 46.9087 18.5424 46.9618C18.5775 47.015 18.6017 47.0745 18.6136 47.1371C18.6254 47.1997 18.6247 47.264 18.6114 47.3262C18.5982 47.3885 18.5727 47.4475 18.5364 47.4999C18.5001 47.5522 18.4538 47.5968 18.4001 47.631C18.3464 47.6653 18.2865 47.6885 18.2237 47.6994C18.161 47.7102 18.0967 47.7085 18.0346 47.6942L14.1063 46.8566L13.8366 50.8661C13.8284 50.9879 13.7741 51.102 13.6847 51.1852C13.5954 51.2684 13.4777 51.3144 13.3556 51.3139Z" fill="#282824"/>
<path d="M53.0303 67.6992C50.1808 67.6992 47.3953 66.8542 45.026 65.2711C42.6567 63.688 40.8101 61.4379 39.7197 58.8053C38.6293 56.1727 38.344 53.2758 38.8999 50.4811C39.4559 47.6864 40.8281 45.1192 42.843 43.1044C44.8579 41.0895 47.4251 39.7174 50.2198 39.1615C53.0146 38.6057 55.9114 38.8911 58.544 39.9816C61.1765 41.0721 63.4266 42.9188 65.0096 45.2881C66.5927 47.6574 67.4376 50.443 67.4375 53.2924C67.4331 57.1121 65.9138 60.7741 63.2129 63.4749C60.5119 66.1758 56.8499 67.695 53.0303 67.6992ZM53.0303 39.8453C50.3707 39.8453 47.7708 40.6339 45.5594 42.1115C43.348 43.5891 41.6244 45.6893 40.6067 48.1464C39.5889 50.6036 39.3226 53.3074 39.8414 55.9159C40.3603 58.5244 41.641 60.9204 43.5216 62.801C45.4023 64.6817 47.7983 65.9624 50.4068 66.4813C53.0153 67.0001 55.7191 66.7338 58.1763 65.716C60.6334 64.6982 62.7336 62.9747 64.2112 60.7633C65.6888 58.5519 66.4775 55.9521 66.4775 53.2924C66.4734 49.7273 65.0553 46.3093 62.5344 43.7883C60.0134 41.2674 56.5954 39.8493 53.0303 39.8453Z" fill="#282824"/>
<path d="M53.0308 64.6397C50.7583 64.6397 48.5369 63.9658 46.6474 62.7033C44.7579 61.4408 43.2853 59.6463 42.4156 57.5469C41.546 55.4474 41.3185 53.1372 41.7618 50.9084C42.2051 48.6796 43.2994 46.6323 44.9063 45.0254C46.5132 43.4186 48.5604 42.3243 50.7892 41.8809C53.018 41.4376 55.3282 41.6651 57.4277 42.5348C59.5272 43.4044 61.3217 44.8771 62.5842 46.7666C63.8467 48.656 64.5205 50.8775 64.5205 53.1499C64.5171 56.1961 63.3055 59.1166 61.1515 61.2706C58.9975 63.4246 56.077 64.6363 53.0308 64.6397ZM53.0308 42.6202C50.9482 42.6202 48.9124 43.2377 47.1808 44.3947C45.4491 45.5518 44.0995 47.1963 43.3025 49.1204C42.5056 51.0444 42.2971 53.1616 42.7033 55.2042C43.1096 57.2468 44.1125 59.123 45.5851 60.5956C47.0577 62.0682 48.934 63.0711 50.9765 63.4774C53.0191 63.8837 55.1363 63.6751 57.0603 62.8782C58.9844 62.0812 60.6289 60.7316 61.786 59C62.943 57.2683 63.5605 55.2325 63.5605 53.1499C63.5574 50.3582 62.447 47.6818 60.4729 45.7078C58.4989 43.7337 55.8225 42.6233 53.0308 42.6202Z" fill="#282824"/>
<path fill-rule="evenodd" clip-rule="evenodd" d="M53 47.5098C49.9624 47.5098 47.5 49.9722 47.5 53.0098C47.5 56.0473 49.9624 58.5098 53 58.5098C54.7032 58.5098 56.2254 57.7361 57.235 56.5193C57.4113 56.3067 57.7265 56.2774 57.9391 56.4537C58.1516 56.63 58.1809 56.9453 58.0046 57.1578C56.8131 58.5938 55.0133 59.5098 53 59.5098C49.4101 59.5098 46.5 56.5996 46.5 53.0098C46.5 49.4199 49.4101 46.5098 53 46.5098C55.0133 46.5098 56.8131 47.4257 58.0046 48.8617C58.1809 49.0743 58.1516 49.3895 57.9391 49.5658C57.7265 49.7421 57.4113 49.7128 57.235 49.5003C56.2254 48.2834 54.7032 47.5098 53 47.5098Z" fill="black" fill-opacity="0.87"/>
<path fill-rule="evenodd" clip-rule="evenodd" d="M46.8135 51.0098H45.5C45.2239 51.0098 45 51.2336 45 51.5098C45 51.7859 45.2239 52.0098 45.5 52.0098H46.5764C46.6294 51.6668 46.7092 51.3328 46.8135 51.0098ZM46.5764 54.0098H45.5C45.2239 54.0098 45 54.2336 45 54.5098C45 54.7859 45.2239 55.0098 45.5 55.0098H46.8135C46.7092 54.6868 46.6294 54.3527 46.5764 54.0098ZM47.8749 55.0098C47.75 54.6899 47.6542 54.3555 47.5907 54.0098H52.5C52.7761 54.0098 53 54.2336 53 54.5098C53 54.7859 52.7761 55.0098 52.5 55.0098H47.8749ZM47.5907 52.0098C47.6542 51.664 47.75 51.3296 47.8749 51.0098H52.5C52.7761 51.0098 53 51.2336 53 51.5098C53 51.7859 52.7761 52.0098 52.5 52.0098H47.5907Z" fill="black" fill-opacity="0.87"/>
<path d="M41.625 22.344V21.462H44.005V31.5H43.011V22.344H41.625ZM46.3389 26.39C46.3389 24.7847 46.5862 23.5387 47.0809 22.652C47.5756 21.7653 48.4622 21.322 49.7409 21.322C51.0196 21.322 51.9062 21.7653 52.4009 22.652C52.8956 23.5387 53.1429 24.7847 53.1429 26.39C53.1429 28.0233 52.8956 29.288 52.4009 30.184C51.9062 31.08 51.0196 31.528 49.7409 31.528C48.4529 31.528 47.5616 31.08 47.0669 30.184C46.5816 29.288 46.3389 28.0233 46.3389 26.39ZM52.1769 26.39C52.1769 25.522 52.1162 24.7893 51.9949 24.192C51.8736 23.5947 51.6356 23.114 51.2809 22.75C50.9262 22.386 50.4129 22.204 49.7409 22.204C49.0689 22.204 48.5556 22.386 48.2009 22.75C47.8462 23.114 47.6082 23.5947 47.4869 24.192C47.3656 24.7893 47.3049 25.522 47.3049 26.39C47.3049 27.286 47.3656 28.0373 47.4869 28.644C47.6082 29.2413 47.8462 29.722 48.2009 30.086C48.5556 30.45 49.0689 30.632 49.7409 30.632C50.4129 30.632 50.9262 30.45 51.2809 30.086C51.6356 29.722 51.8736 29.2413 51.9949 28.644C52.1162 28.0373 52.1769 27.286 52.1769 26.39ZM55.1159 26.39C55.1159 24.7847 55.3632 23.5387 55.8579 22.652C56.3525 21.7653 57.2392 21.322 58.5179 21.322C59.7965 21.322 60.6832 21.7653 61.1779 22.652C61.6725 23.5387 61.9199 24.7847 61.9199 26.39C61.9199 28.0233 61.6725 29.288 61.1779 30.184C60.6832 31.08 59.7965 31.528 58.5179 31.528C57.2299 31.528 56.3385 31.08 55.8439 30.184C55.3585 29.288 55.1159 28.0233 55.1159 26.39ZM60.9539 26.39C60.9539 25.522 60.8932 24.7893 60.7719 24.192C60.6505 23.5947 60.4125 23.114 60.0579 22.75C59.7032 22.386 59.1899 22.204 58.5179 22.204C57.8459 22.204 57.3325 22.386 56.9779 22.75C56.6232 23.114 56.3852 23.5947 56.2639 24.192C56.1425 24.7893 56.0819 25.522 56.0819 26.39C56.0819 27.286 56.1425 28.0373 56.2639 28.644C56.3852 29.2413 56.6232 29.722 56.9779 30.086C57.3325 30.45 57.8459 30.632 58.5179 30.632C59.1899 30.632 59.7032 30.45 60.0579 30.086C60.4125 29.722 60.6505 29.2413 60.7719 28.644C60.8932 28.0373 60.9539 27.286 60.9539 26.39ZM63.5848 23.562C63.5848 22.9647 63.7668 22.484 64.1308 22.12C64.5041 21.7467 64.9755 21.56 65.5448 21.56C66.1235 21.56 66.5948 21.7467 66.9588 22.12C67.3321 22.484 67.5188 22.9647 67.5188 23.562C67.5188 24.1687 67.3321 24.6587 66.9588 25.032C66.5948 25.396 66.1235 25.578 65.5448 25.578C64.9755 25.578 64.5041 25.396 64.1308 25.032C63.7668 24.6587 63.5848 24.1687 63.5848 23.562ZM71.4248 21.7L65.6848 31.5H64.6908L70.4448 21.7H71.4248ZM65.5448 22.19C65.1901 22.19 64.9055 22.3113 64.6908 22.554C64.4855 22.7873 64.3828 23.1233 64.3828 23.562C64.3828 24.0007 64.4855 24.3413 64.6908 24.584C64.9055 24.8267 65.1901 24.948 65.5448 24.948C65.8995 24.948 66.1841 24.8267 66.3988 24.584C66.6135 24.3413 66.7208 24.0007 66.7208 23.562C66.7208 23.1327 66.6135 22.7967 66.3988 22.554C66.1841 22.3113 65.8995 22.19 65.5448 22.19ZM68.6248 29.638C68.6248 29.0313 68.8068 28.546 69.1708 28.182C69.5441 27.8087 70.0155 27.622 70.5848 27.622C71.1541 27.622 71.6208 27.8087 71.9848 28.182C72.3581 28.546 72.5448 29.0313 72.5448 29.638C72.5448 30.2447 72.3581 30.7347 71.9848 31.108C71.6208 31.472 71.1541 31.654 70.5848 31.654C70.0155 31.654 69.5441 31.472 69.1708 31.108C68.8068 30.7347 68.6248 30.2447 68.6248 29.638ZM70.5848 28.266C70.2301 28.266 69.9455 28.3873 69.7308 28.63C69.5161 28.8727 69.4088 29.2087 69.4088 29.638C69.4088 30.0673 69.5161 30.4033 69.7308 30.646C69.9455 30.8887 70.2301 31.01 70.5848 31.01C70.9395 31.01 71.2195 30.8933 71.4248 30.66C71.6395 30.4173 71.7468 30.0767 71.7468 29.638C71.7468 29.1993 71.6395 28.8633 71.4248 28.63C71.2195 28.3873 70.9395 28.266 70.5848 28.266Z" fill="#282824"/>
</g>
<defs>
<clipPath id="clip0">
<rect width="72" height="72" fill="white" transform="translate(0.666016 0.5)"/>
</clipPath>
</defs>
</svg>
