<svg width="72" height="73" viewBox="0 0 72 73" fill="none" xmlns="http://www.w3.org/2000/svg">
<path d="M29.6032 58.0637C29.476 58.0637 29.3539 58.0131 29.2639 57.9231L15.6991 44.3583C15.6215 44.2807 15.5729 44.1789 15.5613 44.0698C15.5497 43.9607 15.5758 43.8509 15.6352 43.7588C19.5842 37.6412 24.9804 31.1002 31.2376 24.8429C52.1656 3.91492 66.0952 6.45028 66.6784 6.56884C66.7708 6.5876 66.8557 6.63316 66.9223 6.69983C66.989 6.76649 67.0346 6.85132 67.0533 6.94372C67.1719 7.52644 69.7087 21.4556 48.7793 42.3845C42.522 48.6423 35.981 54.0375 29.8634 57.9845C29.7862 58.0357 29.6958 58.0632 29.6032 58.0637ZM16.6528 43.9517L29.668 56.9669C36.3125 52.5155 42.4882 47.4013 48.1 41.7029C66.868 22.9349 66.3948 9.69028 66.1567 7.46212C63.9309 7.22212 50.6863 6.74836 31.9159 25.5188C26.2179 31.1319 21.104 37.3087 16.6528 43.9541V43.9517Z" fill="#282824"/>
<path d="M25.9284 59.0817C25.8011 59.0817 25.6791 59.0311 25.5891 58.941L14.6816 48.0335C14.5916 47.9435 14.541 47.8214 14.541 47.6942C14.541 47.5669 14.5916 47.4448 14.6816 47.3548L17.0283 45.0081C17.12 44.9214 17.2414 44.873 17.3676 44.873C17.4939 44.873 17.6153 44.9214 17.707 45.0081L28.6145 55.9156C28.7045 56.0056 28.7551 56.1277 28.7551 56.255C28.7551 56.3822 28.7045 56.5043 28.6145 56.5943L26.2678 58.941C26.1778 59.0311 26.0557 59.0817 25.9284 59.0817ZM15.6996 47.6942L25.9284 57.923L27.5964 56.255L17.3676 46.0262L15.6996 47.6942Z" fill="#282824"/>
<path d="M19.3507 39.7343C19.233 39.7341 19.1194 39.6908 19.0315 39.6123C16.658 37.4887 13.6313 36.2377 10.4511 36.0656C10.3556 36.0673 10.2619 36.0401 10.1821 35.9876C10.1024 35.9351 10.0403 35.8597 10.0042 35.7714C9.96731 35.6835 9.95743 35.5866 9.97581 35.4931C9.99419 35.3996 10.04 35.3137 10.1074 35.2463L13.6018 31.7519C13.6374 31.7159 13.6786 31.686 13.7237 31.6631C17.436 29.78 22.0085 30.4357 25.5797 31.2176C25.7041 31.2449 25.8125 31.3204 25.8812 31.4276C25.9499 31.5348 25.9732 31.6649 25.9459 31.7893C25.9187 31.9137 25.8432 32.0221 25.736 32.0908C25.6287 32.1595 25.4986 32.1828 25.3743 32.1555C21.9831 31.4125 17.6587 30.7818 14.2272 32.4853L11.5291 35.1819C14.556 35.569 17.3946 36.864 19.6709 38.8962C19.7435 38.961 19.7947 39.0463 19.8177 39.1408C19.8406 39.2354 19.8344 39.3347 19.7996 39.4256C19.7649 39.5164 19.7034 39.5946 19.6232 39.6498C19.5431 39.7049 19.448 39.7344 19.3507 39.7343Z" fill="#282824"/>
<path d="M10.4481 36.0645C10.3208 36.0644 10.1988 36.0138 10.1088 35.9238L7.17789 32.9929C7.13326 32.9483 7.09785 32.8954 7.0737 32.8371C7.04954 32.7789 7.03711 32.7164 7.03711 32.6533C7.03711 32.5903 7.04954 32.5278 7.0737 32.4695C7.09785 32.4112 7.13326 32.3583 7.17789 32.3137L14.1345 25.3571C15.0129 24.4787 18.0384 24.0083 18.6355 23.9228C18.7093 23.9122 18.7846 23.919 18.8553 23.9425C18.9261 23.9661 18.9904 24.0058 19.0431 24.0586C19.0959 24.1113 19.1356 24.1756 19.1591 24.2463C19.1827 24.3171 19.1894 24.3924 19.1788 24.4662C19.0934 25.0633 18.623 28.0888 17.7446 28.9667L10.7875 35.9238C10.6975 36.0138 10.5754 36.0644 10.4481 36.0645ZM8.19597 32.6536L10.4481 34.9057L17.0659 28.288C17.4936 27.8603 17.8987 26.2336 18.1219 24.976C16.8667 25.2006 15.2419 25.6057 14.8123 26.032L8.19597 32.6536Z" fill="#282824"/>
<path d="M38.038 63.6544C37.9744 63.6545 37.9114 63.6418 37.8528 63.617C37.765 63.5802 37.6901 63.5182 37.6376 63.4388C37.5851 63.3594 37.5574 63.2662 37.558 63.171C37.3819 59.9916 36.1314 56.9661 34.0113 54.5901C33.9674 54.5434 33.9333 54.4884 33.9109 54.4284C33.8886 54.3683 33.8785 54.3044 33.8813 54.2403C33.8841 54.1763 33.8996 54.1135 33.9271 54.0556C33.9545 53.9977 33.9933 53.9459 34.0411 53.9032C34.0889 53.8605 34.1447 53.8278 34.2053 53.807C34.266 53.7862 34.3301 53.7778 34.3941 53.7823C34.458 53.7867 34.5204 53.8039 34.5776 53.8328C34.6348 53.8618 34.6856 53.9018 34.727 53.9507C36.7592 56.227 38.0543 59.0653 38.4417 62.092L41.1369 59.3958C42.8404 55.9643 42.2097 51.64 41.4667 48.2488C41.4532 48.1872 41.452 48.1236 41.4631 48.0615C41.4742 47.9995 41.4974 47.9402 41.5314 47.8871C41.5654 47.834 41.6095 47.7882 41.6613 47.7521C41.713 47.7161 41.7713 47.6906 41.8329 47.6771C41.8945 47.6636 41.9581 47.6624 42.0202 47.6735C42.0823 47.6846 42.1415 47.7078 42.1946 47.7419C42.2477 47.7759 42.2936 47.82 42.3296 47.8717C42.3656 47.9235 42.3911 47.9818 42.4046 48.0434C43.1865 51.6127 43.8422 56.1851 41.9596 59.8994C41.9365 59.9445 41.9065 59.9857 41.8708 60.0218L38.3764 63.5157C38.2864 63.6048 38.1647 63.6546 38.038 63.6544Z" fill="#282824"/>
<path d="M40.9679 66.5844C40.8406 66.5844 40.7185 66.5338 40.6285 66.4438L37.6972 63.5124C37.6072 63.4224 37.5566 63.3004 37.5566 63.1731C37.5566 63.0458 37.6072 62.9237 37.6972 62.8337L44.6543 55.8766C45.5322 54.9982 48.5576 54.5278 49.1548 54.4424C49.2286 54.4318 49.3039 54.4385 49.3746 54.4621C49.4454 54.4856 49.5097 54.5254 49.5624 54.5781C49.6151 54.6308 49.6549 54.6951 49.6784 54.7659C49.702 54.8366 49.7087 54.9119 49.6981 54.9857C49.6127 55.5833 49.1423 58.6083 48.2639 59.4867L41.3072 66.4438C41.2173 66.5338 41.0952 66.5844 40.9679 66.5844ZM38.7153 63.1731L40.9679 65.4252L47.5852 58.8075C48.0128 58.3803 48.4184 56.7536 48.6412 55.4979C47.386 55.7225 45.7612 56.1277 45.3292 56.5539L38.7153 63.1731Z" fill="#282824"/>
<path d="M64.2947 19.8452C64.2601 19.8451 64.2257 19.8413 64.192 19.8337C61.6453 19.2756 59.3119 17.9992 57.4684 16.1557C55.6249 14.3122 54.3485 11.9788 53.7904 9.43212C53.7632 9.30774 53.7865 9.17766 53.8553 9.0705C53.924 8.96333 54.0325 8.88786 54.1568 8.86068C54.2812 8.8335 54.4113 8.85684 54.5185 8.92557C54.6256 8.9943 54.7011 9.10278 54.7283 9.22716C55.2474 11.5942 56.434 13.7628 58.1475 15.4762C59.8611 17.1896 62.0299 18.376 64.3969 18.8948C64.5131 18.9196 64.6159 18.9866 64.6856 19.0828C64.7552 19.179 64.7868 19.2976 64.7741 19.4157C64.7613 19.5338 64.7053 19.6429 64.6167 19.7221C64.5282 19.8013 64.4135 19.8448 64.2947 19.8443V19.8452Z" fill="#282824"/>
<path d="M51.2097 26.7441C50.4972 26.7444 49.7958 26.5689 49.1674 26.2333C48.539 25.8976 48.0031 25.4121 47.6073 24.8198C47.2114 24.2276 46.9677 23.5468 46.8978 22.8378C46.828 22.1288 46.9341 21.4136 47.2067 20.7554C47.4794 20.0972 47.9102 19.5165 48.461 19.0647C49.0118 18.6128 49.6655 18.3038 50.3643 18.165C51.063 18.0262 51.7852 18.062 52.4669 18.269C53.1485 18.4761 53.7686 18.8481 54.2721 19.3521C54.8772 19.9579 55.2893 20.7295 55.4561 21.5693C55.6229 22.4092 55.537 23.2797 55.2093 24.0707C54.8815 24.8618 54.3267 25.538 53.6148 26.0138C52.9029 26.4896 52.0659 26.7438 51.2097 26.7441ZM51.2097 19.042C50.4297 19.042 49.674 19.3124 49.0711 19.8072C48.4682 20.302 48.0555 20.9905 47.9034 21.7554C47.7512 22.5203 47.869 23.3143 48.2366 24.0022C48.6043 24.69 49.1991 25.229 49.9196 25.5275C50.6401 25.826 51.4419 25.8653 52.1882 25.639C52.9345 25.4126 53.5793 24.9344 54.0126 24.2859C54.4459 23.6375 54.6409 22.8588 54.5645 22.0827C54.488 21.3065 54.1448 20.5809 53.5933 20.0294C53.281 19.7154 52.9095 19.4665 52.5004 19.297C52.0912 19.1275 51.6525 19.0408 51.2097 19.042Z" fill="#282824"/>
<path d="M25.7319 41.6286C25.6369 41.6286 25.5441 41.6005 25.4652 41.5477C25.3863 41.495 25.3248 41.42 25.2885 41.3323C25.2522 41.2446 25.2427 41.1481 25.2612 41.055C25.2797 40.9619 25.3254 40.8764 25.3925 40.8093L30.253 35.9493C30.2972 35.9034 30.3502 35.8669 30.4088 35.8417C30.4673 35.8166 30.5303 35.8033 30.5941 35.8028C30.6578 35.8022 30.721 35.8143 30.78 35.8385C30.839 35.8626 30.8926 35.8983 30.9376 35.9433C30.9827 35.9884 31.0183 36.042 31.0425 36.101C31.0666 36.16 31.0788 36.2232 31.0782 36.2869C31.0777 36.3506 31.0644 36.4136 31.0393 36.4722C31.0141 36.5308 30.9775 36.5837 30.9317 36.628L26.0712 41.488C26.0268 41.5327 25.9739 41.5682 25.9156 41.5923C25.8574 41.6165 25.7949 41.6288 25.7319 41.6286Z" fill="#282824"/>
<path d="M27.5678 46.5332C27.4729 46.5332 27.3801 46.505 27.3012 46.4522C27.2223 46.3995 27.1607 46.3245 27.1244 46.2368C27.0881 46.1492 27.0786 46.0527 27.0971 45.9596C27.1156 45.8665 27.1613 45.7809 27.2284 45.7138L35.1561 37.7871C35.2466 37.6997 35.3679 37.6513 35.4937 37.6524C35.6196 37.6535 35.74 37.7039 35.829 37.7929C35.918 37.8819 35.9685 38.0023 35.9696 38.1282C35.9707 38.254 35.9223 38.3753 35.8348 38.4658L27.9071 46.3935C27.817 46.4832 27.6949 46.5334 27.5678 46.5332Z" fill="#282824"/>
<path d="M32.4721 48.3703C32.3772 48.3703 32.2844 48.3422 32.2055 48.2894C32.1265 48.2367 32.065 48.1617 32.0287 48.074C31.9924 47.9863 31.9829 47.8898 32.0014 47.7967C32.0199 47.7036 32.0656 47.6181 32.1327 47.551L36.9932 42.6915C37.0375 42.6456 37.0904 42.609 37.149 42.5839C37.2076 42.5587 37.2706 42.5455 37.3343 42.5449C37.398 42.5444 37.4612 42.5565 37.5202 42.5807C37.5792 42.6048 37.6328 42.6404 37.6779 42.6855C37.7229 42.7306 37.7586 42.7842 37.7827 42.8432C37.8068 42.9022 37.819 42.9654 37.8184 43.0291C37.8179 43.0928 37.8046 43.1558 37.7795 43.2144C37.7543 43.2729 37.7178 43.3259 37.6719 43.3702L32.8114 48.2297C32.7214 48.3197 32.5994 48.3703 32.4721 48.3703Z" fill="#282824"/>
<path d="M11.8801 65.797C9.54438 65.798 7.23085 65.3438 5.0689 64.4597C4.97 64.4138 4.88969 64.3356 4.84117 64.2379C4.79264 64.1403 4.77881 64.029 4.80194 63.9225C4.82507 63.8159 4.88379 63.7204 4.96843 63.6517C5.05307 63.583 5.15859 63.5451 5.26762 63.5443C5.80754 63.5133 6.33593 63.3754 6.8221 63.1385C7.30826 62.9016 7.74251 62.5705 8.09962 62.1643C8.79167 61.4253 9.32565 60.5528 9.66891 59.6003C10.0122 58.6478 10.1575 57.6352 10.0959 56.6246C10.0488 54.7707 10.5757 52.9475 11.6046 51.4046C12.2191 50.6217 13.0092 49.9943 13.911 49.573C14.8128 49.1518 15.801 48.9485 16.7958 48.9797C16.9185 48.9829 17.0353 49.0331 17.1222 49.1198L24.3222 56.3198C24.4075 56.4047 24.4576 56.5188 24.4623 56.639C24.5583 58.885 23.3881 60.9528 20.9857 62.783C18.3713 64.7746 15.1664 65.8354 11.8801 65.797ZM6.9841 64.1242C9.63946 64.9066 15.3438 65.88 20.4039 62.0203C22.4737 60.4421 23.5172 58.7083 23.5081 56.8618L16.5817 49.9349C15.7677 49.9407 14.9654 50.1295 14.2342 50.4873C13.503 50.8452 12.8617 51.3629 12.3577 52.0022C11.4775 53.3722 11.025 54.9731 11.0579 56.6011C11.1234 57.7418 10.9553 58.884 10.5637 59.9574C10.1721 61.0308 9.56541 62.0129 8.78074 62.8435C8.26499 63.3764 7.65608 63.8104 6.9841 64.1242Z" fill="#282824"/>
<path d="M13.8413 62.6773C13.7499 62.6773 13.6604 62.6511 13.5834 62.602C13.5064 62.5528 13.445 62.4827 13.4064 62.3999C13.3037 62.1791 10.9363 56.9432 14.4691 52.3108C15.4805 50.9855 16.6157 50.2405 17.8445 50.097C17.9164 50.0886 17.9893 50.0966 18.0577 50.1203C18.1262 50.1441 18.1883 50.1831 18.2395 50.2343L23.2229 55.2196C23.2738 55.2703 23.3126 55.3319 23.3366 55.3997C23.3605 55.4675 23.3689 55.5398 23.3611 55.6112C23.2326 56.701 22.681 57.6965 21.8251 58.3832C20.8273 59.0587 19.6438 59.4063 18.4392 59.3778C17.8354 59.3405 17.2303 59.4266 16.6608 59.631C16.0914 59.8353 15.5696 60.1536 15.1272 60.5663C14.8915 60.7723 14.6989 61.023 14.5607 61.3038C14.4224 61.5847 14.3412 61.8902 14.3218 62.2026C14.321 62.3116 14.2831 62.4171 14.2143 62.5018C14.1456 62.5864 14.0501 62.6451 13.9435 62.6682C13.9098 62.6748 13.8756 62.6778 13.8413 62.6773ZM17.7331 51.0858C16.707 51.3631 15.8177 52.0058 15.2323 52.893C13.0723 55.725 13.3987 58.893 13.835 60.645C14.0103 60.37 14.2159 60.1156 14.448 59.8866C14.9822 59.3813 15.6139 58.9903 16.3045 58.7375C16.9951 58.4848 17.73 58.3757 18.4642 58.4168C19.4442 58.4423 20.4088 58.1682 21.229 57.6311C21.8214 57.1494 22.2266 56.4756 22.3742 55.7264L17.7331 51.0858Z" fill="#282824"/>
<path d="M17.4261 57.136C17.2056 57.1376 16.9853 57.1262 16.7661 57.1019C16.6606 57.0885 16.5624 57.0404 16.4872 56.9652C16.412 56.8899 16.3638 56.7918 16.3504 56.6863C16.3308 56.5298 15.8978 52.8367 18.7821 51.2656C18.8731 51.216 18.9778 51.1971 19.0804 51.2119C19.183 51.2267 19.2781 51.2744 19.3514 51.3477L22.1042 54.1005C22.1776 54.1737 22.2253 54.2688 22.2402 54.3714C22.2551 54.474 22.2363 54.5787 22.1868 54.6698C20.9978 56.8519 18.593 57.136 17.4261 57.136ZM17.2821 56.1712C18.1202 56.189 20.1045 56.045 21.1596 54.5123L18.94 52.2919C17.4074 53.3479 17.2663 55.3293 17.2812 56.1712H17.2821Z" fill="#282824"/>
<path d="M31.3726 29.994C31.2786 29.994 31.1867 29.9664 31.1082 29.9146C31.0297 29.8629 30.9682 29.7892 30.9312 29.7027C30.8943 29.6163 30.8835 29.5209 30.9003 29.4284C30.9171 29.3358 30.9606 29.2503 31.0256 29.1823C31.8325 28.338 32.5678 27.5844 33.2739 26.8783C34.0741 26.0777 34.8848 25.2943 35.7517 24.4831C35.8446 24.3961 35.9683 24.3496 36.0955 24.3538C36.2228 24.358 36.3431 24.4125 36.4302 24.5055C36.5172 24.5984 36.5637 24.7221 36.5595 24.8493C36.5553 24.9766 36.5008 25.0969 36.4078 25.1839C35.5486 25.9879 34.7456 26.7641 33.9526 27.5571C33.2518 28.2578 32.5218 29.0067 31.7202 29.8457C31.6753 29.8926 31.6213 29.93 31.5616 29.9555C31.5019 29.981 31.4376 29.9941 31.3726 29.994Z" fill="#282824"/>
<path d="M38.6325 23.0136C38.5347 23.0136 38.4392 22.9837 38.3588 22.928C38.2784 22.8722 38.217 22.7933 38.1827 22.7016C38.1485 22.61 38.143 22.5101 38.1671 22.4153C38.1912 22.3205 38.2437 22.2353 38.3176 22.1712C42.0794 18.8331 46.2039 15.9277 50.6138 13.5096C50.6694 13.4799 50.7303 13.4615 50.7931 13.4554C50.8558 13.4493 50.9191 13.4556 50.9794 13.4739C51.0397 13.4923 51.0958 13.5224 51.1445 13.5624C51.1932 13.6025 51.2335 13.6517 51.2632 13.7073C51.2929 13.763 51.3113 13.8239 51.3174 13.8866C51.3235 13.9494 51.3172 14.0127 51.2988 14.073C51.2805 14.1333 51.2504 14.1894 51.2104 14.2381C51.1703 14.2868 51.1211 14.3271 51.0654 14.3568C46.7196 16.7401 42.6548 19.6034 38.9474 22.8931C38.8606 22.9702 38.7486 23.0131 38.6325 23.0136Z" fill="#282824"/>
</svg>
