<svg width="20" height="26" viewBox="0 0 20 26" fill="none" xmlns="http://www.w3.org/2000/svg">
<path d="M6.78783 17.8052C6.55826 18.0765 6.28696 18.4104 5.97391 18.807C5.68174 19.1826 5.38957 19.5791 5.09739 19.9965C4.80522 20.393 4.52348 20.7791 4.25217 21.1548C4.00174 21.5096 3.80348 21.7913 3.65739 22C3.21913 22.6678 2.90609 23.2 2.71826 23.5965C2.53043 23.993 2.39478 24.2957 2.3113 24.5043C2.22783 24.7339 2.17565 24.9113 2.15478 25.0365C2.11304 25.1617 2.04 25.2974 1.93565 25.4435C1.7687 25.6522 1.56 25.7565 1.30957 25.7565C1.12174 25.7565 0.965217 25.673 0.84 25.5061C0.714783 25.36 0.683478 25.0887 0.746087 24.6922C0.808696 24.2957 0.996522 23.7635 1.30957 23.0957C1.60174 22.4278 2.08174 21.5722 2.74957 20.5287C3.48 19.4435 4.07478 18.6087 4.53391 18.0243C4.99304 17.44 5.35826 16.9809 5.62957 16.647C5.90087 16.313 6.07826 16.0522 6.16174 15.8643C6.24522 15.6765 6.25565 15.447 6.19304 15.1757C5.98435 13.8817 5.8487 12.5357 5.78609 11.1374C5.74435 9.73913 5.75478 8.41391 5.81739 7.16174C5.90087 5.90956 6.02609 4.79304 6.19304 3.81217C6.38087 2.81043 6.57913 2.06956 6.78783 1.58957C6.97565 1.19304 7.23652 0.994782 7.57043 0.994782C7.77913 0.994782 8.0087 1.05739 8.25913 1.18261C8.67652 1.3913 8.94783 1.65217 9.07304 1.96522C9.21913 2.27826 9.28174 2.65391 9.26087 3.09217C9.24 3.59304 9.2087 4.26087 9.16696 5.09565C9.12522 5.90956 9.09391 6.75478 9.07304 7.6313C9.07304 8.50783 9.08348 9.35304 9.10435 10.167C9.12522 10.9809 9.17739 11.6383 9.26087 12.1391C9.30261 12.1391 9.59478 11.8574 10.1374 11.2939C10.7009 10.7304 11.4104 10.0104 12.2661 9.13391C13.1426 8.23652 14.1235 7.24522 15.2087 6.16C16.2939 5.07478 17.3791 4 18.4643 2.93565C18.6104 2.78957 18.7565 2.71652 18.9026 2.71652C19.0278 2.71652 19.1322 2.74783 19.2157 2.81043C19.4035 2.93565 19.4765 3.11304 19.4348 3.34261C19.393 3.5513 19.2991 3.78087 19.153 4.0313C19.007 4.26087 18.8296 4.50087 18.6209 4.7513C18.4122 4.98087 18.2348 5.17913 18.0887 5.34609C16.6278 6.89043 15.3965 8.18435 14.3948 9.22783C13.393 10.2713 12.5687 11.1374 11.9217 11.8261C11.2957 12.4939 10.8052 13.0157 10.4504 13.3913C10.1165 13.767 9.87652 14.0696 9.73043 14.2991C9.60522 14.5078 9.53217 14.6748 9.5113 14.8C9.5113 14.9043 9.52174 15.0296 9.54261 15.1757C9.70957 16.1565 9.93913 17.1061 10.2313 18.0243C10.5235 18.9217 10.9096 19.8087 11.3896 20.6852C11.5148 20.9148 11.6609 21.1235 11.8278 21.3113C11.9948 21.4783 12.1617 21.6557 12.3287 21.8435C12.433 21.9478 12.5687 22.0313 12.7357 22.0939C12.9235 22.1565 13.1009 22.2191 13.2678 22.2817C13.4348 22.3652 13.5809 22.4696 13.7061 22.5948C13.8313 22.72 13.8939 22.9078 13.8939 23.1583C13.9148 23.4713 13.7478 23.7739 13.393 24.0661C13.0383 24.3583 12.5896 24.5043 12.047 24.5043C11.6087 24.5043 11.1704 24.3896 10.7322 24.16C10.1061 23.8678 9.56348 23.3983 9.10435 22.7513C8.64522 22.1043 8.2487 21.4365 7.91478 20.7478C7.58087 20.0591 7.32 19.433 7.13217 18.8696C6.96522 18.3061 6.85043 17.9513 6.78783 17.8052Z" fill="#40403E"/>
</svg>
