<svg width="56" height="37" viewBox="0 0 56 37" fill="none" xmlns="http://www.w3.org/2000/svg">
<g clip-path="url(#clip0_592_78873)">
<path d="M51.3809 0.310791H4.61909C2.34411 0.310791 0.5 2.13421 0.5 4.38367V31.8683C0.5 34.1177 2.34411 35.9412 4.61909 35.9412H51.3809C53.6558 35.9412 55.5 34.1178 55.5 31.8683V4.38367C55.5 2.13421 53.6559 0.310791 51.3809 0.310791Z" fill="#41479B"/>
<path d="M28.3856 4.39046L28.7659 5.51774L29.9676 5.52698C30.1233 5.52815 30.1877 5.72444 30.0626 5.81589L29.0958 6.52181L29.4582 7.65472C29.5052 7.8013 29.3363 7.92281 29.2096 7.83327L28.232 7.14222L27.2544 7.83327C27.1278 7.9227 26.9588 7.8014 27.0058 7.65472L27.3682 6.52181L26.4014 5.81589C26.2763 5.72444 26.3407 5.52815 26.4964 5.52698L27.6981 5.51774L28.0784 4.39046C28.1275 4.24452 28.3364 4.24452 28.3856 4.39046Z" fill="#FFE15A"/>
<path d="M28.3856 28.5934L28.7659 29.7207L29.9676 29.7299C30.1233 29.7311 30.1877 29.9274 30.0626 30.0189L29.0958 30.7248L29.4582 31.8577C29.5052 32.0043 29.3363 32.1258 29.2096 32.0362L28.232 31.3452L27.2544 32.0362C27.1278 32.1257 26.9588 32.0044 27.0058 31.8577L27.3682 30.7248L26.4014 30.0189C26.2763 29.9274 26.3407 29.7311 26.4964 29.7299L27.6981 29.7207L28.0784 28.5934C28.1275 28.4474 28.3364 28.4474 28.3856 28.5934Z" fill="#FFE15A"/>
<path d="M40.6243 16.4918L41.0046 17.6191L42.2063 17.6283C42.362 17.6295 42.4264 17.8258 42.3013 17.9173L41.3345 18.6232L41.6969 19.7561C41.7439 19.9027 41.575 20.0242 41.4484 19.9346L40.4707 19.2436L39.4931 19.9346C39.3665 20.0241 39.1976 19.9028 39.2445 19.7561L39.6069 18.6232L38.6401 17.9173C38.515 17.8258 38.5794 17.6295 38.7351 17.6283L39.9368 17.6191L40.3171 16.4918C40.3662 16.346 40.5751 16.346 40.6243 16.4918Z" fill="#FFE15A"/>
<path d="M16.1469 16.4918L16.5271 17.6191L17.7289 17.6283C17.8845 17.6295 17.949 17.8258 17.8238 17.9173L16.857 18.6232L17.2195 19.7561C17.2664 19.9027 17.0975 20.0242 16.9709 19.9346L15.9932 19.2436L15.0156 19.9346C14.889 20.0241 14.7201 19.9028 14.767 19.7561L15.1295 18.6232L14.1627 17.9173C14.0375 17.8258 14.102 17.6295 14.2576 17.6283L15.4593 17.6191L15.8396 16.4918C15.8888 16.346 16.0978 16.346 16.1469 16.4918Z" fill="#FFE15A"/>
<path d="M17.9842 10.1723L18.3645 11.2996L19.5662 11.3088C19.7218 11.31 19.7863 11.5063 19.6612 11.5978L18.6944 12.3037L19.0568 13.4366C19.1037 13.5832 18.9349 13.7047 18.8082 13.6151L17.8306 12.9241L16.8529 13.6151C16.7264 13.7046 16.5574 13.5833 16.6044 13.4366L16.9668 12.3037L16 11.5978C15.8749 11.5063 15.9393 11.31 16.095 11.3088L17.2967 11.2996L17.677 10.1723C17.7262 10.0264 17.9349 10.0264 17.9842 10.1723Z" fill="#FFE15A"/>
<path d="M39.1822 22.2738L39.5625 23.4011L40.7642 23.4103C40.9198 23.4115 40.9843 23.6078 40.8592 23.6992L39.8924 24.4052L40.2548 25.5381C40.3017 25.6849 40.1329 25.8062 40.0062 25.7166L39.0286 25.0256L38.0509 25.7166C37.9244 25.806 37.7554 25.6847 37.8024 25.5381L38.1648 24.4052L37.198 23.6992C37.0729 23.6078 37.1373 23.4115 37.293 23.4103L38.4947 23.4011L38.875 22.2738C38.9242 22.128 39.133 22.128 39.1822 22.2738Z" fill="#FFE15A"/>
<path d="M34.7026 5.74292L35.0828 6.8702L36.2846 6.87944C36.4402 6.88061 36.5047 7.0769 36.3795 7.16835L35.4127 7.87426L35.7752 9.00717C35.8221 9.15375 35.6532 9.27526 35.5266 9.18572L34.5489 8.49468L33.5712 9.18572C33.4447 9.27516 33.2757 9.15386 33.3226 9.00717L33.6851 7.87426L32.7183 7.16835C32.5931 7.0769 32.6576 6.88061 32.8132 6.87944L34.015 6.8702L34.3952 5.74292C34.4444 5.59709 34.6531 5.59709 34.7026 5.74292Z" fill="#FFE15A"/>
<path d="M22.4637 26.7034L22.844 27.8307L24.0457 27.8399C24.2014 27.8411 24.2659 28.0374 24.1407 28.1288L23.1739 28.8347L23.5364 29.9677C23.5833 30.1142 23.4144 30.2357 23.2878 30.1462L22.3101 29.4552L21.3325 30.1462C21.2059 30.2356 21.037 30.1143 21.0839 29.9677L21.4464 28.8347L20.4796 28.1288C20.3544 28.0374 20.4189 27.8411 20.5745 27.8399L21.7762 27.8308L22.1565 26.7035C22.2057 26.5573 22.4147 26.5573 22.4637 26.7034Z" fill="#FFE15A"/>
<path d="M38.875 10.1723L38.4947 11.2996L37.293 11.3088C37.1373 11.31 37.0729 11.5063 37.198 11.5978L38.1648 12.3037L37.8024 13.4366C37.7554 13.5832 37.9243 13.7047 38.0509 13.6151L39.0286 12.9241L40.0062 13.6151C40.1328 13.7046 40.3017 13.5833 40.2548 13.4366L39.8924 12.3037L40.8592 11.5978C40.9843 11.5063 40.9198 11.31 40.7642 11.3088L39.5625 11.2996L39.1822 10.1723C39.133 10.0264 38.9242 10.0264 38.875 10.1723Z" fill="#FFE15A"/>
<path d="M17.677 22.2738L17.2967 23.4011L16.095 23.4103C15.9393 23.4115 15.8749 23.6078 16 23.6992L16.9668 24.4052L16.6044 25.5381C16.5574 25.6849 16.7263 25.8062 16.8529 25.7166L17.8306 25.0256L18.8082 25.7166C18.9348 25.806 19.1037 25.6847 19.0568 25.5381L18.6944 24.4052L19.6612 23.6992C19.7863 23.6078 19.7218 23.4115 19.5662 23.4103L18.3645 23.4011L17.9842 22.2738C17.9349 22.128 17.7262 22.128 17.677 22.2738Z" fill="#FFE15A"/>
<path d="M22.1565 5.74292L21.7762 6.8702L20.5745 6.87944C20.4189 6.88061 20.3544 7.0769 20.4796 7.16835L21.4464 7.87426L21.0839 9.00717C21.037 9.15375 21.2058 9.27526 21.3325 9.18572L22.3101 8.49468L23.2878 9.18572C23.4143 9.27516 23.5833 9.15386 23.5364 9.00717L23.1739 7.87426L24.1407 7.16835C24.2659 7.0769 24.2014 6.88061 24.0457 6.87944L22.844 6.8702L22.4637 5.74292C22.4144 5.59709 22.2057 5.59709 22.1565 5.74292Z" fill="#FFE15A"/>
<path d="M34.3952 26.7034L34.015 27.8307L32.8132 27.8399C32.6576 27.8411 32.5931 28.0374 32.7183 28.1288L33.6851 28.8347L33.3226 29.9677C33.2757 30.1142 33.4445 30.2357 33.5712 30.1462L34.5488 29.4552L35.5265 30.1462C35.653 30.2356 35.822 30.1143 35.7751 29.9677L35.4126 28.8347L36.3794 28.1288C36.5046 28.0374 36.4401 27.8411 36.2845 27.8399L35.0827 27.8308L34.7025 26.7035C34.6531 26.5573 34.4444 26.5573 34.3952 26.7034Z" fill="#FFE15A"/>
</g>
<defs>
<clipPath id="clip0_592_78873">
<rect width="55" height="36" fill="white" transform="translate(0.5 0.125977)"/>
</clipPath>
</defs>
</svg>
