<svg width="35" height="25" viewBox="0 0 35 25" fill="none" xmlns="http://www.w3.org/2000/svg">
<path d="M16.3164 8.66212C16.3164 11.404 16.3164 19.4261 5.99182 24.6982C4.7352 25.5394 10.0339 16.5703 8.40822 16.5703C4.04063 16.5703 0.5 13.0297 0.5 8.66212C0.5 4.29454 4.04063 0.753906 8.40822 0.753906C12.7758 0.753906 16.3164 4.29454 16.3164 8.66212Z" fill="#069973"/>
<path d="M34.7696 8.66212C34.7696 11.404 34.7696 19.4261 24.4449 24.6982C23.1883 25.5394 28.4871 16.5703 26.8613 16.5703C22.4938 16.5703 18.9531 13.0297 18.9531 8.66212C18.9531 4.29454 22.4938 0.753906 26.8613 0.753906C31.2289 0.753906 34.7696 4.29454 34.7696 8.66212Z" fill="#069973"/>
</svg>
