<svg width="143" height="42" viewBox="0 0 143 42" fill="none" xmlns="http://www.w3.org/2000/svg">
  <path d="M23.237 20.3003C23.6621 19.3477 24.0872 18.3244 24.5123 17.2659C24.7956 16.5602 25.1144 15.6781 25.4332 14.6902C25.752 13.7022 26.0354 12.6437 26.2125 11.6205C26.3896 10.562 26.4605 9.57401 26.3896 8.58605C26.3188 7.5981 26.0708 6.78657 25.5749 6.11618C25.4332 5.86919 25.2207 5.69277 25.0082 5.55163C24.7602 5.4105 24.4768 5.33993 24.158 5.33993C23.7684 5.33993 23.4496 5.48106 23.1662 5.72805C22.9182 5.97504 22.812 6.22203 22.812 6.53958C22.812 6.85714 22.9537 7.06884 23.2725 7.20998C23.5204 7.35112 23.6975 7.49225 23.733 7.66867C23.8038 7.84509 23.8392 8.02151 23.8747 8.2685C23.9455 8.97418 23.8747 9.75043 23.733 10.562C23.5913 11.3735 23.3787 12.185 23.0954 13.0318C22.8474 13.8787 22.564 14.6902 22.2452 15.4664C21.9264 16.2427 21.6076 16.9836 21.3242 17.654C20.4033 19.8064 19.376 21.747 18.2425 23.5112C17.109 25.2401 15.94 26.7926 14.7003 28.0981C14.4169 28.4157 14.0627 28.7685 13.7084 29.1213C13.3188 29.4742 12.9291 29.827 12.5395 30.1446C12.1499 30.4621 11.7602 30.7091 11.3706 30.9208C10.9809 31.1325 10.6621 31.2384 10.3433 31.2384C9.8474 31.2384 9.5286 30.9561 9.35149 30.3916C9.10353 29.5447 9.03269 28.5215 9.17438 27.3571C9.31607 26.1928 9.5286 25.0284 9.88283 23.8287C10.2371 22.6291 10.6267 21.4647 11.0872 20.3003C11.5477 19.1713 11.9373 18.2186 12.2915 17.4423C12.7875 16.4544 13.2834 15.4311 13.7793 14.4079C14.2752 13.42 14.842 12.432 15.4796 11.5146C15.7629 11.0912 16.188 10.4914 16.7902 9.71514C17.3569 8.93889 17.9945 8.19793 18.6676 7.42168C19.3406 6.64544 20.0136 6.01032 20.6866 5.4105C21.3951 4.84595 21.9973 4.5284 22.564 4.45783C22.564 4.59896 22.564 4.70482 22.5286 4.77538C22.5286 5.09294 22.6703 5.30464 22.9182 5.37521C22.9891 5.4105 23.0599 5.4105 23.1308 5.4105C23.3433 5.4105 23.485 5.26936 23.5913 5.02237C23.6975 4.81067 23.8392 4.59896 23.9455 4.38726C24.0518 4.17556 24.158 3.96385 24.1935 3.75215C24.1935 3.46988 24.158 3.22289 24.0872 3.01118C24.0163 2.7642 23.8038 2.55249 23.485 2.3055C22.9537 1.95267 22.4578 1.77625 21.9264 1.77625C21.6785 1.77625 21.3951 1.81153 21.0763 1.91738C20.6158 2.0938 20.1553 2.27022 19.7302 2.48192C19.3052 2.69363 18.8801 2.94062 18.4905 3.22289C17.0027 4.28141 15.6567 5.58692 14.4169 7.06884C13.1771 8.58606 12.0082 10.2091 11.0163 11.9027C9.98909 13.6317 9.10354 15.3959 8.32424 17.2306C7.54495 19.0654 6.87193 20.8296 6.34059 22.5585C6.05721 23.4759 5.84468 24.3933 5.73841 25.3107C5.63215 26.2281 5.5613 27.1454 5.52588 28.0628C5.52588 28.6979 5.59672 29.333 5.73841 30.0034C5.8801 30.6738 6.09264 31.2737 6.41144 31.8735C6.73024 32.4733 7.08446 32.9673 7.54495 33.3907C8.00544 33.8141 8.53678 34.1317 9.13896 34.3081C9.35149 34.3787 9.5286 34.4139 9.70571 34.4492C9.88283 34.4845 10.0954 34.4845 10.3079 34.4845C11.1226 34.4845 11.9019 34.3081 12.6458 33.9552C13.3896 33.6024 14.0981 33.1437 14.7711 32.5792C15.4441 32.0146 16.0817 31.4148 16.6839 30.7091C17.2861 30.0387 17.8174 29.3683 18.3133 28.7332C19.0926 27.7453 19.7657 26.7926 20.3324 25.8752C20.8992 24.9578 21.4305 24.0404 21.9264 23.1231C22.3515 22.2057 22.812 21.2883 23.237 20.3003Z" fill="white" />
  <path d="M36.6976 20.5826C36.733 20.0534 36.6622 19.5947 36.5559 19.2066C36.4142 18.8184 36.2371 18.4656 35.9537 18.2186C35.6704 17.9716 35.3161 17.8305 34.8557 17.8305C33.8638 17.8305 32.9428 18.148 32.0573 18.8184C31.1717 19.4888 30.4279 20.2298 29.7548 21.006C29.1172 21.8176 28.4088 22.8761 27.6295 24.1816C28.9755 20.7943 30.1445 18.148 31.1009 16.2427C32.0573 14.3374 32.5886 13.1377 32.624 12.679C32.6949 12.2909 32.624 11.9733 32.4115 11.7969C32.199 11.6205 31.9864 11.5146 31.7031 11.5146C31.3134 11.5146 30.9592 11.6911 30.7112 12.0792C30.1091 12.926 29.4715 13.9492 28.7984 15.1489C28.1254 16.3133 27.4524 17.5835 26.7794 18.9596C26.1063 20.3356 25.4687 21.747 24.7957 23.2642C24.1581 24.7461 23.5559 26.2634 23.06 27.7806C22.5287 29.2978 22.1036 30.7797 21.714 32.2264C21.3243 33.7083 21.0409 35.0844 20.8638 36.3546C20.6159 37.8718 20.6867 38.9656 21.0409 39.6007C21.3952 40.2358 21.8202 40.5534 22.2807 40.5534C22.8121 40.5534 23.308 40.2711 23.6976 39.7418C23.9456 39.4596 24.1935 38.9656 24.4769 38.2599C24.7603 37.5542 25.0791 36.778 25.3979 35.8959C25.7167 35.0138 26.0355 34.0964 26.3543 33.1437C26.6731 32.1911 26.9919 31.2737 27.2753 30.4622C27.5587 29.6506 27.8066 28.9449 28.0546 28.3804C28.3025 27.8159 28.4796 27.463 28.6213 27.3572C29.011 27.8511 29.4715 28.0981 30.0028 28.1334C30.0736 28.1334 30.1799 28.1334 30.2862 28.1687C30.3924 28.1687 30.4987 28.204 30.5696 28.204C31.3488 28.204 32.0573 28.0276 32.6949 27.71C33.3325 27.3924 33.8993 26.9338 34.3597 26.4045C34.8202 25.8752 35.2453 25.2048 35.5995 24.4992C35.9537 23.7582 36.2371 22.9819 36.4497 22.2057C36.5913 21.6412 36.6976 21.1119 36.6976 20.5826ZM34.466 20.5826C34.4306 20.6532 34.4306 20.7591 34.3952 20.9002C34.3952 21.006 34.3597 21.1472 34.2889 21.253C34.1472 21.6764 33.9701 22.1351 33.7576 22.5938C33.545 23.0525 33.2971 23.5112 33.0137 23.9346C32.7303 24.358 32.4115 24.7461 32.0573 25.0637C31.7031 25.3813 31.3134 25.6282 30.8529 25.7694C30.605 25.8399 30.4633 25.8399 30.3924 25.8399C30.1445 25.8399 29.9674 25.593 29.7903 25.1343C29.7548 25.0637 29.7903 24.9578 29.8257 24.8167C30.0736 24.4286 30.3216 23.9699 30.6404 23.5112C30.9592 23.0525 31.3134 22.5938 31.6676 22.1351C32.0219 21.6764 32.4115 21.253 32.8012 20.9002C33.1908 20.5121 33.6159 20.2651 34.0409 20.0887C34.2181 20.0181 34.3243 20.0181 34.3597 20.0181C34.466 20.0887 34.5369 20.2651 34.466 20.5826Z" fill="white" />
  <path d="M141.052 5.716H0.99176V31.438H141.052V5.716Z" fill="currentColor" />
  <path d="M70.3134 12.173H67.7984V15.4544L65.9918 15.9484V17.642H67.7984V21.6644C67.5858 21.8408 67.1962 22.2289 66.6294 22.7935C66.0272 23.3933 65.0708 24.099 63.7248 24.9458C63.4768 25.0869 63.2643 25.228 63.0163 25.3339C62.7684 25.4398 62.5204 25.5456 62.2371 25.5809C62.2016 25.5103 62.2371 25.3339 62.3079 25.0516C62.3787 24.7341 62.4496 24.4165 62.5559 24.0284C62.6621 23.6403 62.7684 23.2874 62.8392 22.9346C62.9101 22.5817 62.9809 22.3348 63.0163 22.2289C63.0872 21.8408 63.158 21.4527 63.2289 21.0645C63.2997 20.6764 63.2643 20.2883 63.1935 19.9002C63.1226 19.512 62.9101 19.1592 62.6621 18.8769C62.3787 18.5947 61.9891 18.4535 61.5286 18.4535C61.1035 18.4535 60.6785 18.5594 60.218 18.8064C59.5095 19.1592 58.8365 19.6179 58.1635 20.253C57.4905 20.8881 56.8174 21.5232 56.1798 22.1936C55.5422 22.864 54.9046 23.5344 54.3379 24.1695C53.7711 24.8046 53.2398 25.3339 52.7793 25.7573C52.7084 25.6515 52.7439 25.3339 52.8501 24.8399C52.9564 24.3459 53.1689 23.7108 53.4877 22.9699C53.8065 22.2289 54.1608 21.3821 54.6213 20.4647C55.0817 19.5473 55.6131 18.5594 56.2507 17.5714C56.3569 17.395 56.4986 17.2186 56.6049 17.0774C56.7112 16.9363 56.8529 16.7599 56.9591 16.6188C57.2071 16.2306 57.2071 15.8778 56.9945 15.5602C56.782 15.2427 56.4986 15.0663 56.0736 15.0663C55.8256 15.0663 55.5422 15.1721 55.2234 15.3485C54.9046 15.525 54.5858 15.8425 54.267 16.2659C53.3106 17.5714 52.4959 18.9122 51.7875 20.2883C51.5395 20.747 51.327 21.2057 51.1499 21.6996C51.1499 21.6996 51.1144 21.6996 51.1144 21.7349C50.6894 22.0878 50.2997 22.4053 49.9809 22.7229C49.5913 23.0757 48.9183 23.5344 48.0681 24.1342C47.1826 24.7341 46.2616 25.3339 45.2698 25.9337C44.2779 26.5336 43.3215 27.0628 42.3651 27.5215C41.4441 27.9802 40.7003 28.2272 40.1689 28.2625C39.673 28.2625 39.3188 28.1919 39.0708 28.0155C38.8229 27.8391 38.7166 27.4862 38.7166 26.9217C38.7166 26.7805 38.752 26.5336 38.8583 26.216C38.9292 25.8984 39.0354 25.5456 39.1771 25.228C39.2834 24.9105 39.4251 24.5929 39.5313 24.3459C39.673 24.099 39.7793 23.9578 39.8856 23.9578C39.9564 23.9578 40.0981 24.0284 40.2398 24.1342C40.3815 24.2401 40.6648 24.3812 40.9836 24.4871C41.267 24.5577 41.515 24.5577 41.6921 24.5577C42.2234 24.5577 42.7548 24.4518 43.3569 24.2048C43.9591 23.9578 44.5259 23.6403 45.0926 23.2521C45.6594 22.864 46.1907 22.4053 46.6866 21.8761C47.1826 21.3468 47.643 20.8176 47.9973 20.253C48.3515 19.7237 48.5286 19.1945 48.5286 18.6652C48.5286 18.136 48.4223 17.642 48.1744 17.2186C47.9264 16.7952 47.6076 16.4423 47.218 16.1601C46.7929 15.8778 46.3324 15.7367 45.8011 15.7367C45.7302 15.7367 45.624 15.7367 45.5531 15.7719C45.4823 15.7719 45.4114 15.8072 45.3406 15.8072C44.8093 15.8778 44.1362 16.1248 43.3924 16.4776C42.6485 16.8305 41.8692 17.3597 41.0545 18.0301C40.2398 18.7005 39.4605 19.512 38.6812 20.4647C37.9019 21.4174 37.1935 22.5112 36.5913 23.7814C36.4496 24.0637 36.3079 24.4165 36.2371 24.8046C36.1308 25.1928 36.0599 25.5809 36.0245 25.9337C35.9891 26.2866 35.9537 26.6041 35.9537 26.8864C35.9537 27.1687 35.9537 27.3451 35.9537 27.4157C36.0954 28.333 36.485 29.1093 37.158 29.7797C37.7956 30.4148 38.6458 30.7323 39.673 30.7323C40.2752 30.7323 40.9836 30.5912 41.7984 30.2737C42.2943 30.062 42.861 29.7797 43.5341 29.3563C44.2071 28.9681 44.9155 28.5095 45.6594 28.0155C46.4033 27.5215 47.1471 26.9922 47.9264 26.4277C48.6703 25.8632 49.3787 25.3339 49.9809 24.8046C50.0518 24.7694 50.0872 24.6988 50.1226 24.6635V24.6988C49.8038 26.0749 49.8392 27.0981 50.1935 27.7332C50.5831 28.3683 51.079 28.6859 51.752 28.6859C52.1771 28.6859 52.673 28.5447 53.1689 28.2625C53.7357 27.9096 54.3025 27.4509 54.8338 26.8511C55.3651 26.2513 56.1444 25.3692 57.1362 24.2754C57.2425 24.1342 57.455 23.8873 57.7738 23.5697C58.0926 23.2521 58.4114 22.8993 58.7302 22.5465C59.0845 22.1936 59.4387 21.8761 59.7575 21.5938C60.1117 21.3115 60.3597 21.1351 60.5368 21.1351C60.3597 21.8055 60.1471 22.5465 59.8283 23.4286C59.545 24.2754 59.4033 25.0163 59.4033 25.5809C59.4033 26.3219 59.6512 26.8864 60.1117 27.3098C60.5722 27.6979 61.1035 27.9096 61.7057 27.9096C61.812 27.9096 61.9537 27.9096 62.0599 27.9096C62.1662 27.9096 62.3079 27.8743 62.4142 27.8391C62.9455 27.6979 63.4768 27.4509 64.0436 27.1334C64.6104 26.8158 65.1771 26.4277 65.7084 26.0043C66.2398 25.5809 66.7711 25.1222 67.267 24.6635C67.4087 24.5224 67.5504 24.3812 67.6921 24.2048C67.6921 25.2633 67.8692 26.0749 68.188 26.6747C68.5422 27.3098 68.9673 27.7332 69.5341 27.9802C70.1008 28.2272 70.703 28.333 71.376 28.2625C72.049 28.2272 72.7575 28.0508 73.4659 27.8391L72.97 26.0043C72.4387 26.0749 72.0136 26.1101 71.6594 26.1101C71.3052 26.1101 71.0218 26.0396 70.7738 25.9337C70.5613 25.8279 70.3842 25.6515 70.3134 25.4045C70.2071 25.1575 70.1717 24.8399 70.1717 24.4165V17.6773H73.5368V15.4544H70.1717V12.173H70.3134ZM41.5504 21.6291C41.6567 21.4174 41.8338 21.2057 42.0463 20.9587C42.2943 20.7117 42.5422 20.4647 42.861 20.2177C43.1798 19.9355 43.4632 19.6885 43.782 19.4415C44.1008 19.1945 44.4196 18.9828 44.7384 18.7711C45.0572 18.5594 45.376 18.4182 45.6594 18.3477H45.8011C46.0136 18.3477 46.1553 18.4535 46.2262 18.6652C46.297 18.8769 46.1907 19.1592 45.9428 19.5826C45.6594 19.9707 45.3406 20.3589 44.9864 20.7117C44.6321 21.0645 44.2425 21.3821 43.8529 21.6291C43.4632 21.8761 43.109 22.0878 42.7548 22.2642C42.4005 22.4053 42.1172 22.5112 41.8338 22.5112C41.7275 22.5112 41.6213 22.5112 41.5858 22.4759C41.4796 22.1231 41.4796 21.8408 41.5504 21.6291Z" fill="black" />
  <path d="M84.9426 16.8305C84.4467 16.2659 83.88 15.8425 83.2424 15.5955C82.6048 15.3133 81.9317 15.2074 81.2587 15.2074C80.4086 15.2074 79.5939 15.3838 78.85 15.7014C78.1061 16.0189 77.4331 16.4776 76.9018 17.0775C76.335 17.6773 75.91 18.3477 75.5557 19.1239C75.2369 19.9002 75.0598 20.747 75.0598 21.6291C75.0598 22.5112 75.2369 23.358 75.5557 24.1342C75.8745 24.9105 76.335 25.6162 76.9018 26.1807C77.4685 26.7805 78.1061 27.2392 78.85 27.5568C79.5939 27.8744 80.4086 28.0508 81.2587 28.0508C81.9317 28.0508 82.6402 27.9096 83.3132 27.6274C83.9862 27.3451 84.553 26.9217 84.9781 26.3571L85.3677 27.7685H87.4931V15.4544H85.3677L84.9426 16.8305ZM84.6238 23.2874C84.4467 23.8167 84.1634 24.2401 83.8446 24.6282C83.5258 25.0163 83.1361 25.3339 82.6756 25.5456C82.2151 25.7573 81.7546 25.8632 81.2587 25.8632C80.7628 25.8632 80.3023 25.7573 79.8418 25.5456C79.3813 25.3339 78.9917 25.0163 78.6729 24.6282C78.3541 24.2401 78.0707 23.7814 77.8936 23.2874C77.7165 22.7582 77.6102 22.2289 77.6102 21.6291C77.6102 21.0293 77.7165 20.5 77.8936 19.9707C78.0707 19.4415 78.3541 19.0181 78.6729 18.6299C78.9917 18.2418 79.3813 17.9243 79.8418 17.7126C80.3023 17.5009 80.7628 17.395 81.2587 17.395C81.7546 17.395 82.2151 17.5009 82.6756 17.7126C83.1361 17.9243 83.5258 18.2418 83.8446 18.6299C84.1634 19.0181 84.4467 19.4768 84.6238 19.9707C84.801 20.5 84.9072 21.0293 84.9072 21.6291C84.9072 22.2289 84.801 22.7582 84.6238 23.2874Z" fill="black" />
  <path d="M92.6649 8.99744H90.1499V27.7685H92.6649V8.99744Z" fill="black" />
  <path d="M106.302 19.3356C106.019 18.383 105.594 17.6067 105.063 16.9716C104.531 16.3718 103.929 15.9131 103.221 15.5955C102.512 15.3133 101.733 15.1721 100.883 15.1721C100.068 15.1721 99.2887 15.3485 98.5449 15.6661C97.8364 15.9837 97.1988 16.4423 96.6321 17.0422C96.1007 17.642 95.6757 18.3124 95.3569 19.0886C95.0381 19.8649 94.8964 20.7117 94.8964 21.5938C94.8964 22.4759 95.0735 23.3227 95.3923 24.099C95.7111 24.8752 96.1716 25.5809 96.7738 26.1454C97.3759 26.7453 98.049 27.204 98.8282 27.5215C99.6075 27.8391 100.458 28.0155 101.343 28.0155C102.37 28.0155 103.327 27.8391 104.212 27.4862C105.098 27.1334 105.806 26.6394 106.409 26.0396L104.85 24.4871C104.46 24.8752 103.964 25.1928 103.433 25.4398C102.866 25.6868 102.264 25.7926 101.627 25.7926C101.131 25.7926 100.67 25.722 100.245 25.5456C99.8201 25.4045 99.395 25.1575 99.0408 24.8752C98.6866 24.5929 98.3678 24.2754 98.1198 23.8873C97.8718 23.4991 97.6593 23.0757 97.553 22.6523H106.727C106.763 21.4174 106.621 20.2883 106.302 19.3356ZM97.5176 20.5353C97.6239 20.0766 97.7656 19.6885 97.9781 19.3003C98.1906 18.9122 98.4386 18.5947 98.7574 18.3124C99.0762 18.0301 99.395 17.8184 99.7492 17.6773C100.103 17.5361 100.493 17.4303 100.883 17.4303C101.379 17.4303 101.804 17.5009 102.158 17.6773C102.512 17.8537 102.866 18.0654 103.114 18.3477C103.398 18.63 103.61 18.9475 103.752 19.3356C103.894 19.7238 104 20.1119 104.035 20.5353H97.5176Z" fill="black" />
  <path d="M118.169 16.1601C117.673 15.7719 117.142 15.525 116.575 15.3838C116.008 15.2427 115.512 15.1721 115.052 15.1721C114.379 15.1721 113.741 15.3133 113.139 15.5602C112.537 15.8072 112.041 16.1601 111.651 16.5482L111.12 15.4544H109.136V27.7685H111.651V20.2883C111.651 19.759 111.757 19.3356 111.97 18.9828C112.182 18.63 112.43 18.3477 112.749 18.1007C113.068 17.8537 113.387 17.7126 113.741 17.6067C114.095 17.5009 114.414 17.4656 114.697 17.4656C115.052 17.4656 115.406 17.5009 115.76 17.6067C116.079 17.7126 116.398 17.8537 116.681 18.0654C116.965 18.2771 117.177 18.5947 117.319 18.9475C117.496 19.3003 117.567 19.759 117.567 20.2883V27.7685H119.94V20.3236C119.94 19.2651 119.763 18.383 119.444 17.7126C119.054 17.0422 118.629 16.5482 118.169 16.1601Z" fill="black" />
  <path d="M126.387 12.173H123.872V15.4544L122.065 15.9484V17.642H123.872V23.8873C123.872 25.0163 124.049 25.8984 124.403 26.5336C124.757 27.1687 125.182 27.5921 125.749 27.8391C126.316 28.0861 126.918 28.1919 127.591 28.1213C128.264 28.0861 128.973 27.9096 129.681 27.6979L129.185 25.8632C128.654 25.9337 128.229 25.969 127.875 25.969C127.52 25.969 127.237 25.8984 126.989 25.7926C126.776 25.6867 126.599 25.5103 126.529 25.2633C126.422 25.0163 126.387 24.6988 126.387 24.2754V17.6773H129.752V15.4544H126.387V12.173Z" fill="black" />
  <path d="M134.924 25.2986C134.605 24.981 134.251 24.8399 133.79 24.8399C133.33 24.8399 132.975 24.981 132.657 25.2986C132.338 25.6162 132.196 26.0043 132.196 26.4277C132.196 26.8864 132.338 27.2392 132.657 27.5568C132.975 27.8743 133.33 28.0155 133.79 28.0155C134.251 28.0155 134.605 27.8743 134.924 27.5568C135.242 27.2392 135.384 26.8864 135.384 26.4277C135.384 26.0043 135.207 25.6162 134.924 25.2986Z" fill="black" />
  <path d="M23.237 19.3003C23.6621 18.3477 24.0871 17.3244 24.5122 16.2659C24.7956 15.5602 25.1144 14.6781 25.4332 13.6902C25.752 12.7022 26.0354 11.6437 26.2125 10.6205C26.3896 9.56196 26.4604 8.57401 26.3896 7.58605C26.3187 6.5981 26.0708 5.78657 25.5749 5.11618C25.4332 4.86919 25.2206 4.69277 25.0081 4.55163C24.7601 4.4105 24.4768 4.33993 24.158 4.33993C23.7683 4.33993 23.4495 4.48106 23.1661 4.72805C22.9182 4.97504 22.8119 5.22203 22.8119 5.53958C22.8119 5.85714 22.9536 6.06884 23.2724 6.20998C23.5204 6.35112 23.6975 6.49225 23.7329 6.66867C23.8037 6.84509 23.8392 7.02151 23.8746 7.2685C23.9454 7.97418 23.8746 8.75043 23.7329 9.56196C23.5912 10.3735 23.3787 11.185 23.0953 12.0318C22.8473 12.8787 22.564 13.6902 22.2452 14.4664C21.9264 15.2427 21.6076 15.9836 21.3242 16.654C20.4032 18.8064 19.376 20.747 18.2424 22.5112C17.1089 24.2401 15.94 25.7926 14.7002 27.0981C14.4168 27.4157 14.0626 27.7685 13.7084 28.1213C13.3187 28.4742 12.9291 28.827 12.5394 29.1446C12.1498 29.4621 11.7601 29.7091 11.3705 29.9208C10.9809 30.1325 10.6621 30.2384 10.3433 30.2384C9.84734 30.2384 9.52854 29.9561 9.35143 29.3916C9.10347 28.5447 9.03263 27.5215 9.17432 26.3571C9.31601 25.1928 9.52854 24.0284 9.88277 22.8287C10.237 21.6291 10.6266 20.4647 11.0871 19.3003C11.5476 18.1713 11.9373 17.2186 12.2915 16.4423C12.7874 15.4544 13.2833 14.4311 13.7792 13.4079C14.2751 12.42 14.8419 11.432 15.4795 10.5146C15.7629 10.0912 16.1879 9.49139 16.7901 8.71514C17.3569 7.93889 17.9945 7.19793 18.6675 6.42168C19.3405 5.64544 20.0136 5.01032 20.6866 4.4105C21.395 3.84595 21.9972 3.5284 22.564 3.45783C22.564 3.59896 22.564 3.70482 22.5285 3.77538C22.5285 4.09294 22.6702 4.30464 22.9182 4.37521C22.989 4.4105 23.0599 4.4105 23.1307 4.4105C23.3433 4.4105 23.4849 4.26936 23.5912 4.02237C23.6975 3.81067 23.8392 3.59896 23.9454 3.38726C24.0517 3.17556 24.158 2.96385 24.1934 2.75215C24.1934 2.46988 24.158 2.22289 24.0871 2.01118C24.0163 1.7642 23.8037 1.55249 23.4849 1.3055C22.9536 0.952665 22.4577 0.776245 21.9264 0.776245C21.6784 0.776245 21.395 0.811529 21.0762 0.917381C20.6157 1.0938 20.1552 1.27022 19.7302 1.48192C19.3051 1.69363 18.88 1.94062 18.4904 2.22289C17.0027 3.28141 15.6566 4.58692 14.4168 6.06884C13.177 7.58606 12.0081 9.20912 11.0163 10.9027C9.98903 12.6317 9.10347 14.3959 8.32418 16.2306C7.54489 18.0654 6.87187 19.8296 6.34053 21.5585C6.05715 22.4759 5.84462 23.3933 5.73835 24.3107C5.63209 25.2281 5.56124 26.1454 5.52582 27.0628C5.52582 27.6979 5.59666 28.333 5.73835 29.0034C5.88004 29.6738 6.09258 30.2737 6.41138 30.8735C6.73018 31.4733 7.0844 31.9673 7.54489 32.3907C8.00538 32.8141 8.53672 33.1317 9.1389 33.3081C9.35143 33.3787 9.52854 33.4139 9.70565 33.4492C9.88277 33.4845 10.0953 33.4845 10.3078 33.4845C11.1225 33.4845 11.9018 33.3081 12.6457 32.9552C13.3896 32.6024 14.098 32.1437 14.771 31.5792C15.4441 31.0146 16.0817 30.4148 16.6839 29.7091C17.286 29.0387 17.8174 28.3683 18.3133 27.7332C19.0926 26.7453 19.7656 25.7926 20.3324 24.8752C20.8991 23.9578 21.4304 23.0404 21.9264 22.1231C22.3514 21.2057 22.8119 20.2883 23.237 19.3003Z" fill="black" />
  <path d="M36.6976 19.5826C36.733 19.0534 36.6621 18.5947 36.5559 18.2066C36.4142 17.8184 36.2371 17.4656 35.9537 17.2186C35.6703 16.9716 35.3161 16.8305 34.8556 16.8305C33.8638 16.8305 32.9428 17.148 32.0572 17.8184C31.1717 18.4888 30.4278 19.2298 29.7548 20.006C29.1172 20.8176 28.4087 21.8761 27.6294 23.1816C28.9755 19.7943 30.1444 17.148 31.1008 15.2427C32.0572 13.3374 32.5886 12.1377 32.624 11.679C32.6948 11.2909 32.624 10.9733 32.4115 10.7969C32.1989 10.6205 31.9864 10.5146 31.703 10.5146C31.3134 10.5146 30.9591 10.6911 30.7112 11.0792C30.109 11.926 29.4714 12.9492 28.7984 14.1489C28.1254 15.3133 27.4523 16.5835 26.7793 17.9596C26.1063 19.3356 25.4687 20.747 24.7957 22.2642C24.1581 23.7461 23.5559 25.2634 23.06 26.7806C22.5286 28.2978 22.1036 29.7797 21.7139 31.2264C21.3243 32.7083 21.0409 34.0844 20.8638 35.3546C20.6158 36.8718 20.6867 37.9656 21.0409 38.6007C21.3951 39.2358 21.8202 39.5534 22.2807 39.5534C22.812 39.5534 23.3079 39.2711 23.6976 38.7418C23.9455 38.4596 24.1935 37.9656 24.4769 37.2599C24.7602 36.5542 25.079 35.778 25.3978 34.8959C25.7166 34.0138 26.0354 33.0964 26.3542 32.1437C26.673 31.1911 26.9918 30.2737 27.2752 29.4622C27.5586 28.6506 27.8065 27.9449 28.0545 27.3804C28.3025 26.8159 28.4796 26.463 28.6213 26.3572C29.0109 26.8511 29.4714 27.0981 30.0027 27.1334C30.0736 27.1334 30.1798 27.1334 30.2861 27.1687C30.3924 27.1687 30.4986 27.204 30.5695 27.204C31.3488 27.204 32.0572 27.0276 32.6948 26.71C33.3324 26.3924 33.8992 25.9338 34.3597 25.4045C34.8202 24.8752 35.2452 24.2048 35.5995 23.4992C35.9537 22.7582 36.2371 21.9819 36.4496 21.2057C36.5913 20.6412 36.6976 20.1119 36.6976 19.5826ZM34.4659 19.5826C34.4305 19.6532 34.4305 19.7591 34.3951 19.9002C34.3951 20.006 34.3597 20.1472 34.2888 20.253C34.1471 20.6764 33.97 21.1351 33.7575 21.5938C33.545 22.0525 33.297 22.5112 33.0136 22.9346C32.7303 23.358 32.4115 23.7461 32.0572 24.0637C31.703 24.3813 31.3134 24.6282 30.8529 24.7694C30.6049 24.8399 30.4632 24.8399 30.3924 24.8399C30.1444 24.8399 29.9673 24.593 29.7902 24.1343C29.7548 24.0637 29.7902 23.9578 29.8256 23.8167C30.0736 23.4286 30.3215 22.9699 30.6403 22.5112C30.9591 22.0525 31.3134 21.5938 31.6676 21.1351C32.0218 20.6764 32.4115 20.253 32.8011 19.9002C33.1907 19.5121 33.6158 19.2651 34.0409 19.0887C34.218 19.0181 34.3243 19.0181 34.3597 19.0181C34.4659 19.0887 34.5368 19.2651 34.4659 19.5826Z" fill="black" />
</svg>
