<svg width="21" height="21" viewBox="0 0 21 21" fill="none" xmlns="http://www.w3.org/2000/svg">
<path fill-rule="evenodd" clip-rule="evenodd" d="M10.5 20.2158C16.0228 20.2158 20.5 15.7387 20.5 10.2158C20.5 4.69297 16.0228 0.21582 10.5 0.21582C4.97715 0.21582 0.5 4.69297 0.5 10.2158C0.5 15.7387 4.97715 20.2158 10.5 20.2158ZM10.3738 14.2563L16.2071 8.42293L14.7929 7.00871L9.66667 12.1349L6.20711 8.67538L4.79289 10.0896L8.95956 14.2563L9.66667 14.9634L10.3738 14.2563Z" fill="currentColor"/>
</svg>
