<svg width="24" height="24" viewBox="0 0 24 24" xmlns="http://www.w3.org/2000/svg">
  <path fill-rule="evenodd" clip-rule="evenodd" d="M12.676 1.37032C12.2936 1.01946 11.7064 1.01947 11.3239 1.37032L9.52043 3.02498C9.30679 3.22098 9.01861 3.31461 8.73057 3.28162L6.2989 3.00305C5.7833 2.94398 5.3082 3.28917 5.20504 3.79779L4.71855 6.19652C4.66092 6.48066 4.48282 6.7258 4.23039 6.86841L2.0994 8.07234C1.64755 8.32762 1.46607 8.88614 1.68158 9.35825L2.69794 11.5848C2.81833 11.8486 2.81833 12.1516 2.69794 12.4153L1.68158 14.6419C1.46607 15.114 1.64755 15.6725 2.0994 15.9278L4.23039 17.1317C4.48282 17.2743 4.66092 17.5195 4.71855 17.8036L5.20504 20.2024C5.3082 20.711 5.7833 21.0562 6.2989 20.9971L8.73057 20.7185C9.01861 20.6855 9.30679 20.7792 9.52043 20.9752L11.3239 22.6298C11.7064 22.9807 12.2936 22.9807 12.676 22.6298L14.4796 20.9752C14.6932 20.7792 14.9814 20.6855 15.2694 20.7185L17.7011 20.9971C18.2167 21.0562 18.6918 20.711 18.7949 20.2024L19.2814 17.8036C19.3391 17.5195 19.5172 17.2743 19.7696 17.1317L21.9006 15.9278C22.3524 15.6725 22.5339 15.114 22.3184 14.6419L21.302 12.4153C21.1816 12.1516 21.1816 11.8486 21.302 11.5848L22.3184 9.35825C22.5339 8.88613 22.3524 8.32762 21.9006 8.07234L19.7696 6.86841C19.5172 6.7258 19.3391 6.48066 19.2814 6.19652L18.7949 3.79779C18.6918 3.28916 18.2167 2.94398 17.7011 3.00305L15.2694 3.28162C14.9814 3.31461 14.6932 3.22098 14.4796 3.02498L12.676 1.37032ZM16.4969 10.2496C16.7728 9.9406 16.746 9.46649 16.437 9.19062C16.128 8.91474 15.6539 8.94158 15.378 9.25056L11.1637 13.9706L7.96851 11.4144C7.64506 11.1557 7.17309 11.2081 6.91434 11.5316C6.65558 11.855 6.70802 12.327 7.03147 12.5857L10.7815 15.5857C11.0926 15.8346 11.5441 15.7968 11.8094 15.4996L16.4969 10.2496Z" fill="#2196F3" />
</svg>
