<svg width="24" height="24" viewBox="0 0 24 24" fill="none" xmlns="http://www.w3.org/2000/svg">
<path d="M15.3052 12.4042C14.5615 11.6781 13.7115 11.3417 12.2594 10.7219C11.4271 10.4031 10.7719 10.0667 10.4354 9.60625C10.1698 9.2875 10.0813 8.89792 10.0813 8.54375C10.0813 8.03021 10.276 7.56979 10.6125 7.23333C11.0021 6.84375 11.551 6.63125 12.1531 6.63125C12.826 6.63125 13.375 6.95 13.7646 7.39271C14.101 7.81771 14.2781 8.29583 14.2781 8.80937H16.0844C16.0667 7.85313 15.7302 7.03854 15.1458 6.36562C14.6146 5.71042 13.8885 5.26771 13.0562 5.09062V3.49687H11.3385V5.05521C10.5948 5.19687 9.92188 5.51562 9.40833 5.97604C8.71771 6.61354 8.275 7.5875 8.275 8.56146C8.275 9.34062 8.55833 10.0844 8.98333 10.5979C9.55 11.3062 10.3469 11.7667 11.0906 12.0854C11.9938 12.5281 13.0385 12.8292 13.8177 13.4135C14.3313 13.8031 14.526 14.1927 14.526 14.7062C14.526 15.326 14.3135 15.751 13.924 16.0698C13.4458 16.4771 12.7375 16.6187 12.1708 16.6187C11.4094 16.6187 10.7542 16.2469 10.3115 15.6448C9.975 15.2729 9.79792 14.6885 9.79792 14.2104H8.0625C8.0625 15.0958 8.34583 15.9104 8.85938 16.601C9.42604 17.4333 10.3115 17.9823 11.3385 18.1771V19.7531H13.0562V18.1948C13.7115 18.0885 14.3313 17.876 14.7917 17.5573C15.7656 16.9552 16.3323 15.8396 16.3323 14.7594C16.3323 13.8031 15.9781 13.024 15.3052 12.4042Z" fill="currentColor"/>
<path fill-rule="evenodd" clip-rule="evenodd" d="M12 22C17.5228 22 22 17.5228 22 12C22 6.47715 17.5228 2 12 2C6.47715 2 2 6.47715 2 12C2 17.5228 6.47715 22 12 22ZM12 24C18.6274 24 24 18.6274 24 12C24 5.37258 18.6274 0 12 0C5.37258 0 0 5.37258 0 12C0 18.6274 5.37258 24 12 24Z" fill="currentColor"/>
</svg>
