<svg width="24" height="24" viewBox="0 0 24 24" fill="none" xmlns="http://www.w3.org/2000/svg">
<path fill-rule="evenodd" clip-rule="evenodd" d="M12 22C17.5228 22 22 17.5228 22 12C22 6.47715 17.5228 2 12 2C6.47715 2 2 6.47715 2 12C2 17.5228 6.47715 22 12 22ZM12 24C18.6274 24 24 18.6274 24 12C24 5.37258 18.6274 0 12 0C5.37258 0 0 5.37258 0 12C0 18.6274 5.37258 24 12 24Z" fill="#9E9E9E"/>
<path d="M12.2818 15.545C12.9118 15.545 13.4618 15.415 13.9318 15.155C14.4118 14.885 14.7868 14.49 15.0568 13.97H17.1118C16.7218 14.97 16.0968 15.74 15.2368 16.28C14.3768 16.82 13.3918 17.09 12.2818 17.09C11.1118 17.09 10.0718 16.775 9.16182 16.145C8.25182 15.505 7.61682 14.655 7.25682 13.595H5.87682V12.425H6.98682C6.96682 12.145 6.95682 11.925 6.95682 11.765C6.95682 11.605 6.96682 11.385 6.98682 11.105H5.87682V9.935H7.25682C7.61682 8.875 8.25182 8.03 9.16182 7.4C10.0718 6.76 11.1118 6.44 12.2818 6.44C13.3818 6.44 14.3618 6.715 15.2218 7.265C16.0918 7.805 16.7218 8.575 17.1118 9.575H15.0568C14.7868 9.055 14.4118 8.665 13.9318 8.405C13.4618 8.135 12.9118 8 12.2818 8C11.5518 8 10.9068 8.17 10.3468 8.51C9.79682 8.85 9.37682 9.325 9.08682 9.935H12.2818V11.105H8.75682C8.72682 11.315 8.71182 11.535 8.71182 11.765C8.71182 11.995 8.72682 12.215 8.75682 12.425H12.2818V13.595H9.08682C9.37682 14.215 9.79682 14.695 10.3468 15.035C10.9068 15.375 11.5518 15.545 12.2818 15.545Z" fill="#9E9E9E"/>
</svg>
