<svg width="16" height="16" viewBox="0 0 16 16" fill="none" xmlns="http://www.w3.org/2000/svg">
<path d="M15.8153 7.48294L14.4203 5.82206L14.6153 3.62062C14.6528 3.2289 14.3978 2.86853 14.0378 2.78235L11.9679 2.28879L10.8879 0.385051C10.6929 0.0481752 10.2954 -0.0928424 9.95042 0.0638438L8.00046 0.949121L6.058 0.0795124C5.71301 -0.0771738 5.30802 0.0638438 5.12052 0.400719L4.03304 2.29662L1.97059 2.78235C1.60309 2.86853 1.3481 3.22107 1.3856 3.62062L1.58059 5.81423L0.185621 7.48294C-0.0618738 7.78064 -0.0618738 8.21936 0.185621 8.51706L1.58059 10.1779L1.3856 12.3872C1.3481 12.7789 1.60309 13.1393 1.96309 13.2255L4.03304 13.719L5.11302 15.6149C5.30802 15.9518 5.70551 16.0928 6.058 15.9362L8.00046 15.0509L9.94292 15.9205C10.2879 16.0772 10.6929 15.9362 10.8804 15.5993L11.9604 13.6955L14.0303 13.202C14.3978 13.1158 14.6453 12.7554 14.6078 12.3637L14.4128 10.1623L15.8078 8.5014C16.0628 8.21936 16.0628 7.78064 15.8153 7.48294V7.48294ZM8.75045 11.9172H7.25048V10.3503H8.75045V11.9172ZM8.00046 8.78343C7.58797 8.78343 7.25048 8.43089 7.25048 8V4.86628C7.25048 4.43539 7.58797 4.08284 8.00046 4.08284C8.41296 4.08284 8.75045 4.43539 8.75045 4.86628V8C8.75045 8.43089 8.41296 8.78343 8.00046 8.78343Z" fill="#F2FF88"/>
</svg>
