<svg width="24" height="24" viewBox="0 0 24 24" fill="none" xmlns="http://www.w3.org/2000/svg">
<path fill-rule="evenodd" clip-rule="evenodd" d="M15 5C15 2.79086 16.7909 1 19 1C21.2091 1 23 2.79086 23 5C23 7.20914 21.2091 9 19 9C16.7909 9 15 7.20914 15 5ZM21 5C21 3.89543 20.1046 3 19 3C17.8954 3 17 3.89543 17 5C17 6.10457 17.8954 7 19 7C20.1046 7 21 6.10457 21 5Z" fill="currentColor"/>
<path fill-rule="evenodd" clip-rule="evenodd" d="M15 19C15 16.7909 16.7909 15 19 15C21.2091 15 23 16.7909 23 19C23 21.2091 21.2091 23 19 23C16.7909 23 15 21.2091 15 19ZM21 19C21 17.8954 20.1046 17 19 17C17.8954 17 17 17.8954 17 19C17 20.1046 17.8954 21 19 21C20.1046 21 21 20.1046 21 19Z" fill="currentColor"/>
<path fill-rule="evenodd" clip-rule="evenodd" d="M1 12C1 9.79086 2.79086 8 5 8C7.20914 8 9 9.79086 9 12C9 14.2091 7.20914 16 5 16C2.79086 16 1 14.2091 1 12ZM7 12C7 10.8954 6.10457 10 5 10C3.89543 10 3 10.8954 3 12C3 13.1046 3.89543 14 5 14C6.10457 14 7 13.1046 7 12Z" fill="currentColor"/>
<path d="M16.4262 6.92122L8.12898 10.9659L7.25261 9.16813L15.5499 5.12345L16.4262 6.92122Z" fill="currentColor"/>
<path d="M15.5254 18.8959L7.49819 14.8421L8.39976 13.0568L16.427 17.1107L15.5254 18.8959Z" fill="currentColor"/>
</svg>
