<svg width="15" height="23" viewBox="0 0 15 23" fill="none" xmlns="http://www.w3.org/2000/svg">
<path d="M12.7169 13.0259C13.0221 12.356 13.3273 11.6365 13.6325 10.8921C13.836 10.3959 14.0649 9.77562 14.2938 9.0809C14.5227 8.38619 14.7262 7.64185 14.8533 6.92233C14.9805 6.17799 15.0314 5.48328 14.9805 4.78856C14.9296 4.09385 14.7516 3.52319 14.3955 3.05178C14.2938 2.8781 14.1412 2.75405 13.9886 2.6548C13.8106 2.55556 13.6071 2.50593 13.3782 2.50593C13.0984 2.50593 12.8695 2.60518 12.666 2.77886C12.488 2.95253 12.4117 3.12621 12.4117 3.34951C12.4117 3.57282 12.5134 3.72168 12.7423 3.82093C12.9204 3.92017 13.0475 4.01942 13.073 4.14347C13.1238 4.26753 13.1493 4.39159 13.1747 4.56526C13.2256 5.06149 13.1747 5.60734 13.073 6.17799C12.9712 6.74865 12.8186 7.31931 12.6152 7.91478C12.4371 8.51025 12.2337 9.0809 12.0048 9.62675C11.7758 10.1726 11.5469 10.6936 11.3435 11.165C10.6822 12.6785 9.94462 14.0431 9.13073 15.2837C8.31685 16.4995 7.47754 17.5912 6.58735 18.5092C6.38388 18.7325 6.12955 18.9806 5.87521 19.2287C5.59544 19.4768 5.31566 19.7249 5.03589 19.9482C4.75612 20.1715 4.47635 20.3452 4.19658 20.4941C3.9168 20.6429 3.6879 20.7174 3.459 20.7174C3.10292 20.7174 2.87402 20.5189 2.74685 20.1219C2.56881 19.5264 2.51795 18.8069 2.61968 17.9881C2.72142 17.1694 2.87402 16.3506 3.12836 15.507C3.38269 14.6634 3.66247 13.8447 3.99311 13.0259C4.32375 12.2319 4.60352 11.562 4.85786 11.0162C5.21393 10.3215 5.57 9.60194 5.92608 8.88242C6.28215 8.1877 6.68909 7.49299 7.1469 6.8479C7.35037 6.55016 7.65557 6.12837 8.08795 5.58252C8.49489 5.03668 8.9527 4.51564 9.43594 3.96979C9.91918 3.42395 10.4024 2.97735 10.8857 2.55556C11.3943 2.15858 11.8267 1.93527 12.2337 1.88565C12.2337 1.9849 12.2337 2.05933 12.2082 2.10895C12.2082 2.33225 12.31 2.48112 12.488 2.53074C12.5389 2.55556 12.5897 2.55556 12.6406 2.55556C12.7932 2.55556 12.8949 2.45631 12.9712 2.28263C13.0475 2.13376 13.1493 1.9849 13.2256 1.83603C13.3019 1.68716 13.3782 1.5383 13.4036 1.38943C13.4036 1.19094 13.3782 1.01726 13.3273 0.868393C13.2764 0.694714 13.1238 0.545847 12.8949 0.372168C12.5134 0.124056 12.1574 0 11.7759 0C11.5978 0 11.3943 0.0248112 11.1654 0.0992448C10.8348 0.223301 10.5042 0.347357 10.199 0.496224C9.89375 0.645092 9.58854 0.81877 9.30877 1.01726C8.24055 1.7616 7.27407 2.67961 6.38388 3.72168C5.4937 4.78857 4.65439 5.92988 3.94224 7.12082C3.20466 8.33657 2.56881 9.57713 2.00927 10.8673C1.44973 12.1575 0.966484 13.3981 0.584977 14.6138C0.381507 15.2589 0.228904 15.904 0.152603 16.5491C0.0763015 17.1942 0.0254338 17.8393 0 18.4844C0 18.931 0.0508677 19.3776 0.152603 19.849C0.254338 20.3204 0.406941 20.7422 0.635845 21.164C0.864749 21.5858 1.11909 21.9331 1.44973 22.2309C1.78037 22.5286 2.16187 22.7519 2.59425 22.8759C2.74685 22.9256 2.87402 22.9504 3.00119 22.9752C3.12836 23 3.28096 23 3.43356 23C4.01854 23 4.57808 22.8759 5.11219 22.6278C5.6463 22.3797 6.15498 22.0572 6.63822 21.6602C7.12146 21.2632 7.57927 20.8414 8.01165 20.3452C8.44402 19.8738 8.82553 19.4024 9.1816 18.9558C9.74115 18.2611 10.2244 17.5912 10.6313 16.9461C11.0383 16.301 11.4198 15.6559 11.7759 15.0108C12.0811 14.3657 12.4117 13.7206 12.7169 13.0259Z" fill="#F2FF88"/>
</svg>
