<svg width="16" height="17" viewBox="0 0 16 17" fill="none" xmlns="http://www.w3.org/2000/svg">
<mask id="path-1-inside-1" fill="white">
<rect x="3" y="0.5" width="10" height="16" rx="1"/>
</mask>
<rect x="3" y="0.5" width="10" height="16" rx="1" stroke="currentColor" stroke-width="4" mask="url(#path-1-inside-1)"/>
<path d="M9 13C9 13.5523 8.55228 14 8 14C7.44772 14 7 13.5523 7 13C7 12.4477 7.44772 12 8 12C8.55228 12 9 12.4477 9 13Z" fill="currentColor"/>
<path d="M7 4H9" stroke="currentColor" stroke-width="1.5" stroke-linecap="round"/>
</svg>
