<svg width="46" height="41" viewBox="0 0 46 41" fill="none" xmlns="http://www.w3.org/2000/svg">
  <path d="M17.5648 3.5C19.4893 0.166671 24.3006 0.166663 26.2251 3.5L43.1126 32.75C45.0371 36.0833 42.6315 40.25 38.7824 40.25H5.00747C1.15847 40.25 -1.24717 36.0833 0.677331 32.75L17.5648 3.5Z" fill="#DBDB59" />
  <path d="M19.5648 2.5C21.4893 -0.833329 26.3006 -0.833337 28.2251 2.5L45.1126 31.75C47.0371 35.0833 44.6315 39.25 40.7824 39.25H7.00747C3.15847 39.25 0.75283 35.0833 2.67733 31.75L19.5648 2.5Z" fill="#F2FF88" />
  <path d="M25.99 13.796L25.486 25.532H22.006L21.502 13.796H25.99ZM25.894 27.5V31.604H21.622V27.5H25.894Z" fill="#40403E" />
</svg>
  