<svg width="89" height="40" viewBox="0 0 89 40" fill="none" xmlns="http://www.w3.org/2000/svg">
<g clip-path="url(#clip0_282_59975)">
<path d="M71.1126 9.16357L74.6285 13.0333L78.0134 9.16357H85.2413L78.1775 17.0964L85.3381 25.094H77.8186L74.3357 21.1936L70.8847 25.094H63.6238L70.7218 17.1294L63.6238 9.16357H71.1126Z" fill="#87A097"/>
<path d="M63.6238 9.16374V14.5462H55.5848V19.4853H63.6238V25.0942H49.6769V0H63.6238V5.59351H55.5848V9.16374H63.6238Z" fill="#87A097"/>
<path d="M43.7938 0V10.2697H43.7288C42.4254 8.77465 40.7985 8.25468 38.9106 8.25468C35.0429 8.25468 32.1291 10.8817 31.1066 14.3528C29.939 10.5279 26.9307 8.18276 22.4703 8.18276C18.8481 8.18276 15.9874 9.80634 14.4951 12.4522V9.16374H7.00746V5.59351H15.1787V0H0.333313V25.0942H7.00746V14.5462H13.6603C13.462 15.3209 13.3557 16.1509 13.3557 17.027C13.3557 22.2609 17.3605 25.9349 22.4703 25.9349C26.7678 25.9349 29.6001 23.9198 31.0972 20.247H25.377C24.6037 21.3518 24.0169 21.6784 22.4703 21.6784C20.6769 21.6784 19.1302 20.1161 19.1302 18.2638H30.7772C31.2825 22.4212 34.5258 26.0068 38.9756 26.0068C40.8953 26.0068 42.6533 25.0635 43.7276 23.4718H43.7926V25.0965H49.6757V0H43.7938ZM19.3168 14.6205C19.6875 13.0264 20.926 11.9853 22.4714 11.9853C24.1727 11.9853 25.3475 12.9945 25.6568 14.6205C25.7867 14.6205 19.3168 14.6205 19.3168 14.6205ZM40.2223 21.274C38.0535 21.274 36.7052 19.2554 36.7052 17.1484C36.7052 14.8964 37.8776 12.7304 40.2223 12.7304C42.6533 12.7304 43.6214 14.8964 43.6214 17.1484C43.6214 19.2837 42.5954 21.274 40.2223 21.274Z" fill="#7C807C"/>
<path d="M49.678 37.6417V28.6489H54.6532V29.3198H50.4986V32.6354H54.4773V33.3063H50.4986V36.9685H54.8386V37.6405H49.678V37.6417Z" fill="#7C807C"/>
<path d="M55.4325 37.6419L57.8587 34.4124L55.5576 31.3574H56.4903L58.3687 33.8535L60.2094 31.3574H61.1421L58.8044 34.4124L61.2412 37.6419H60.2967L58.2814 34.9701L56.3664 37.6419H55.4325Z" fill="#7C807C"/>
<path d="M62.8198 40.0001H62.0606V33.2335C62.0606 32.6121 62.0606 31.9801 62.0228 31.3575H62.7702L62.795 32.302C63.266 31.5556 63.8882 31.209 64.8221 31.209C66.7619 31.209 67.5943 32.8102 67.5943 34.4986C67.5943 36.1894 66.7619 37.7906 64.8221 37.7906C63.9508 37.7906 63.2672 37.4557 62.8198 36.7341V40.0001ZM66.7867 34.4986C66.7867 33.158 66.2259 31.841 64.7348 31.841C63.3298 31.841 62.8198 32.9965 62.8198 34.4986C62.8198 36.0019 63.3298 37.1562 64.7348 37.1562C66.2271 37.1562 66.7867 35.8404 66.7867 34.4986Z" fill="#7C807C"/>
<path d="M71.4951 31.94C70.2389 31.94 69.802 32.9965 69.802 34.0883V37.642H69.0429V33.2063C69.0429 32.5979 69.0311 31.9789 69.0063 31.3575H69.7548L69.8032 32.2643C70.1763 31.545 70.7997 31.209 71.632 31.209C71.7442 31.209 71.8682 31.2208 71.9803 31.2337V31.9919C71.8056 31.9648 71.6686 31.94 71.4951 31.94Z" fill="#7C807C"/>
<path d="M72.9095 34.6354C72.9095 36.0503 73.5801 37.2175 74.9603 37.2175C76.0287 37.2175 76.527 36.5101 76.7135 35.8026H77.4349C77.0984 37.1185 76.2897 37.7906 74.8599 37.7906C72.9449 37.7906 72.0984 36.3745 72.0984 34.6118C72.0984 32.8113 72.9815 31.209 74.9591 31.209C76.9614 31.209 77.4963 32.9587 77.4963 34.6354H72.9095ZM72.9331 34.0647H76.6887C76.6887 32.8349 76.1055 31.7797 74.9107 31.7797C73.8292 31.7785 73.0819 32.5979 72.9331 34.0647Z" fill="#7C807C"/>
<path d="M80.4585 37.7906C79.1657 37.7906 78.1964 37.181 78.1964 35.8026H78.9555C78.9555 36.7459 79.5765 37.2175 80.4974 37.2175C81.3557 37.2175 82.0263 36.8072 82.0263 35.9654C82.0263 35.2072 81.2436 35.008 80.423 34.7721C79.4289 34.4868 78.3463 34.1755 78.3463 32.9587C78.3463 31.6063 79.4773 31.209 80.5352 31.209C81.7524 31.209 82.6615 31.6794 82.6981 32.9835H81.939C81.9024 32.2395 81.3675 31.8174 80.5588 31.8174C79.9248 31.8174 79.1539 32.065 79.1539 32.8844C79.1539 33.6308 79.9248 33.8419 80.7454 34.0647C81.7418 34.3371 82.8351 34.6354 82.8351 35.8533C82.8339 37.2682 81.7406 37.7906 80.4585 37.7906Z" fill="#7C807C"/>
<path d="M85.7194 37.7906C84.4254 37.7906 83.4561 37.181 83.4561 35.8026H84.2153C84.2153 36.7459 84.8363 37.2175 85.7584 37.2175C86.6167 37.2175 87.2873 36.8072 87.2873 35.9654C87.2873 35.2072 86.5033 35.008 85.6828 34.7721C84.6887 34.4868 83.6072 34.1755 83.6072 32.9587C83.6072 31.6063 84.7383 31.209 85.7961 31.209C87.0134 31.209 87.9225 31.6794 87.9591 32.9835H87.1999C87.1633 32.2395 86.6285 31.8174 85.8198 31.8174C85.1857 31.8174 84.4148 32.065 84.4148 32.8844C84.4148 33.6308 85.1858 33.8419 86.0075 34.0647C87.0028 34.3371 88.0972 34.6354 88.0972 35.8533C88.0948 37.2682 87.0004 37.7906 85.7194 37.7906Z" fill="#7C807C"/>
</g>
<defs>
<clipPath id="clip0_282_59975">
<rect width="88" height="40" fill="white" transform="translate(0.333313)"/>
</clipPath>
</defs>
</svg>
