<svg width="104" height="24" viewBox="0 0 104 24" fill="none" xmlns="http://www.w3.org/2000/svg">
<g clip-path="url(#clip0_282_59995)">
<path d="M69.4226 7.95298C69.4226 11.6464 66.2852 14.6802 62.4803 14.6802H43.656C39.8511 14.6802 36.7137 11.6464 36.7137 7.95298V6.76582C36.7137 3.07243 39.7843 0.0385742 43.656 0.0385742H62.4803C66.2852 0.0385742 69.4226 3.07243 69.4226 6.76582V7.95298ZM63.8821 7.16154C63.8821 5.97438 62.7473 4.98508 61.4123 4.98508H44.8575C43.5225 4.98508 42.3877 5.97438 42.3877 7.16154V7.55726C42.3877 8.74442 43.5225 9.73372 44.8575 9.73372H61.4123C62.7473 9.73372 63.8821 8.81037 63.8821 7.55726V7.16154Z" fill="#87A097"/>
<path d="M97.8593 7.16154C97.8593 5.97438 96.9248 4.98508 95.8567 4.98508H81.3046C80.1698 4.98508 79.302 5.97438 79.302 7.16154V14.5483H73.6948V6.76582C73.6948 3.07243 76.8321 0.0385742 80.6371 0.0385742H96.5243C100.396 0.0385742 103.467 3.07243 103.467 6.76582V14.5483H97.8593V7.16154Z" fill="#87A097"/>
<path d="M103.4 19.0332H16.6877V23.7159H103.4V19.0332Z" fill="#87A097"/>
<path d="M27.435 7.16199C27.435 5.97483 26.367 4.98553 24.9652 4.98553H8.41042C7.07536 4.98553 5.94056 5.97483 5.94056 7.16199V7.55771C5.94056 8.74487 7.07536 9.73417 8.41042 9.73417H25.0319C26.367 9.73417 27.5018 8.81082 27.5018 7.55771V7.16199H27.435ZM33.0423 6.76627V7.95343C33.0423 11.6468 29.9049 14.6807 26.1 14.6807H7.27562C6.80835 14.6807 6.34108 14.6147 5.94056 14.5488V23.7163H0.333313V6.76627C0.333313 3.07288 3.4707 0.10498 7.27562 0.10498H26.1C29.9716 0.10498 33.0423 3.07288 33.0423 6.76627Z" fill="#87A097"/>
</g>
<defs>
<clipPath id="clip0_282_59995">
<rect width="103.667" height="23.9231" fill="white" transform="translate(0.333313 0.0385742)"/>
</clipPath>
</defs>
</svg>
