<svg width="56" height="57" viewBox="0 0 56 57" fill="none" xmlns="http://www.w3.org/2000/svg">
  <path fill-rule="evenodd" clip-rule="evenodd" d="M37 4.1333C29.317 4.1333 22.9718 9.72845 21.9074 16.9921L20.4232 16.7746C21.5963 8.76937 28.5777 2.6333 37 2.6333C46.2408 2.6333 53.75 10.0223 53.75 19.1593C53.75 26.7896 48.5119 33.2012 41.4048 35.1077L41.0162 33.6589C47.4969 31.9205 52.25 26.081 52.25 19.1593C52.25 10.8706 45.4323 4.1333 37 4.1333Z" fill="#F2FF88" />
  <path fill-rule="evenodd" clip-rule="evenodd" d="M2.25 35.3833C2.25 33.8645 3.48122 32.6333 5 32.6333H9.1C10.5636 32.6333 11.75 33.8197 11.75 35.2833V50.3833C11.75 51.9021 10.5188 53.1333 9 53.1333H5C3.48122 53.1333 2.25 51.9021 2.25 50.3833V35.3833ZM5 34.1333C4.30964 34.1333 3.75 34.6929 3.75 35.3833V50.3833C3.75 51.0737 4.30964 51.6333 5 51.6333H9C9.69036 51.6333 10.25 51.0737 10.25 50.3833V35.2833C10.25 34.6482 9.73513 34.1333 9.1 34.1333H5Z" fill="#F2FF88" />
  <path fill-rule="evenodd" clip-rule="evenodd" d="M21.2959 21.2288C21.369 20.8817 21.6752 20.6333 22.0299 20.6333C25.3277 20.6333 26.6366 22.8991 27.0041 23.6627C27.1451 23.9556 27.2197 24.3043 27.2617 24.6486C27.3049 25.0026 27.3192 25.402 27.3134 25.824C27.3016 26.6683 27.208 27.6548 27.0714 28.6483C26.8638 30.1576 26.55 31.7311 26.2463 32.9124H33.4925C34.0142 32.9124 34.7917 33.0462 35.4645 33.4775C36.1777 33.9347 36.75 34.7188 36.75 35.8949C36.75 37.1816 36.331 38.1361 35.6642 38.7658C35.6522 38.7771 35.6402 38.7883 35.6281 38.7994C36.2632 39.2683 36.75 40.0195 36.75 41.1042C36.75 42.3063 36.3815 43.1712 35.7438 43.7266C36.3214 44.1994 36.75 44.9236 36.75 45.9414C36.75 47.3012 36.1804 48.2082 35.3082 48.7259C34.9903 48.9146 34.6459 49.0433 34.2992 49.1298C34.3278 49.183 34.3551 49.2367 34.381 49.2906C34.6642 49.8788 34.8345 50.5927 34.7775 51.3037C34.7194 52.0276 34.4211 52.7653 33.7559 53.3117C33.0999 53.8505 32.1725 54.1333 30.9851 54.1333H21.3134C21.2949 54.1333 21.2764 54.1326 21.2579 54.1312C20.3976 54.0674 18.4323 53.8592 16.3489 53.4395C14.2991 53.0265 12.0012 52.3843 10.573 51.3952C10.3707 51.2551 10.25 51.0247 10.25 50.7786V33.6624C10.25 33.2649 10.56 32.9365 10.9568 32.9136C12.7885 32.8079 19.3639 30.4035 21.2959 21.2288ZM32.5553 49.2961H30.9851C30.5709 49.2961 30.2351 48.9603 30.2351 48.5461C30.2351 48.1319 30.5709 47.7961 30.9851 47.7961H32.7761C33.4543 47.7961 34.0931 47.7028 34.5425 47.436C34.9241 47.2096 35.25 46.8142 35.25 45.9414C35.25 45.3315 34.9865 44.9993 34.6549 44.7868C34.2829 44.5483 33.8067 44.4589 33.4925 44.4589H30.9851C30.5709 44.4589 30.2351 44.1231 30.2351 43.7089C30.2351 43.2947 30.5709 42.9589 30.9851 42.9589H33.4925C33.966 42.9589 34.3964 42.8725 34.6972 42.6453C34.9573 42.4488 35.25 42.0478 35.25 41.1042C35.25 40.4943 34.9865 40.1621 34.6549 39.9496C34.2829 39.7111 33.8067 39.6217 33.4925 39.6217H30.9851C30.5709 39.6217 30.2351 39.2859 30.2351 38.8717C30.2351 38.4575 30.5709 38.1217 30.9851 38.1217H33.4925C33.8684 38.1217 34.3014 37.9896 34.6343 37.6752C34.9525 37.3747 35.25 36.8408 35.25 35.8949C35.25 35.285 34.9865 34.9528 34.6549 34.7403C34.2829 34.5018 33.8067 34.4124 33.4925 34.4124H21.6716C21.2574 34.4124 20.9216 34.0766 20.9216 33.6624C20.9216 33.2482 21.2574 32.9124 21.6716 32.9124H24.694C25.005 31.7894 25.3591 30.0891 25.5854 28.4439C25.7174 27.4839 25.8029 26.5634 25.8135 25.8031C25.8188 25.4228 25.8051 25.0954 25.7728 24.8303C25.7392 24.5553 25.6907 24.3924 25.6526 24.3132C25.4027 23.7941 24.6155 22.4018 22.6222 22.1671C20.5674 30.7405 14.5984 33.7593 11.75 34.317V50.3676C12.9336 51.0627 14.7805 51.5933 16.6451 51.969C18.6334 52.3696 20.5154 52.5707 21.3415 52.6333H30.9851C31.9469 52.6333 32.4971 52.4045 32.8038 52.1526C33.1013 51.9083 33.2508 51.5762 33.2823 51.1838C33.3148 50.7786 33.2164 50.3296 33.0294 49.9411C32.8806 49.632 32.7039 49.4176 32.5553 49.2961Z" fill="#F2FF88" />
  <path d="M8 48.3833C8 48.9356 7.55228 49.3833 7 49.3833C6.44772 49.3833 6 48.9356 6 48.3833C6 47.831 6.44772 47.3833 7 47.3833C7.55228 47.3833 8 47.831 8 48.3833Z" fill="#F2FF88" />
  <path d="M37.4935 24.1353C38.4215 24.1353 39.2055 23.9166 39.8455 23.4793C40.4855 23.0313 40.9495 22.434 41.2375 21.6873H42.7735C42.4322 22.8606 41.8135 23.7886 40.9175 24.4713C40.0215 25.1433 38.8855 25.4793 37.5095 25.4793C36.1975 25.4793 35.0775 25.1113 34.1495 24.3753C33.2215 23.6286 32.6135 22.6313 32.3255 21.3833H30.7255V20.6313H32.1815C32.1495 20.3433 32.1335 20.05 32.1335 19.7513C32.1335 19.5806 32.1442 19.3353 32.1655 19.0153H30.7255V18.2633H32.2775C32.4588 17.41 32.7895 16.6633 33.2695 16.0233C33.7495 15.3726 34.3522 14.8713 35.0775 14.5193C35.8135 14.1673 36.6242 13.9913 37.5095 13.9913C38.8855 13.9913 40.0215 14.3326 40.9175 15.0153C41.8135 15.6873 42.4322 16.61 42.7735 17.7833H41.2375C40.9495 17.0366 40.4855 16.4446 39.8455 16.0073C39.2055 15.5593 38.4215 15.3353 37.4935 15.3353C36.6082 15.3353 35.8348 15.5966 35.1735 16.1193C34.5122 16.6313 34.0642 17.346 33.8295 18.2633H37.7335V19.0153H33.6855C33.6535 19.25 33.6375 19.4953 33.6375 19.7513C33.6375 20.0926 33.6588 20.386 33.7015 20.6313H37.7335V21.3833H33.8615C34.1282 22.2473 34.5815 22.9246 35.2215 23.4153C35.8722 23.8953 36.6295 24.1353 37.4935 24.1353Z" fill="#F2FF88" />
</svg>
