<svg width="314" height="108" viewBox="0 0 314 108" fill="none" xmlns="http://www.w3.org/2000/svg">
<g opacity="0.3" clip-path="url(#clip0)">
<path d="M302.448 0.265625H13.0344C12.3564 0.266242 11.7064 0.535923 11.2271 1.01546C10.7477 1.49499 10.4781 2.14519 10.4775 2.82334V105.683C10.4781 106.361 10.7477 107.011 11.2271 107.491C11.7064 107.97 12.3564 108.24 13.0344 108.24H302.448C302.817 108.24 303.183 108.16 303.518 108.005C303.854 107.85 304.152 107.624 304.392 107.343C304.412 107.321 304.431 107.297 304.448 107.272C304.6 107.086 304.724 106.877 304.814 106.654C304.943 106.346 305.009 106.016 305.008 105.683V2.82336C305.007 2.14472 304.737 1.49414 304.257 1.01455C303.777 0.534961 303.126 0.265587 302.448 0.265625ZM304.277 105.683C304.278 106.04 304.173 106.388 303.975 106.686C303.8 106.948 303.562 107.161 303.283 107.308C303.025 107.441 302.738 107.511 302.448 107.51H13.0344C12.5501 107.509 12.0858 107.317 11.7433 106.974C11.4008 106.632 11.2082 106.167 11.2076 105.683V2.82336C11.2082 2.33889 11.4008 1.87443 11.7433 1.53186C12.0858 1.18928 12.5501 0.996566 13.0344 0.995978H302.448C302.932 0.995916 303.397 1.18833 303.741 1.53096C304.084 1.87359 304.277 2.33841 304.277 2.82336V105.683Z" fill="black" fill-opacity="0.38"/>
<path d="M304.197 10.5156H11.2871V11.2468H304.197V10.5156Z" fill="black" fill-opacity="0.38"/>
<path d="M17.0552 7.94177C18.2663 7.94177 19.248 6.95969 19.248 5.74823C19.248 4.53677 18.2663 3.55469 17.0552 3.55469C15.8441 3.55469 14.8623 4.53677 14.8623 5.74823C14.8623 6.95969 15.8441 7.94177 17.0552 7.94177Z" fill="#3F3D56"/>
<path d="M23.3589 7.94177C24.57 7.94177 25.5517 6.95969 25.5517 5.74823C25.5517 4.53677 24.57 3.55469 23.3589 3.55469C22.1478 3.55469 21.166 4.53677 21.166 5.74823C21.166 6.95969 22.1478 7.94177 23.3589 7.94177Z" fill="#3F3D56"/>
<path d="M29.6636 7.94177C30.8747 7.94177 31.8564 6.95969 31.8564 5.74823C31.8564 4.53677 30.8747 3.55469 29.6636 3.55469C28.4525 3.55469 27.4707 4.53677 27.4707 5.74823C27.4707 6.95969 28.4525 7.94177 29.6636 7.94177Z" fill="#3F3D56"/>
<path d="M179.962 32.0895H137.444C136.822 32.0895 136.226 31.8423 135.786 31.4023C135.346 30.9622 135.099 30.3653 135.099 29.743C135.099 29.1207 135.346 28.5238 135.786 28.0838C136.226 27.6437 136.822 27.3965 137.444 27.3965H179.962C180.584 27.3965 181.181 27.6437 181.621 28.0838C182.061 28.5238 182.308 29.1207 182.308 29.743C182.308 30.3653 182.061 30.9622 181.621 31.4023C181.181 31.8423 180.584 32.0895 179.962 32.0895Z" fill="#F7B34F"/>
<path d="M38.322 75.7755L36.5803 92.2188L36.5187 92.8054H31.8066C31.8623 92.6148 31.918 92.4182 31.9767 92.2188C33.3139 87.6313 35.1348 80.9349 34.9382 79.1604C34.6304 76.3915 36.7856 75.4675 36.7856 75.4675L36.9205 75.4939L38.322 75.7755Z" fill="#F2FF88"/>
<path d="M45.9207 70.7007C49.8982 70.7007 53.1226 67.4753 53.1226 63.4966C53.1226 59.5179 49.8982 56.2925 45.9207 56.2925C41.9432 56.2925 38.7188 59.5179 38.7188 63.4966C38.7188 67.4753 41.9432 70.7007 45.9207 70.7007Z" fill="#A0616A"/>
<path d="M55.2433 89.3152C54.8802 89.9849 54.5826 90.6883 54.3549 91.4153C54.2699 91.6735 54.1878 91.9433 54.1115 92.219C54.0558 92.4097 54.006 92.6062 53.9562 92.8057H34.9609C34.9874 92.6121 35.0108 92.4155 35.0373 92.219C36.0078 84.5488 36.7936 76.7642 36.9197 75.4942C36.9315 75.3739 36.9373 75.3123 36.9373 75.3123C48.3203 69.3111 56.6274 77.1602 56.6274 77.1602C56.6274 77.1602 56.6391 77.2159 56.6567 77.3244C56.8386 78.4215 57.7651 84.8275 55.2433 89.3152Z" fill="#F2FF88"/>
<path d="M54.3555 91.4149L53.0889 88.6988L53.3967 77.9282L56.6574 77.324L56.7718 77.3035C58.4572 78.2835 59.7614 79.8052 60.4722 81.6211C61.1056 83.205 62.3107 87.9684 63.3283 92.2186C63.3752 92.4151 63.422 92.6116 63.469 92.8052H55.0036L54.7308 92.2186L54.3555 91.4149Z" fill="#F2FF88"/>
<path d="M65.9408 44.4082H24.297C23.4037 44.4093 22.5474 44.7647 21.9158 45.3965C21.2841 46.0283 20.9288 46.8849 20.9277 47.7784V89.4351C20.9288 90.3286 21.2841 91.1852 21.9158 91.817C22.5474 92.4488 23.4037 92.8042 24.297 92.8053H65.9408C66.8342 92.8047 67.6908 92.4494 68.3225 91.8175C68.9542 91.1856 69.3093 90.3287 69.3099 89.4351V47.7784C69.3093 46.8848 68.9542 46.0279 68.3225 45.396C67.6908 44.7641 66.8342 44.4088 65.9408 44.4082ZM68.7234 89.4351C68.7228 90.1731 68.4295 90.8808 67.9078 91.4027C67.386 91.9245 66.6786 92.218 65.9408 92.2186H24.297C23.5593 92.2175 22.8521 91.9239 22.3305 91.4021C21.8089 90.8804 21.5153 90.173 21.5142 89.4351V47.7784C21.5153 47.0405 21.8089 46.3331 22.3305 45.8114C22.8521 45.2896 23.5593 44.9959 24.297 44.9948H65.9408C66.6786 44.9955 67.386 45.2889 67.9078 45.8108C68.4295 46.3327 68.7228 47.0404 68.7234 47.7784V89.4351ZM36.5801 92.2186L36.5185 92.8053H53.9567C54.0065 92.6058 54.0563 92.4093 54.112 92.2186H36.5801Z" fill="black" fill-opacity="0.38"/>
<path d="M49.3663 69.7728C49.6102 70.0134 49.9327 70.1579 50.2745 70.1798C50.6163 70.2017 50.9545 70.0995 51.2271 69.892C52.9245 68.6334 54.4146 67.0668 55.2964 65.1559C56.3069 62.9663 56.4196 60.2795 55.2013 58.1984C54.1714 56.4392 52.3528 55.304 50.5402 54.3718C49.8365 53.9745 49.0784 53.6822 48.2901 53.5043C47.4933 53.3285 46.6595 53.463 45.9585 53.8806C45.6155 54.0957 45.3453 54.4092 45.1831 54.7802C45.021 55.1513 44.9743 55.5625 45.0493 55.9605C44.1787 54.9668 43.0636 54.218 41.8145 53.7883C41.0279 53.4805 40.1667 53.418 39.344 53.6091C38.1938 53.9355 37.3541 54.9577 36.8948 56.0619C36.5234 56.9018 36.3951 57.8291 36.5246 58.7384C36.5928 59.1908 36.7551 59.6239 37.0011 60.0097C37.2471 60.3954 37.5713 60.7252 37.9528 60.9777C38.9038 61.5663 40.117 61.5239 41.2091 61.2834C42.3012 61.0429 43.3584 60.6247 44.4716 60.519C45.5849 60.4132 46.8246 60.6909 47.5021 61.5808C47.9792 62.2075 48.1018 63.0264 48.2088 63.8068L48.7659 67.866C48.8115 68.4533 48.9614 69.0276 49.2087 69.5622C49.2515 69.6391 49.3045 69.71 49.3663 69.7728Z" fill="#2F2E41"/>
<path d="M90.7278 72.6754C88.5347 71.2474 87.4438 67.9285 87.9812 64.8933C88.5185 61.8581 90.5423 59.2438 92.9683 58.1164C94.1484 57.5844 95.4421 57.3539 96.7333 57.4457C98.0245 57.5375 99.2726 57.9487 100.366 58.6424C102.59 60.0032 105.737 60.7486 106.793 63.4711C107.605 65.5633 106.575 69.8119 105.483 71.844C104.538 73.6005 102.744 74.4039 101.057 74.753C99.1921 75.1335 97.2668 75.1089 95.4118 74.6807C93.5568 74.2526 91.8153 73.4309 90.3052 72.2713L90.7278 72.6754Z" fill="#F7B34F"/>
<path d="M89.5837 88.7966L87.8302 91.8207L87.5986 92.2196L87.2614 92.8063H82.0918L82.4407 92.2196L83.3439 90.6973L85.4492 87.1423L87.8331 88.0956L89.5837 88.7966Z" fill="#FFB8B8"/>
<path d="M81.705 92.8055L80.7609 92.2189L80.6436 92.1455L86.5696 81.3427C86.8245 80.8751 87.1695 80.4628 87.5848 80.1295C88 79.7962 88.4772 79.5486 88.9888 79.401C89.6346 79.2086 90.3186 79.1834 90.9768 79.3276C91.3609 79.4088 91.7306 79.5472 92.0735 79.7383C92.2146 79.8157 92.3507 79.9019 92.4811 79.9964C92.9822 80.3479 93.394 80.812 93.6833 81.3515C94.0277 81.9831 94.1978 82.695 94.1761 83.4141C94.1545 84.1332 93.9419 84.8336 93.5601 85.4433L91.2759 89.0951L89.323 92.2189L88.9565 92.8055H81.705Z" fill="#2F2E41"/>
<path d="M96.9304 76.5096C100.908 76.5096 104.132 73.2842 104.132 69.3055C104.132 65.3267 100.908 62.1013 96.9304 62.1013C92.9529 62.1013 89.7285 65.3267 89.7285 69.3055C89.7285 73.2842 92.9529 76.5096 96.9304 76.5096Z" fill="#FFB8B8"/>
<path d="M104.16 92.8061H87.9711L88.0444 92.5978C88.0033 92.4717 87.9652 92.3456 87.93 92.2194C87.8919 92.0874 87.8596 91.9525 87.8304 91.8205C87.5673 90.5927 87.5683 89.3229 87.8332 88.0954C88.7277 83.7015 92.2962 80.1319 92.2962 80.1319C92.3578 80.085 92.4193 80.041 92.4809 79.997C93.0117 79.6082 93.5877 79.2851 94.1963 79.0349C96.847 77.935 99.6268 78.3779 101.495 78.9469C102.145 79.1437 102.781 79.3858 103.398 79.6714C103.615 79.7741 103.732 79.8386 103.732 79.8386L103.917 85.4732L104.139 92.2194L104.16 92.8061Z" fill="#D1D100"/>
<path d="M111.649 92.2191L110.411 85.9245L109.162 79.5772C109.11 79.3151 108.98 79.0748 108.789 78.8879C108.598 78.7011 108.355 78.5763 108.092 78.5301L105.476 78.0784L103.042 77.6589C102.808 77.6166 102.566 77.6393 102.343 77.7246C102.12 77.8099 101.925 77.9546 101.779 78.1429C101.596 78.3709 101.495 78.6542 101.494 78.9466C101.494 79.1272 101.531 79.3058 101.603 79.4716C102.872 82.4341 102.896 87.1242 102.573 92.2191C102.559 92.4127 102.547 92.6092 102.532 92.8057H111.766L111.649 92.2191Z" fill="#2F2E41"/>
<path d="M94.1958 79.0344C94.142 78.8209 94.0359 78.6242 93.8872 78.462C93.7384 78.2997 93.5517 78.177 93.3438 78.1048C93.1359 78.0327 92.9133 78.0134 92.696 78.0487C92.4788 78.084 92.2737 78.1727 92.0993 78.307L90.9762 79.3277L86.3784 83.5163C86.2351 83.6449 86.1228 83.8043 86.05 83.9826C85.5309 85.2234 84.5194 87.6725 83.3435 90.6966C83.1529 91.1894 82.9565 91.6968 82.7542 92.2189C82.6837 92.4125 82.6076 92.609 82.5312 92.8056H90.1083C90.1699 92.609 90.2314 92.4125 90.293 92.2189C90.6302 91.1542 90.9586 90.11 91.2753 89.0951C92.2018 86.1473 93.0375 83.4693 93.6827 81.3516C93.8615 80.765 94.0248 80.2233 94.1724 79.7266C94.2413 79.502 94.2493 79.2632 94.1958 79.0344Z" fill="#2F2E41"/>
<path d="M113.349 92.8058H113.839L113.772 92.6415L113.593 92.2192L110.833 85.6694L110.411 85.9246L107.021 87.9749L108.76 92.2192L109.001 92.8058H111.766H113.349Z" fill="#FFB8B8"/>
<path d="M110.552 80.4746C110.179 79.4971 109.442 78.7019 108.496 78.2553C107.55 77.8086 106.468 77.7452 105.477 78.0783C105.35 78.1203 105.225 78.1692 105.104 78.2249C104.409 78.5349 103.817 79.0365 103.398 79.671C103.226 79.9243 103.085 80.197 102.978 80.4834C102.788 80.9806 102.698 81.5106 102.714 82.0427C102.729 82.5748 102.85 83.0986 103.069 83.5838L103.917 85.4728L106.949 92.219L107.212 92.8056H113.35L113.772 92.6414L114.869 92.219L115.021 92.1603L110.552 80.4746Z" fill="#2F2E41"/>
<path d="M102.586 61.0314C102.837 61.1067 103.106 61.0971 103.351 61.0041C103.596 60.9111 103.803 60.7399 103.941 60.5169C104.072 60.2898 104.149 60.0356 104.166 59.7741C104.183 59.5126 104.14 59.2507 104.04 59.0083C103.836 58.5245 103.514 58.0996 103.103 57.7721C102.637 57.3502 102.07 57.0563 101.456 56.919C101.15 56.8531 100.833 56.8538 100.526 56.9212C100.22 56.9885 99.9321 57.1209 99.6815 57.3093C99.4354 57.5041 99.253 57.7678 99.1576 58.0668C99.0622 58.3658 99.0582 58.6865 99.1461 58.9878C99.3325 59.5288 99.8376 59.8912 100.342 60.1612C101.343 60.6956 102.447 61.0095 103.579 61.0816L102.586 61.0314Z" fill="#F7B34F"/>
<path d="M103.987 69.0905C102.83 69.2502 102.978 68.6607 102.515 67.5875C102.051 66.5143 101.43 65.2403 100.266 65.1316C99.3126 65.0425 98.5269 65.8051 97.7543 66.3715C96.3772 67.3809 94.5213 67.8749 92.925 67.2694C91.3287 66.6638 90.2195 64.7608 90.8252 63.1641C91.0137 62.7232 91.2907 62.3258 91.6391 61.9964C91.9874 61.6669 92.3997 61.4126 92.8503 61.249C93.7543 60.9275 94.7145 60.7941 95.6719 60.8569C97.8012 60.925 99.8896 61.4598 101.79 62.4235C103.101 63.09 104.378 64.0435 104.875 65.4282C105.373 66.8129 105.7 68.7587 104.278 69.1333L103.987 69.0905Z" fill="#F7B34F"/>
<path d="M101.994 57.2225C101.422 56.226 101.894 54.8587 102.831 54.1929C103.767 53.5271 105.023 53.4617 106.141 53.7288C107.246 54.0073 108.258 54.5715 109.077 55.3649C109.895 56.1583 110.49 57.153 110.803 58.2492C111.277 59.9918 110.995 61.8635 111.397 63.6244C111.611 64.563 112.015 65.4479 112.584 66.2245C113.152 67.0011 113.874 67.653 114.704 68.14C115.535 68.6271 116.456 68.939 117.411 69.0565C118.366 69.1741 119.335 69.0948 120.259 68.8235C121.462 68.4702 122.684 67.6112 122.802 66.3628C122.927 67.7964 122.6 69.233 121.868 70.4716C121.135 71.7102 120.034 72.6886 118.718 73.27C117.169 73.9167 115.44 73.9589 113.761 73.9158C112.667 73.8877 111.549 73.8218 110.539 73.3985C109.841 73.08 109.213 72.6252 108.693 72.0609C108.173 71.4966 107.77 70.8341 107.509 70.1122C106.996 68.6612 106.857 67.1038 107.106 65.5848C107.271 64.4033 107.6 63.2452 107.692 62.0557C107.784 60.8662 107.609 59.5961 106.876 58.655C106.143 57.7139 104.743 57.2332 103.7 57.8132C103.281 58.0462 102.944 58.427 102.488 58.5774C102.033 58.7278 101.388 58.4635 101.43 57.9858L101.994 57.2225Z" fill="#F7B34F"/>
<path d="M121.882 44.4084H80.2384C79.3451 44.4095 78.4888 44.7649 77.8572 45.3967C77.2255 46.0285 76.8702 46.8851 76.8691 47.7786V89.4353C76.8702 90.3288 77.2255 91.1854 77.8572 91.8172C78.4888 92.4491 79.3451 92.8045 80.2384 92.8055H121.882C122.776 92.8049 123.632 92.4497 124.264 91.8178C124.896 91.1859 125.251 90.329 125.251 89.4353V47.7786C125.251 46.885 124.896 46.0281 124.264 45.3962C123.632 44.7643 122.776 44.409 121.882 44.4084ZM124.665 89.4353C124.664 90.1734 124.371 90.881 123.849 91.4029C123.327 91.9248 122.62 92.2183 121.882 92.2189H80.2384C79.5007 92.2178 78.7935 91.9242 78.2719 91.4024C77.7503 90.8806 77.4567 90.1732 77.4556 89.4353V47.7786C77.4567 47.0407 77.7503 46.3334 78.2719 45.8116C78.7935 45.2898 79.5007 44.9962 80.2384 44.9951H121.882C122.62 44.9957 123.327 45.2892 123.849 45.8111C124.371 46.333 124.664 47.0406 124.665 47.7786V89.4353ZM87.9296 92.2189C87.9649 92.345 88.003 92.4712 88.044 92.5973L87.9707 92.8055H102.532C102.547 92.609 102.559 92.4125 102.573 92.2189H87.9296Z" fill="black" fill-opacity="0.38"/>
<path d="M151.188 92.806L151.243 92.2193L152.897 75.0076C153.439 74.583 154.022 74.2126 154.636 73.9018C158.04 72.1859 161.324 73.0072 163.101 73.717C163.572 73.9014 164.027 74.1241 164.462 74.3828L165.43 92.2193L165.462 92.806H151.188Z" fill="#FFFF8A"/>
<path d="M158.933 70.4263C162.911 70.4263 166.135 67.2009 166.135 63.2222C166.135 59.2435 162.911 56.0181 158.933 56.0181C154.956 56.0181 151.731 59.2435 151.731 63.2222C151.731 67.2009 154.956 70.4263 158.933 70.4263Z" fill="#FFB8B8"/>
<path d="M164.776 67.6151C165.311 67.0507 165.667 66.3398 165.797 65.5728C165.927 64.8058 165.826 64.0174 165.508 63.3079C165.189 62.5983 164.666 61.9997 164.006 61.5881C163.346 61.1766 162.578 60.9707 161.801 60.9967C160.805 61.03 159.867 61.4377 158.916 61.7368C157.476 62.227 155.939 62.3654 154.434 62.1406C152.921 61.9055 151.555 61.0986 150.618 59.8862C149.727 58.6612 149.449 56.9621 150.078 55.5841C150.805 53.9934 152.503 53.1168 154.099 52.4046C154.743 52.0821 155.431 51.856 156.141 51.7336C156.497 51.6746 156.86 51.6896 157.21 51.7777C157.559 51.8658 157.887 52.0252 158.172 52.2458C158.621 52.6318 158.884 53.2122 159.372 53.5468C159.922 53.9234 160.636 53.9135 161.299 53.9799C162.792 54.1294 164.205 54.7302 165.348 55.7023C166.492 56.6744 167.313 57.9718 167.701 59.4218C168.09 60.8719 168.028 62.406 167.524 63.82C167.019 65.2339 166.097 66.4609 164.878 67.3375L164.776 67.6151Z" fill="#2F2E41"/>
<path d="M155.709 76.8812L154.636 73.9011L154.569 73.7154C154.537 73.6273 154.486 73.5476 154.419 73.4823C154.352 73.4171 154.271 73.3679 154.182 73.3386C154.093 73.3093 153.998 73.3006 153.906 73.3132C153.813 73.3258 153.724 73.3594 153.646 73.4113L152.428 74.2238C152.428 74.2238 144.613 74.2238 143.986 78.9139C143.977 78.9872 143.965 79.0693 143.957 79.1573C143.956 79.1614 143.955 79.1653 143.954 79.1691C143.875 79.4771 142.4 85.1791 141.133 92.2187C141.098 92.4123 141.063 92.6088 141.027 92.8053H158.008V92.8053C158.561 85.7337 158.251 79.1588 155.709 76.8812Z" fill="#2F2E41"/>
<path d="M175.965 92.2192C175.039 84.9978 173.713 79.1579 173.713 79.1579C173.702 79.0699 173.69 78.9878 173.681 78.9144C173.056 74.2243 165.242 74.2243 165.242 74.2243L164.024 73.4123C163.946 73.3603 163.858 73.3268 163.765 73.3142C163.672 73.3016 163.578 73.3103 163.489 73.3397C163.4 73.369 163.319 73.4183 163.252 73.4836C163.184 73.549 163.133 73.6287 163.101 73.7169L161.961 76.8818C159.418 79.1594 159.109 85.7342 159.662 92.8057L159.662 92.8059H176.039C176.015 92.6094 175.989 92.4128 175.965 92.2192Z" fill="#2F2E41"/>
<path d="M177.825 44.4084H136.181C135.287 44.409 134.431 44.7643 133.799 45.3962C133.167 46.0281 132.812 46.885 132.812 47.7786V89.4353C132.812 90.329 133.167 91.1859 133.799 91.8178C134.431 92.4497 135.287 92.805 136.181 92.8055H177.825C178.718 92.8044 179.574 92.449 180.206 91.8172C180.837 91.1854 181.193 90.3288 181.194 89.4353V47.7786C181.193 46.8852 180.837 46.0286 180.206 45.3968C179.574 44.765 178.718 44.4095 177.825 44.4084ZM180.607 89.4353C180.606 90.1732 180.313 90.8806 179.791 91.4024C179.269 91.9242 178.562 92.2178 177.825 92.2189H136.181C135.443 92.2183 134.735 91.9248 134.214 91.403C133.692 90.8811 133.399 90.1734 133.398 89.4353V47.7786C133.399 47.0406 133.692 46.3329 134.214 45.811C134.735 45.2891 135.443 44.9957 136.181 44.9951H177.825C178.562 44.9962 179.269 45.2898 179.791 45.8116C180.313 46.3334 180.606 47.0408 180.607 47.7786V89.4353ZM158.052 92.2189C158.038 92.4125 158.023 92.609 158.008 92.8055H170.643C170.667 92.6119 170.693 92.4154 170.717 92.2189H158.052Z" fill="black" fill-opacity="0.38"/>
<path d="M219.74 75.7758L221.482 92.219L221.544 92.8057H226.256C226.2 92.615 226.144 92.4185 226.086 92.219C224.749 87.6316 222.928 80.9352 223.124 79.1606C223.432 76.3917 221.277 75.4678 221.277 75.4678L221.142 75.4942L219.74 75.7758Z" fill="#F7B34F"/>
<path d="M212.141 70.701C208.163 70.701 204.939 67.4756 204.939 63.4969C204.939 59.5181 208.163 56.2927 212.141 56.2927C216.118 56.2927 219.343 59.5181 219.343 63.4969C219.343 67.4756 216.118 70.701 212.141 70.701Z" fill="#FFB8B8"/>
<path d="M202.818 89.3154C203.181 89.9852 203.479 90.6885 203.707 91.4156C203.792 91.6737 203.874 91.9435 203.95 92.2193C204.006 92.4099 204.056 92.6064 204.105 92.8059H223.101C223.074 92.6123 223.051 92.4158 223.024 92.2193C222.054 84.5491 221.268 76.7645 221.142 75.4944C221.13 75.3741 221.124 75.3125 221.124 75.3125C209.741 69.3113 201.434 77.1604 201.434 77.1604C201.434 77.1604 201.422 77.2162 201.405 77.3247C201.223 78.4217 200.296 84.8277 202.818 89.3154Z" fill="#F7B34F"/>
<path d="M203.707 91.4151L204.974 88.699L204.666 77.9285L201.405 77.3242L201.291 77.3037C199.605 78.2838 198.301 79.8055 197.59 81.6213C196.957 83.2052 195.752 87.9687 194.734 92.2188C194.687 92.4153 194.64 92.6118 194.593 92.8054H203.059L203.332 92.2188L203.707 91.4151Z" fill="#F7B34F"/>
<path d="M192.122 44.4084H233.766C234.659 44.4095 235.515 44.7649 236.147 45.3967C236.778 46.0285 237.134 46.8851 237.135 47.7786V89.4353C237.134 90.3288 236.778 91.1854 236.147 91.8172C235.515 92.449 234.659 92.8044 233.766 92.8055H192.122C191.228 92.8049 190.372 92.4497 189.74 91.8178C189.108 91.1858 188.753 90.329 188.753 89.4353V47.7786C188.753 46.885 189.108 46.0281 189.74 45.3962C190.372 44.7643 191.228 44.409 192.122 44.4084ZM189.339 89.4353C189.34 90.1734 189.633 90.881 190.155 91.4029C190.676 91.9248 191.384 92.2183 192.122 92.2189H233.766C234.503 92.2178 235.21 91.9242 235.732 91.4024C236.254 90.8806 236.547 90.1732 236.548 89.4353V47.7786C236.547 47.0407 236.254 46.3334 235.732 45.8116C235.21 45.2898 234.503 44.9962 233.766 44.9951H192.122C191.384 44.9957 190.676 45.2892 190.155 45.8111C189.633 46.333 189.34 47.0406 189.339 47.7786V89.4353ZM221.482 92.2189L221.544 92.8055H204.106C204.056 92.6061 204.006 92.4095 203.951 92.2189H221.482Z" fill="black" fill-opacity="0.38"/>
<path d="M208.696 69.773C208.452 70.0136 208.13 70.1581 207.788 70.18C207.446 70.2019 207.108 70.0998 206.835 69.8923C205.138 68.6337 203.648 67.0671 202.766 65.1562C201.756 62.9666 201.643 60.2797 202.861 58.1987C203.891 56.4394 205.71 55.3042 207.522 54.3721C208.226 53.9747 208.984 53.6825 209.772 53.5045C210.569 53.3287 211.403 53.4633 212.104 53.8809C212.447 54.096 212.717 54.4095 212.879 54.7805C213.042 55.1515 213.088 55.5628 213.013 55.9607C213.884 54.9671 214.999 54.2183 216.248 53.7885C217.035 53.4807 217.896 53.4183 218.719 53.6094C219.869 53.9357 220.708 54.958 221.168 56.0622C221.539 56.9021 221.667 57.8294 221.538 58.7386C221.47 59.1911 221.307 59.6242 221.061 60.0099C220.815 60.3957 220.491 60.7255 220.11 60.978C219.159 61.5665 217.946 61.5241 216.853 61.2836C215.761 61.0432 214.704 60.625 213.591 60.5192C212.478 60.4135 211.238 60.6911 210.56 61.5811C210.083 62.2078 209.961 63.0266 209.854 63.8071L209.297 67.8663C209.251 68.4535 209.101 69.0279 208.854 69.5624C208.811 69.6394 208.758 69.7102 208.696 69.773Z" fill="#2F2E41"/>
<path d="M279.219 72.6754C281.412 71.2474 282.502 67.9285 281.965 64.8933C281.428 61.8581 279.404 59.2438 276.978 58.1164C275.798 57.5844 274.504 57.3539 273.213 57.4457C271.922 57.5375 270.674 57.9487 269.581 58.6424C267.356 60.0032 264.21 60.7486 263.153 63.4711C262.341 65.5633 263.371 69.8119 264.464 71.844C265.408 73.6005 267.203 74.4039 268.889 74.753C270.754 75.1335 272.679 75.1089 274.534 74.6807C276.389 74.2526 278.131 73.4309 279.641 72.2713L279.219 72.6754Z" fill="#2F2E41"/>
<path d="M280.364 88.7966L282.117 91.8207L282.349 92.2196L282.686 92.8063H287.855L287.507 92.2196L286.603 90.6973L284.498 87.1423L282.114 88.0956L280.364 88.7966Z" fill="#FFB8B8"/>
<path d="M288.242 92.8055L289.186 92.2189L289.304 92.1455L283.378 81.3427C283.123 80.8751 282.778 80.4628 282.363 80.1295C281.947 79.7962 281.47 79.5486 280.959 79.401C280.313 79.2086 279.629 79.1834 278.97 79.3276C278.586 79.4088 278.217 79.5472 277.874 79.7383C277.733 79.8157 277.597 79.9019 277.466 79.9964C276.965 80.3479 276.553 80.812 276.264 81.3515C275.92 81.9831 275.75 82.695 275.771 83.4141C275.793 84.1332 276.005 84.8336 276.387 85.4433L278.671 89.0951L280.624 92.2189L280.991 92.8055H288.242Z" fill="#2F2E41"/>
<path d="M273.016 76.5096C269.038 76.5096 265.814 73.2842 265.814 69.3055C265.814 65.3267 269.038 62.1013 273.016 62.1013C276.993 62.1013 280.218 65.3267 280.218 69.3055C280.218 73.2842 276.993 76.5096 273.016 76.5096Z" fill="#FFB8B8"/>
<path d="M265.786 92.8061H281.975L281.902 92.5978C281.943 92.4717 281.981 92.3456 282.016 92.2194C282.054 92.0874 282.087 91.9525 282.116 91.8205C282.379 90.5927 282.378 89.3229 282.113 88.0954C281.219 83.7015 277.65 80.1319 277.65 80.1319C277.589 80.085 277.527 80.041 277.465 79.997C276.935 79.6082 276.359 79.2851 275.75 79.0349C273.099 77.935 270.319 78.3779 268.452 78.9469C267.801 79.1437 267.165 79.3858 266.549 79.6714C266.332 79.7741 266.214 79.8386 266.214 79.8386L266.03 85.4732L265.807 92.2194L265.786 92.8061Z" fill="#F2FF88"/>
<path d="M258.298 92.2191L259.535 85.9245L260.784 79.5772C260.836 79.3151 260.966 79.0748 261.157 78.8879C261.348 78.7011 261.591 78.5763 261.855 78.5301L264.47 78.0784L266.904 77.6589C267.139 77.6166 267.38 77.6393 267.603 77.7246C267.826 77.8099 268.021 77.9546 268.168 78.1429C268.351 78.3709 268.451 78.6542 268.452 78.9466C268.452 79.1272 268.415 79.3058 268.344 79.4716C267.074 82.4341 267.05 87.1242 267.373 92.2191C267.388 92.4127 267.399 92.6092 267.414 92.8057H258.18L258.298 92.2191Z" fill="#2F2E41"/>
<path d="M275.75 79.0344C275.804 78.8209 275.91 78.6242 276.059 78.462C276.208 78.2997 276.395 78.177 276.603 78.1048C276.81 78.0327 277.033 78.0134 277.25 78.0487C277.468 78.084 277.673 78.1727 277.847 78.307L278.97 79.3277L283.568 83.5163C283.711 83.6449 283.823 83.8043 283.896 83.9826C284.415 85.2234 285.427 87.6725 286.603 90.6966C286.793 91.1894 286.99 91.6968 287.192 92.2189C287.263 92.4125 287.339 92.609 287.415 92.8056H279.838C279.776 92.609 279.715 92.4125 279.653 92.2189C279.316 91.1542 278.988 90.11 278.671 89.0951C277.744 86.1473 276.909 83.4693 276.264 81.3516C276.085 80.765 275.922 80.2233 275.774 79.7266C275.705 79.502 275.697 79.2632 275.75 79.0344Z" fill="#2F2E41"/>
<path d="M256.597 92.8058H256.107L256.175 92.6415L256.354 92.2192L259.113 85.6694L259.535 85.9246L262.925 87.9749L261.186 92.2192L260.946 92.8058H258.18H256.597Z" fill="#FFB8B8"/>
<path d="M259.394 80.4746C259.767 79.4971 260.504 78.7019 261.45 78.2553C262.396 77.8086 263.478 77.7452 264.47 78.0783C264.596 78.1203 264.721 78.1692 264.842 78.2249C265.537 78.5349 266.129 79.0365 266.549 79.671C266.72 79.9243 266.861 80.197 266.968 80.4834C267.158 80.9806 267.248 81.5106 267.233 82.0427C267.217 82.5748 267.096 83.0986 266.877 83.5838L266.03 85.4728L262.998 92.219L262.734 92.8056H256.597L256.174 92.6414L255.078 92.219L254.925 92.1603L259.394 80.4746Z" fill="#2F2E41"/>
<path d="M267.36 61.0314C267.109 61.1067 266.841 61.0971 266.596 61.0041C266.35 60.9111 266.143 60.7399 266.005 60.5169C265.874 60.2898 265.798 60.0356 265.78 59.7741C265.763 59.5126 265.806 59.2507 265.906 59.0083C266.11 58.5245 266.432 58.0996 266.843 57.7721C267.309 57.3502 267.876 57.0563 268.49 56.919C268.797 56.8531 269.114 56.8538 269.42 56.9212C269.726 56.9885 270.014 57.1209 270.265 57.3093C270.511 57.5041 270.693 57.7678 270.789 58.0668C270.884 58.3658 270.888 58.6865 270.8 58.9878C270.614 59.5288 270.109 59.8912 269.604 60.1612C268.603 60.6956 267.5 61.0095 266.368 61.0816L267.36 61.0314Z" fill="#EC634E"/>
<path d="M265.959 69.0905C267.117 69.2502 266.968 68.6607 267.432 67.5875C267.895 66.5143 268.516 65.2403 269.68 65.1316C270.634 65.0425 271.419 65.8051 272.192 66.3715C273.569 67.3809 275.425 67.8749 277.021 67.2694C278.618 66.6638 279.727 64.7608 279.121 63.1641C278.933 62.7232 278.656 62.3258 278.307 61.9964C277.959 61.6669 277.547 61.4126 277.096 61.249C276.192 60.9275 275.232 60.7941 274.274 60.8569C272.145 60.925 270.057 61.4598 268.157 62.4235C266.845 63.09 265.569 64.0435 265.071 65.4282C264.574 66.8129 264.246 68.7587 265.669 69.1333L265.959 69.0905Z" fill="#2F2E41"/>
<path d="M267.952 57.2225C268.525 56.226 268.052 54.8587 267.116 54.1929C266.179 53.5271 264.923 53.4617 263.806 53.7288C262.701 54.0073 261.688 54.5715 260.87 55.3649C260.051 56.1583 259.456 57.153 259.143 58.2492C258.669 59.9918 258.951 61.8635 258.549 63.6244C258.335 64.563 257.932 65.4479 257.363 66.2245C256.794 67.0011 256.072 67.653 255.242 68.14C254.412 68.6271 253.491 68.939 252.535 69.0565C251.58 69.1741 250.611 69.0948 249.688 68.8235C248.485 68.4702 247.262 67.6112 247.144 66.3628C247.02 67.7964 247.346 69.233 248.079 70.4716C248.811 71.7102 249.912 72.6886 251.228 73.27C252.778 73.9167 254.506 73.9589 256.185 73.9158C257.279 73.8877 258.398 73.8218 259.407 73.3985C260.105 73.08 260.733 72.6252 261.253 72.0609C261.773 71.4966 262.176 70.8341 262.437 70.1122C262.951 68.6612 263.089 67.1038 262.84 65.5848C262.675 64.4033 262.347 63.2452 262.255 62.0557C262.163 60.8662 262.337 59.5961 263.07 58.655C263.803 57.7139 265.204 57.2332 266.246 57.8132C266.665 58.0462 267.003 58.427 267.458 58.5774C267.913 58.7278 268.558 58.4635 268.517 57.9858L267.952 57.2225Z" fill="#2F2E41"/>
<path d="M248.064 44.4084H289.708C290.601 44.4095 291.458 44.7649 292.089 45.3967C292.721 46.0285 293.076 46.8851 293.077 47.7786V89.4353C293.076 90.3288 292.721 91.1854 292.089 91.8172C291.458 92.4491 290.601 92.8045 289.708 92.8055H248.064C247.171 92.8049 246.314 92.4497 245.682 91.8178C245.051 91.1859 244.696 90.329 244.695 89.4353V47.7786C244.696 46.885 245.051 46.0281 245.682 45.3962C246.314 44.7643 247.171 44.409 248.064 44.4084ZM245.281 89.4353C245.282 90.1734 245.575 90.881 246.097 91.4029C246.619 91.9248 247.326 92.2183 248.064 92.2189H289.708C290.446 92.2178 291.153 91.9242 291.674 91.4024C292.196 90.8806 292.49 90.1732 292.491 89.4353V47.7786C292.49 47.0407 292.196 46.3334 291.674 45.8116C291.153 45.2898 290.446 44.9962 289.708 44.9951H248.064C247.326 44.9957 246.619 45.2892 246.097 45.8111C245.575 46.333 245.282 47.0406 245.281 47.7786V89.4353ZM282.017 92.2189C281.981 92.345 281.943 92.4712 281.902 92.5973L281.976 92.8055H267.414C267.399 92.609 267.388 92.4125 267.373 92.2189H282.017Z" fill="black" fill-opacity="0.38"/>
</g>
<defs>
<clipPath id="clip0">
<rect width="314" height="108" fill="white"/>
</clipPath>
</defs>
</svg>
