<svg width="18" height="19" viewBox="0 0 18 19" fill="none" xmlns="http://www.w3.org/2000/svg">
<path d="M9.37037 3.7645C9.37037 2.89517 10.0751 2.19043 10.9444 2.19043C11.8138 2.19043 12.5185 2.89517 12.5185 3.7645V7.74599C12.5185 8.61532 11.8138 9.32006 10.9444 9.32006C10.0751 9.32006 9.37037 8.61532 9.37037 7.74599V3.7645Z" fill="white"/>
<path d="M5.48148 11.6349C5.48148 10.7655 6.18622 10.0608 7.05556 10.0608C7.92489 10.0608 8.62963 10.7655 8.62963 11.6349V15.6164C8.62963 16.4857 7.92489 17.1904 7.05556 17.1904C6.18622 17.1904 5.48148 16.4857 5.48148 15.6164V11.6349Z" fill="white"/>
<path d="M14.9259 10.0608C15.7953 10.0608 16.5 10.7655 16.5 11.6349C16.5 12.5042 15.7953 13.2089 14.9259 13.2089H10.9444C10.0751 13.2089 9.37037 12.5042 9.37037 11.6349C9.37037 10.7655 10.0751 10.0608 10.9444 10.0608H14.9259Z" fill="white"/>
<path d="M7.05556 6.17191C7.92489 6.17191 8.62963 6.87665 8.62963 7.74599C8.62963 8.61532 7.92489 9.32006 7.05556 9.32006H3.07407C2.20474 9.32006 1.5 8.61532 1.5 7.74598C1.5 6.87665 2.20474 6.17191 3.07407 6.17191L7.05556 6.17191Z" fill="white"/>
<path d="M7.05556 2.19043C7.92489 2.19043 8.62963 2.89517 8.62963 3.7645V5.33858H7.05556C6.18622 5.33858 5.48148 4.63384 5.48148 3.7645C5.48148 2.89517 6.18622 2.19043 7.05556 2.19043Z" fill="white"/>
<path d="M10.9444 17.0978C10.0751 17.0978 9.37037 16.3931 9.37037 15.5238V13.9497H10.9444C11.8138 13.9497 12.5185 14.6544 12.5185 15.5238C12.5185 16.3931 11.8138 17.0978 10.9444 17.0978Z" fill="white"/>
<path d="M1.59259 11.6349C1.59259 10.7655 2.29733 10.0608 3.16667 10.0608H4.74074V11.6349C4.74074 12.5042 4.036 13.2089 3.16667 13.2089C2.29733 13.2089 1.59259 12.5042 1.59259 11.6349Z" fill="white"/>
<path d="M16.4074 7.74599C16.4074 8.61532 15.7027 9.32006 14.8333 9.32006H13.2593V7.74598C13.2593 6.87665 13.964 6.17191 14.8333 6.17191C15.7027 6.17191 16.4074 6.87665 16.4074 7.74599Z" fill="white"/>
</svg>
