<svg width="104" height="24" viewBox="0 0 104 24" fill="none" xmlns="http://www.w3.org/2000/svg">
<g clip-path="url(#clip0_1026_79718)">
<path d="M69.4228 7.95322C69.4228 11.6466 66.2854 14.6805 62.4805 14.6805H43.6562C39.8513 14.6805 36.7139 11.6466 36.7139 7.95322V6.76606C36.7139 3.07267 39.7845 0.0388184 43.6562 0.0388184H62.4805C66.2854 0.0388184 69.4228 3.07267 69.4228 6.76606V7.95322ZM63.8823 7.16178C63.8823 5.97462 62.7475 4.98532 61.4125 4.98532H44.8577C43.5227 4.98532 42.3879 5.97462 42.3879 7.16178V7.5575C42.3879 8.74466 43.5227 9.73396 44.8577 9.73396H61.4125C62.7475 9.73396 63.8823 8.81061 63.8823 7.5575V7.16178Z" fill="#87A097"/>
<path d="M97.8594 7.16178C97.8594 5.97462 96.9249 4.98532 95.8568 4.98532H81.3047C80.1699 4.98532 79.3021 5.97462 79.3021 7.16178V14.5486H73.6948V6.76606C73.6948 3.07267 76.8322 0.0388184 80.6371 0.0388184H96.5243C100.396 0.0388184 103.467 3.07267 103.467 6.76606V14.5486H97.8594V7.16178Z" fill="#87A097"/>
<path d="M103.4 19.0332H16.688V23.7159H103.4V19.0332Z" fill="#87A097"/>
<path d="M27.4352 7.16199C27.4352 5.97483 26.3672 4.98553 24.9653 4.98553H8.41061C7.07555 4.98553 5.94075 5.97483 5.94075 7.16199V7.55771C5.94075 8.74487 7.07555 9.73417 8.41061 9.73417H25.0321C26.3671 9.73417 27.502 8.81082 27.502 7.55771V7.16199H27.4352ZM33.0424 6.76627V7.95343C33.0424 11.6468 29.9051 14.6807 26.1001 14.6807H7.2758C6.80853 14.6807 6.34126 14.6147 5.94075 14.5488V23.7163H0.333496V6.76627C0.333496 3.07288 3.47089 0.10498 7.2758 0.10498H26.1001C29.9718 0.10498 33.0424 3.07288 33.0424 6.76627Z" fill="#87A097"/>
</g>
<defs>
<clipPath id="clip0_1026_79718">
<rect width="103.667" height="23.9231" fill="white" transform="translate(0.333496 0.0385742)"/>
</clipPath>
</defs>
</svg>
